<?xml version="1.0" encoding="UTF-8" standalone="no"?>
<!-- Created with Inkscape (http://www.inkscape.org/) -->

<svg
   xmlns:dc="http://purl.org/dc/elements/1.1/"
   xmlns:cc="http://creativecommons.org/ns#"
   xmlns:rdf="http://www.w3.org/1999/02/22-rdf-syntax-ns#"
   xmlns:svg="http://www.w3.org/2000/svg"
   xmlns="http://www.w3.org/2000/svg"
   xmlns:sodipodi="http://sodipodi.sourceforge.net/DTD/sodipodi-0.dtd"
   xmlns:inkscape="http://www.inkscape.org/namespaces/inkscape"
   width="1920px"
   height="1080px"
   viewBox="0 0 1920 1080"
   version="1.1"
   id="SVGRoot"
   inkscape:version="0.92.2 (5c3e80d, 2017-08-06)"
   sodipodi:docname="screenshot-figetquest-levelfailed.svg"
   inkscape:export-filename="C:\Users\acer\Pictures\The Inkscape place\Render\Fidget-LevelFailed-EN.png"
   inkscape:export-xdpi="96"
   inkscape:export-ydpi="96">
  <sodipodi:namedview
     id="base"
     pagecolor="#ffffff"
     bordercolor="#666666"
     borderopacity="1.0"
     inkscape:pageopacity="0.0"
     inkscape:pageshadow="2"
     inkscape:zoom="0.49497475"
     inkscape:cx="1292.6775"
     inkscape:cy="307.12671"
     inkscape:document-units="px"
     inkscape:current-layer="layer1"
     showgrid="true"
     inkscape:window-width="1366"
     inkscape:window-height="745"
     inkscape:window-x="-8"
     inkscape:window-y="-8"
     inkscape:window-maximized="1">
    <inkscape:grid
       type="xygrid"
       id="grid1390"
       empspacing="4"
       originy="-8" />
  </sodipodi:namedview>
  <defs
     id="defs831" />
  <metadata
     id="metadata834">
    <rdf:RDF>
      <cc:Work
         rdf:about="">
        <dc:format>image/svg+xml</dc:format>
        <dc:type
           rdf:resource="http://purl.org/dc/dcmitype/StillImage" />
        <dc:title></dc:title>
        <cc:license
           rdf:resource="http://creativecommons.org/licenses/by/4.0/" />
      </cc:Work>
      <cc:License
         rdf:about="http://creativecommons.org/licenses/by/4.0/">
        <cc:permits
           rdf:resource="http://creativecommons.org/ns#Reproduction" />
        <cc:permits
           rdf:resource="http://creativecommons.org/ns#Distribution" />
        <cc:requires
           rdf:resource="http://creativecommons.org/ns#Notice" />
        <cc:requires
           rdf:resource="http://creativecommons.org/ns#Attribution" />
        <cc:permits
           rdf:resource="http://creativecommons.org/ns#DerivativeWorks" />
      </cc:License>
    </rdf:RDF>
  </metadata>
  <g
     id="layer1"
     inkscape:groupmode="layer"
     inkscape:label="Layer 1">
    <rect
       style="opacity:1;fill:#d40000;fill-opacity:1;fill-rule:nonzero;stroke:#000005;stroke-width:1.68691456;stroke-opacity:1"
       id="rect1394"
       width="1920"
       height="91.061783"
       x="0"
       y="988.93823" />
    <rect
       style="opacity:1;fill:#ff0000;fill-opacity:1;fill-rule:nonzero;stroke:#000005;stroke-opacity:1"
       id="rect1396"
       width="104"
       height="96"
       x="1496"
       y="888"
       ry="0" />
    <rect
       style="opacity:1;fill:#ffff00;fill-opacity:1;fill-rule:nonzero;stroke:#000005;stroke-opacity:1"
       id="rect1396-9"
       width="104"
       height="96"
       x="1616"
       y="888"
       ry="0" />
    <rect
       style="opacity:1;fill:#000080;fill-opacity:1;fill-rule:nonzero;stroke:#000005;stroke-opacity:1"
       id="rect1430"
       width="88"
       height="76"
       x="8"
       y="996" />
    <flowRoot
       xml:space="preserve"
       id="flowRoot1432"
       style="font-style:normal;font-weight:normal;font-size:53.33333333px;line-height:1.25;font-family:sans-serif;text-align:center;letter-spacing:0px;word-spacing:0px;text-anchor:middle;fill:#ffffff;fill-opacity:1;stroke:none;"><flowRegion
         id="flowRegion1434"
         style="text-align:center;text-anchor:middle;fill:#ffffff;font-size:53.33333333px;"><rect
           id="rect1436"
           width="68"
           height="60"
           x="16"
           y="1004"
           style="text-align:center;text-anchor:middle;fill:#ffffff;font-size:53.33333333px;" /></flowRegion><flowPara
         id="flowPara1438"
         style="font-size:53.33333333px;">07</flowPara></flowRoot>    <flowRoot
       xml:space="preserve"
       id="flowRoot1440"
       style="font-style:normal;font-weight:normal;font-size:40px;line-height:1.25;font-family:sans-serif;letter-spacing:0px;word-spacing:0px;fill:#000000;fill-opacity:1;stroke:none"><flowRegion
         id="flowRegion1442"><rect
           id="rect1444"
           width="1248"
           height="68"
           x="104"
           y="1000" /></flowRegion><flowPara
         id="flowPara1446">Level Failed!</flowPara></flowRoot>    <flowRoot
       xml:space="preserve"
       id="flowRoot1448"
       style="font-style:normal;font-weight:normal;font-size:24px;line-height:1.25;font-family:sans-serif;letter-spacing:0px;word-spacing:0px;fill:#000000;fill-opacity:1;stroke:none"><flowRegion
         id="flowRegion1450"
         style="font-size:24px"><rect
           id="rect1452"
           width="88"
           height="80"
           x="1504"
           y="896"
           style="font-size:24px" /></flowRegion><flowPara
         id="flowPara1454"
         style="font-size:14.66666698px">Back to level select</flowPara></flowRoot>    <flowRoot
       xml:space="preserve"
       id="flowRoot1456"
       style="fill:black;fill-opacity:1;stroke:none;font-family:sans-serif;font-style:normal;font-weight:normal;font-size:40px;line-height:1.25;letter-spacing:0px;word-spacing:0px"><flowRegion
         id="flowRegion1458"><rect
           id="rect1460"
           width="88"
           height="64"
           x="1624"
           y="904" /></flowRegion><flowPara
         id="flowPara1462" /></flowRoot>    <flowRoot
       xml:space="preserve"
       id="flowRoot1464"
       style="font-style:normal;font-weight:normal;font-size:18.66666667px;line-height:1.25;font-family:sans-serif;letter-spacing:0px;word-spacing:0px;fill:#000000;fill-opacity:1;stroke:none;"><flowRegion
         id="flowRegion1466"
         style="font-size:18.66666667px;"><rect
           id="rect1468"
           width="80"
           height="64"
           x="1624"
           y="904"
           style="font-size:18.66666667px;" /></flowRegion><flowPara
         id="flowPara1470">Restart level</flowPara></flowRoot>  </g>
</svg>
