<?xml version="1.0" encoding="UTF-8" standalone="no"?>
<!-- Created with Inkscape (http://www.inkscape.org/) -->

<svg
   xmlns:dc="http://purl.org/dc/elements/1.1/"
   xmlns:cc="http://creativecommons.org/ns#"
   xmlns:rdf="http://www.w3.org/1999/02/22-rdf-syntax-ns#"
   xmlns:svg="http://www.w3.org/2000/svg"
   xmlns="http://www.w3.org/2000/svg"
   xmlns:xlink="http://www.w3.org/1999/xlink"
   xmlns:sodipodi="http://sodipodi.sourceforge.net/DTD/sodipodi-0.dtd"
   xmlns:inkscape="http://www.inkscape.org/namespaces/inkscape"
   width="11in"
   height="8.5in"
   viewBox="0 0 279.4 215.9"
   version="1.1"
   id="svg8"
   inkscape:version="0.92.3 (2405546, 2018-03-11)"
   sodipodi:docname="brochure forint.svg">
  <defs
     id="defs2">
    <linearGradient
       inkscape:collect="always"
       id="linearGradient849">
      <stop
         style="stop-color:#00f400;stop-opacity:1"
         offset="0"
         id="stop845" />
      <stop
         style="stop-color:#ffffff;stop-opacity:0;"
         offset="1"
         id="stop847" />
    </linearGradient>
    <linearGradient
       inkscape:collect="always"
       xlink:href="#linearGradient849"
       id="linearGradient851"
       x1="143.93333"
       y1="297"
       x2="143.93333"
       y2="81.100014"
       gradientUnits="userSpaceOnUse" />
  </defs>
  <sodipodi:namedview
     id="base"
     pagecolor="#ffffff"
     bordercolor="#666666"
     borderopacity="1.0"
     inkscape:pageopacity="0.0"
     inkscape:pageshadow="2"
     inkscape:zoom="0.64"
     inkscape:cx="254.82732"
     inkscape:cy="177.72114"
     inkscape:document-units="in"
     inkscape:current-layer="layer1"
     showgrid="true"
     units="in"
     inkscape:measure-start="0,32"
     inkscape:measure-end="416,416"
     inkscape:window-width="1366"
     inkscape:window-height="705"
     inkscape:window-x="-8"
     inkscape:window-y="-8"
     inkscape:window-maximized="1">
    <inkscape:grid
       type="xygrid"
       id="grid815"
       units="px"
       empspacing="4" />
    <inkscape:grid
       type="xygrid"
       id="grid853"
       color="#ff423f"
       opacity="0.1254902"
       visible="true"
       empcolor="#ff463f"
       empopacity="0.25098039"
       empspacing="64" />
  </sodipodi:namedview>
  <metadata
     id="metadata5">
    <rdf:RDF>
      <cc:Work
         rdf:about="">
        <dc:format>image/svg+xml</dc:format>
        <dc:type
           rdf:resource="http://purl.org/dc/dcmitype/StillImage" />
        <dc:title></dc:title>
        <cc:license
           rdf:resource="http://creativecommons.org/licenses/by-sa/4.0/" />
      </cc:Work>
      <cc:License
         rdf:about="http://creativecommons.org/licenses/by-sa/4.0/">
        <cc:permits
           rdf:resource="http://creativecommons.org/ns#Reproduction" />
        <cc:permits
           rdf:resource="http://creativecommons.org/ns#Distribution" />
        <cc:requires
           rdf:resource="http://creativecommons.org/ns#Notice" />
        <cc:requires
           rdf:resource="http://creativecommons.org/ns#Attribution" />
        <cc:permits
           rdf:resource="http://creativecommons.org/ns#DerivativeWorks" />
        <cc:requires
           rdf:resource="http://creativecommons.org/ns#ShareAlike" />
      </cc:License>
    </rdf:RDF>
  </metadata>
  <g
     inkscape:label="Layer 1"
     inkscape:groupmode="layer"
     id="layer1"
     transform="translate(0,-81.10001)">
    <rect
       style="fill:#ffffff;fill-opacity:1;stroke:#000000;stroke-width:0.13229166;stroke-linejoin:miter;stroke-miterlimit:4;stroke-dasharray:none;stroke-opacity:1"
       id="rect817"
       width="279.39999"
       height="25.4"
       x="0"
       y="305.46667"
       ry="6.3561911e-006" />
    <rect
       style="fill:#ffffff;fill-opacity:1;stroke:#000000;stroke-width:0.13229166;stroke-linejoin:miter;stroke-miterlimit:4;stroke-dasharray:none;stroke-opacity:1"
       id="rect819"
       width="139.7"
       height="8.4666662"
       x="0"
       y="335.10001"
       ry="6.3561911e-006" />
    <rect
       style="fill:#ffffff;fill-opacity:1;stroke:#000000;stroke-width:0.13229166;stroke-linejoin:miter;stroke-miterlimit:4;stroke-dasharray:none;stroke-opacity:1"
       id="rect821"
       width="69.849998"
       height="16.933332"
       x="69.849998"
       y="347.80002"
       ry="6.3561911e-006" />
    <rect
       style="fill:#ffffff;fill-opacity:1;stroke:#000000;stroke-width:0.13229166;stroke-linejoin:miter;stroke-miterlimit:4;stroke-dasharray:none;stroke-opacity:1"
       id="rect825"
       width="69.849998"
       height="8.4666662"
       x="0"
       y="365.79169"
       ry="6.3561911e-006" />
    <rect
       style="fill:#ffffff;fill-opacity:1;stroke:#000000;stroke-width:0.13229166;stroke-linejoin:miter;stroke-miterlimit:4;stroke-dasharray:none;stroke-opacity:1"
       id="rect829"
       width="139.7"
       height="8.4666662"
       x="139.7"
       y="335.10001"
       ry="6.3561911e-006" />
    <rect
       style="fill:#ffffff;fill-opacity:1;stroke:#000000;stroke-width:0.13229166;stroke-linejoin:miter;stroke-miterlimit:4;stroke-dasharray:none;stroke-opacity:1"
       id="rect833"
       width="69.849998"
       height="16.933332"
       x="139.7"
       y="347.80002"
       ry="6.3561911e-006" />
    <rect
       style="fill:url(#linearGradient851);fill-opacity:1;stroke:#000000;stroke-width:0.13229166;stroke-linejoin:miter;stroke-miterlimit:4;stroke-dasharray:none;stroke-opacity:1"
       id="rect835"
       width="279.39999"
       height="215.89999"
       x="0"
       y="81.100014"
       ry="6.3561911e-006" />
    <path
       style="fill:none;stroke:#ffffff;stroke-width:1;stroke-linecap:butt;stroke-linejoin:miter;stroke-opacity:1;stroke-miterlimit:4;stroke-dasharray:none"
       d="m 152.4,212.33334 h -16.93334 c 0,0 -16.93333,0 -16.93333,8.46667 0,8.46666 16.93333,8.46666 16.93333,8.46666 0,0 16.93334,0 16.93334,8.46667 0,8.46667 -16.93334,8.46667 -16.93334,8.46667 h -16.93333"
       id="path855"
       inkscape:connector-curvature="0" />
    <path
       style="fill:none;stroke:#ffffff;stroke-width:0.50000012;stroke-linecap:butt;stroke-linejoin:miter;stroke-miterlimit:4;stroke-dasharray:none;stroke-opacity:1"
       d="m 33.86667,229.26667 h -8.466674 c 0,0 -8.466667,0 -8.466667,4.23334 0,4.23333 8.466667,4.23333 8.466667,4.23333 0,0 8.466674,0 8.466674,4.23333 0,4.23334 -8.466674,4.23334 -8.466674,4.23334 h -8.466667"
       id="path855-6"
       inkscape:connector-curvature="0" />
    <path
       style="fill:none;stroke:#ffffff;stroke-width:0.25000003;stroke-linecap:butt;stroke-linejoin:miter;stroke-miterlimit:4;stroke-dasharray:none;stroke-opacity:1"
       d="m 211.66667,246.20001 h -4.23334 c 0,0 -4.23333,0 -4.23333,2.11667 0,2.11666 4.23333,2.11666 4.23333,2.11666 0,0 4.23334,0 4.23334,2.11667 0,2.11667 -4.23334,2.11667 -4.23334,2.11667 H 203.2"
       id="path855-7"
       inkscape:connector-curvature="0" />
    <path
       style="fill:none;stroke:#ffffff;stroke-width:0.24999997;stroke-linecap:butt;stroke-linejoin:miter;stroke-miterlimit:4;stroke-dasharray:none;stroke-opacity:1"
       d="m 59.266667,195.40001 h -4.233335 c 0,0 -4.233332,0 -4.233332,2.11667 0,2.11666 4.233332,2.11666 4.233332,2.11666 0,0 4.233335,0 4.233335,2.11667 0,2.11667 -4.233335,2.11667 -4.233335,2.11667 H 50.8"
       id="path855-1"
       inkscape:connector-curvature="0" />
  </g>
</svg>
