<?xml version="1.0" encoding="UTF-8" standalone="no"?>
<svg
   xmlns:dc="http://purl.org/dc/elements/1.1/"
   xmlns:cc="http://creativecommons.org/ns#"
   xmlns:rdf="http://www.w3.org/1999/02/22-rdf-syntax-ns#"
   xmlns:svg="http://www.w3.org/2000/svg"
   xmlns="http://www.w3.org/2000/svg"
   xmlns:xlink="http://www.w3.org/1999/xlink"
   xmlns:sodipodi="http://sodipodi.sourceforge.net/DTD/sodipodi-0.dtd"
   xmlns:inkscape="http://www.inkscape.org/namespaces/inkscape"
   inkscape:export-ydpi="96"
   inkscape:export-xdpi="96"
   inkscape:export-filename="C:\Users\joelr\Documents\starring codes\After Church\RAW files\Inkscape\mug-new-friend.png"
   sodipodi:docname="mug-new-friend.svg"
   inkscape:version="1.0 (4035a4fb49, 2020-05-01)"
   id="svg8"
   version="1.1"
   viewBox="0 0 507.99999 285.75001"
   height="1080"
   width="1920">
  <defs
     id="defs2">
    <linearGradient
       id="linearGradient868"
       inkscape:collect="always">
      <stop
         id="stop864"
         offset="0"
         style="stop-color:#5f5fd3;stop-opacity:1;" />
      <stop
         style="stop-color:#ffffd3;stop-opacity:0.99607843"
         offset="0.5"
         id="stop872" />
      <stop
         id="stop866"
         offset="1"
         style="stop-color:#5f5fd3;stop-opacity:0.99443412" />
    </linearGradient>
    <linearGradient
       id="linearGradient850"
       inkscape:collect="always">
      <stop
         id="stop846"
         offset="0"
         style="stop-color:#00ff66;stop-opacity:1;" />
      <stop
         style="stop-color:#a1ff2c;stop-opacity:1"
         offset="0.25"
         id="stop860" />
      <stop
         style="stop-color:#b3ffff;stop-opacity:1"
         offset="0.5"
         id="stop854" />
      <stop
         id="stop856"
         offset="0.75"
         style="stop-color:#59fff5;stop-opacity:1" />
      <stop
         style="stop-color:#aac1d9;stop-opacity:1"
         offset="0.875"
         id="stop858" />
      <stop
         id="stop848"
         offset="1"
         style="stop-color:#00ff66;stop-opacity:1" />
    </linearGradient>
    <linearGradient
       gradientUnits="userSpaceOnUse"
       y2="285.75"
       x2="486.83334"
       y1="0"
       x1="21.166666"
       id="linearGradient852"
       xlink:href="#linearGradient850"
       inkscape:collect="always" />
    <linearGradient
       gradientUnits="userSpaceOnUse"
       y2="248.70834"
       x2="508"
       y1="248.70834"
       x1="0"
       id="linearGradient870"
       xlink:href="#linearGradient868"
       inkscape:collect="always" />
  </defs>
  <sodipodi:namedview
     inkscape:window-maximized="1"
     inkscape:window-y="-9"
     inkscape:window-x="-9"
     inkscape:window-height="1051"
     inkscape:window-width="1920"
     inkscape:snap-bbox-edge-midpoints="true"
     inkscape:snap-bbox-midpoints="true"
     inkscape:bbox-nodes="true"
     inkscape:bbox-paths="true"
     inkscape:snap-bbox="true"
     units="px"
     showgrid="true"
     inkscape:document-rotation="0"
     inkscape:current-layer="layer1"
     inkscape:document-units="px"
     inkscape:cy="500.49824"
     inkscape:cx="1004.7498"
     inkscape:zoom="0.49497475"
     inkscape:pageshadow="2"
     inkscape:pageopacity="0.0"
     borderopacity="1.0"
     bordercolor="#666666"
     pagecolor="#ffffff"
     id="base">
    <inkscape:grid
       id="grid842"
       type="xygrid" />
  </sodipodi:namedview>
  <metadata
     id="metadata5">
    <rdf:RDF>
      <cc:Work
         rdf:about="">
        <dc:format>image/svg+xml</dc:format>
        <dc:type
           rdf:resource="http://purl.org/dc/dcmitype/StillImage" />
        <dc:title></dc:title>
        <cc:license
           rdf:resource="http://creativecommons.org/licenses/by-sa/4.0/" />
      </cc:Work>
      <cc:License
         rdf:about="http://creativecommons.org/licenses/by-sa/4.0/">
        <cc:permits
           rdf:resource="http://creativecommons.org/ns#Reproduction" />
        <cc:permits
           rdf:resource="http://creativecommons.org/ns#Distribution" />
        <cc:requires
           rdf:resource="http://creativecommons.org/ns#Notice" />
        <cc:requires
           rdf:resource="http://creativecommons.org/ns#Attribution" />
        <cc:permits
           rdf:resource="http://creativecommons.org/ns#DerivativeWorks" />
        <cc:requires
           rdf:resource="http://creativecommons.org/ns#ShareAlike" />
      </cc:License>
    </rdf:RDF>
  </metadata>
  <g
     id="layer1"
     inkscape:groupmode="layer"
     inkscape:label="Lapis 1">
    <rect
       y="0"
       x="0"
       height="285.75"
       width="508"
       id="rect844"
       style="fill:url(#linearGradient852);fill-opacity:1;stroke-width:0.264583;stroke-linecap:round;stroke-linejoin:round;stroke-dashoffset:9.44882" />
    <rect
       y="211.66667"
       x="0"
       height="74.083336"
       width="508"
       id="rect862"
       style="fill:url(#linearGradient870);fill-opacity:1;stroke-width:0.264583;stroke-linecap:round;stroke-linejoin:round;stroke-dashoffset:9.44882" />
    <g
       id="g1566">
      <path
         style="fill:#ffffff;stroke:none;stroke-width:0.264583px;stroke-linecap:butt;stroke-linejoin:miter;stroke-opacity:1;fill-opacity:0.99607801"
         d="m 11.90625,-13.229167 c 5.291667,-3.96875 5.291667,-10.583334 5.291667,-10.583334 H 5.2916668 c 0,0 -10e-8,6.614584 5.2916662,10.583334 z"
         id="path1535" />
      <rect
         style="fill:#ffffff;fill-opacity:0.69999999;stroke:none;stroke-width:0.264583;stroke-linecap:round;stroke-linejoin:round;stroke-dashoffset:9.44882;stroke-opacity:0.996078"
         id="rect1537"
         width="14.552084"
         height="15.875"
         x="21.166668"
         y="-18.520834" />
      <g
         id="g1547">
        <path
           id="path874"
           d="m 17.197922,-27.781251 c 0,0 0,0 0,5.291667 0,5.291667 -5.291669,9.260417 -5.291669,9.260417 v 9.260417 l 3.968749,1.322917 H 6.6145836 L 10.583333,-3.96875 v -9.260417 c 0,0 -5.2916694,-3.96875 -5.2916694,-9.260417 0,-5.291666 0,-5.291666 0,-5.291666 z"
           style="fill:#80fff3;fill-opacity:0.7;stroke:#000000;stroke-width:0.264583px;stroke-linecap:butt;stroke-linejoin:miter;stroke-opacity:1" />
        <g
           id="g1541">
          <rect
             style="fill:#80fff3;fill-opacity:0.69999999;stroke-width:0.264583;stroke-linecap:round;stroke-linejoin:round;stroke-dashoffset:9.44882;stroke:#000000;stroke-opacity:1"
             id="rect1529"
             width="14.552084"
             height="19.84375"
             x="21.166668"
             y="-22.489584" />
          <path
             style="fill:#80ffe6;stroke:#000000;stroke-width:0.264583px;stroke-linecap:butt;stroke-linejoin:miter;stroke-opacity:1;fill-opacity:0.99607801"
             d="m 35.718751,-19.84375 c 0,0 7.9375,0 7.9375,7.9375 0,7.9374999 -7.9375,7.9374999 -7.9375,7.9374999 v -2.6458334 c 0,0 5.291667,0 5.291667,-5.2916665 0,-5.291667 -5.291667,-5.291667 -5.291667,-5.291667 z"
             id="path1531" />
        </g>
      </g>
    </g>
    <g
       style="fill:#999999;fill-opacity:0.7;stroke:none"
       id="g1598"
       transform="matrix(4.4537668,0,-2.0244379,1.2529832,78.977359,257.05944)">
      <path
         style="fill:#999999;fill-opacity:0.7;stroke:none;stroke-width:0.264583px;stroke-linecap:butt;stroke-linejoin:miter;stroke-opacity:1"
         d="m 11.90625,-13.229167 c 5.291667,-3.96875 5.291667,-10.583334 5.291667,-10.583334 H 5.2916668 c 0,0 -10e-8,6.614584 5.2916662,10.583334 z"
         id="path1584" />
      <rect
         style="fill:#999999;fill-opacity:0.7;stroke:none;stroke-width:0.264583;stroke-linecap:round;stroke-linejoin:round;stroke-dashoffset:9.44882;stroke-opacity:0.996078"
         id="rect1586"
         width="14.552084"
         height="15.875"
         x="21.166668"
         y="-18.520834" />
      <g
         style="fill:#999999;fill-opacity:0.7;stroke:none"
         id="g1596">
        <path
           id="path1588"
           d="m 17.197922,-27.781251 c 0,0 0,0 0,5.291667 0,5.291667 -5.291669,9.260417 -5.291669,9.260417 v 9.260417 l 3.968749,1.322917 H 6.6145836 L 10.583333,-3.96875 v -9.260417 c 0,0 -5.2916694,-3.96875 -5.2916694,-9.260417 0,-5.291666 0,-5.291666 0,-5.291666 z"
           style="fill:#999999;fill-opacity:0.7;stroke:none;stroke-width:0.264583px;stroke-linecap:butt;stroke-linejoin:miter;stroke-opacity:1" />
        <g
           style="fill:#999999;fill-opacity:0.7;stroke:none"
           id="g1594">
          <rect
             style="fill:#999999;fill-opacity:0.7;stroke:none;stroke-width:0.264583;stroke-linecap:round;stroke-linejoin:round;stroke-dashoffset:9.44882;stroke-opacity:1"
             id="rect1590"
             width="14.552084"
             height="19.84375"
             x="21.166668"
             y="-22.489584" />
          <path
             style="fill:#999999;fill-opacity:0.7;stroke:none;stroke-width:0.264583px;stroke-linecap:butt;stroke-linejoin:miter;stroke-opacity:1"
             d="m 35.718751,-19.84375 c 0,0 7.9375,0 7.9375,7.9375 0,7.9374999 -7.9375,7.9374999 -7.9375,7.9374999 v -2.6458334 c 0,0 5.291667,0 5.291667,-5.2916665 0,-5.291667 -5.291667,-5.291667 -5.291667,-5.291667 z"
             id="path1592" />
        </g>
      </g>
    </g>
    <path
       style="fill:#ffffff;fill-opacity:0.996078;stroke:none;stroke-width:1.17839px;stroke-linecap:butt;stroke-linejoin:miter;stroke-opacity:1"
       d="m 139.81803,206.60856 c 23.56785,-17.67589 23.56785,-47.13571 23.56785,-47.13571 h -53.02766 c 0,0 0,29.45982 23.56785,47.13571 z"
       id="path1568" />
    <g
       id="g1687">
      <path
         id="path1572"
         d="m 163.3859,141.79697 c 0,0 0,0 0,23.56785 0,23.56785 -23.56786,41.24374 -23.56786,41.24374 v 41.24373 l 17.67589,5.89197 h -41.24375 l 17.67589,-5.89197 v -41.24373 c 0,0 -23.56786,-17.67589 -23.56786,-41.24374 0,-23.56785 0,-23.56785 0,-23.56785 z"
         style="fill:#80ffef;fill-opacity:0.5;stroke:#000000;stroke-width:1.17839px;stroke-linecap:butt;stroke-linejoin:miter;stroke-opacity:1" />
      <g
         id="g1679">
        <g
           id="g1673">
          <rect
             y="183.04071"
             x="181.06177"
             height="70.703545"
             width="64.811592"
             id="rect1570"
             style="fill:#ffffff;fill-opacity:1;stroke:none;stroke-width:1.17839;stroke-linecap:round;stroke-linejoin:round;stroke-dashoffset:9.44882;stroke-opacity:0.996078" />
          <rect
             y="165.36482"
             x="181.06177"
             height="88.379433"
             width="64.811592"
             id="rect1574"
             style="fill:#80ffef;fill-opacity:0.5;stroke:#000000;stroke-width:1.17839;stroke-linecap:round;stroke-linejoin:round;stroke-dashoffset:9.44882;stroke-opacity:1" />
        </g>
        <path
           style="fill:#80ffef;fill-opacity:0.5;stroke:#000000;stroke-width:1.17839px;stroke-linecap:butt;stroke-linejoin:miter;stroke-opacity:1"
           d="m 245.87336,177.14875 c 0,0 35.35177,0 35.35177,35.35177 0,35.35177 -35.35177,35.35177 -35.35177,35.35177 v -11.78392 c 0,0 23.56785,0 23.56785,-23.56785 0,-23.56785 -23.56785,-23.56785 -23.56785,-23.56785 z"
           id="path1576" />
      </g>
    </g>
    <g
       id="g1627">
      <g
         id="g1618">
        <g
           id="g1612">
          <rect
             style="fill:#b3ff80;fill-opacity:0.7;stroke:#000000;stroke-width:0.264583;stroke-linecap:round;stroke-linejoin:round;stroke-dashoffset:9.44882;stroke-opacity:1"
             id="rect1600"
             width="13.229167"
             height="33.072918"
             x="-14.552084"
             y="-34.395836" />
          <path
             style="fill:#b3ff80;stroke:#000000;stroke-width:0.264583px;stroke-linecap:butt;stroke-linejoin:miter;stroke-opacity:1;fill-opacity:0.69999999"
             d="m -14.552084,-34.395834 1.322917,-7.9375 h 10.5833336 l 1.3229167,7.9375 z"
             id="path1602" />
        </g>
        <ellipse
           ry="2.5167341"
           rx="2.6490235"
           cy="-38.364586"
           cx="-7.9375"
           id="path1604"
           style="fill:#b3ff80;fill-opacity:0.7;stroke:#000000;stroke-width:0.258203;stroke-linecap:round;stroke-linejoin:round;stroke-dashoffset:9.44882;stroke-opacity:1" />
      </g>
      <text
         xml:space="preserve"
         style="font-size:3.79165px;line-height:1.25;font-family:Ubuntu;-inkscape-font-specification:Ubuntu;letter-spacing:0px;word-spacing:0px;stroke-width:0.0394963"
         x="-14.347395"
         y="-24.663124"
         id="text1608"><tspan
           sodipodi:role="line"
           id="tspan1606"
           x="-14.347395"
           y="-24.663124"
           style="stroke-width:0.0394963">Stronc</tspan></text>
    </g>
    <rect
       y="174.625"
       x="21.166668"
       height="79.375"
       width="58.208336"
       id="rect1645"
       style="fill:#ffffff;fill-opacity:1;stroke:#000000;stroke-width:0.264583;stroke-linecap:round;stroke-linejoin:round;stroke-dashoffset:9.44882;stroke-opacity:1" />
    <g
       transform="matrix(4.3621796,0,0,4.3621796,84.895636,259.19373)"
       id="g1643">
      <g
         id="g1637">
        <g
           id="g1633">
          <rect
             y="-34.395836"
             x="-14.552084"
             height="33.072918"
             width="13.229167"
             id="rect1629"
             style="fill:#b3ff80;fill-opacity:0.7;stroke:#000000;stroke-width:0.264583;stroke-linecap:round;stroke-linejoin:round;stroke-dashoffset:9.44882;stroke-opacity:1" />
          <path
             id="path1631"
             d="m -14.552084,-34.395834 1.322917,-7.9375 h 10.5833336 l 1.3229167,7.9375 z"
             style="fill:#b3ff80;fill-opacity:0.7;stroke:#000000;stroke-width:0.264583px;stroke-linecap:butt;stroke-linejoin:miter;stroke-opacity:1" />
        </g>
        <ellipse
           style="fill:#b3ff80;fill-opacity:0.7;stroke:#000000;stroke-width:0.258203;stroke-linecap:round;stroke-linejoin:round;stroke-dashoffset:9.44882;stroke-opacity:1"
           id="ellipse1635"
           cx="-7.9375"
           cy="-38.364586"
           rx="2.6490235"
           ry="2.5167341" />
      </g>
      <text
         id="text1641"
         y="-24.663124"
         x="-14.347395"
         style="font-size:3.79165px;line-height:1.25;font-family:Ubuntu;-inkscape-font-specification:Ubuntu;letter-spacing:0px;word-spacing:0px;stroke-width:0.0394963"
         xml:space="preserve"><tspan
           style="stroke-width:0.0394963"
           y="-24.663124"
           x="-14.347395"
           id="tspan1639"
           sodipodi:role="line">Stronc</tspan></text>
    </g>
    <text
       id="text1691"
       y="89.958336"
       x="190.5"
       style="font-size:25.4px;line-height:1.25;font-family:Ubuntu;-inkscape-font-specification:Ubuntu;letter-spacing:0px;word-spacing:0px;stroke-width:0.264583"
       xml:space="preserve"><tspan
         style="stroke-width:0.264583"
         y="89.958336"
         x="190.5"
         id="tspan1689"
         sodipodi:role="line">Yess! We have brand new</tspan><tspan
         id="tspan1693"
         style="stroke-width:0.264583"
         y="121.70834"
         x="190.5"
         sodipodi:role="line">friend: the mug!</tspan><tspan
         id="tspan1695"
         style="stroke-width:0.264583"
         y="153.45833"
         x="190.5"
         sodipodi:role="line">cool and good.</tspan></text>
    <text
       id="text1699"
       y="238.97507"
       x="323.66553"
       style="font-size:10.3337px;line-height:1.25;font-family:Ubuntu;-inkscape-font-specification:Ubuntu;letter-spacing:0px;word-spacing:0px;stroke-width:0.107643"
       xml:space="preserve"><tspan
         style="stroke-width:0.107643"
         y="238.97507"
         x="323.66553"
         id="tspan1697"
         sodipodi:role="line">by JOELwindows7</tspan><tspan
         id="tspan1701"
         style="stroke-width:0.107643"
         y="251.8922"
         x="323.66553"
         sodipodi:role="line">Perkedel Technologies</tspan><tspan
         id="tspan1703"
         style="stroke-width:0.107643"
         y="264.80933"
         x="323.66553"
         sodipodi:role="line">CC4.0-BY-SA</tspan></text>
  </g>
</svg>
