<?xml version="1.0" encoding="UTF-8" standalone="no"?>
<svg
   xmlns:dc="http://purl.org/dc/elements/1.1/"
   xmlns:cc="http://creativecommons.org/ns#"
   xmlns:rdf="http://www.w3.org/1999/02/22-rdf-syntax-ns#"
   xmlns:svg="http://www.w3.org/2000/svg"
   xmlns="http://www.w3.org/2000/svg"
   xmlns:xlink="http://www.w3.org/1999/xlink"
   xmlns:sodipodi="http://sodipodi.sourceforge.net/DTD/sodipodi-0.dtd"
   xmlns:inkscape="http://www.inkscape.org/namespaces/inkscape"
   inkscape:export-ydpi="96"
   inkscape:export-xdpi="96"
   inkscape:export-filename="C:\Users\joelr\Documents\starring codes\After Church\RAW files\Inkscape\OxycuteThumbnailee-PSR_S975.svg.png"
   width="1920"
   height="1080"
   viewBox="0 0 1920 1080"
   version="1.1"
   id="svg8"
   inkscape:version="1.0 (4035a4fb49, 2020-05-01)"
   sodipodi:docname="OxycuteThumbnailee.svg">
  <defs
     id="defs2">
    <linearGradient
       inkscape:collect="always"
       id="linearGradient850">
      <stop
         style="stop-color:#1a1a1a;stop-opacity:1;"
         offset="0"
         id="stop846" />
      <stop
         id="stop866"
         offset="0.125"
         style="stop-color:#000000;stop-opacity:1" />
      <stop
         id="stop858"
         offset="0.25"
         style="stop-color:#ffffff;stop-opacity:1" />
      <stop
         style="stop-color:#000000;stop-opacity:1"
         offset="0.375"
         id="stop864" />
      <stop
         id="stop854"
         offset="0.5"
         style="stop-color:#1a1a1a;stop-opacity:1;" />
      <stop
         style="stop-color:#000000;stop-opacity:1"
         offset="0.625"
         id="stop862" />
      <stop
         style="stop-color:#ffffff;stop-opacity:1"
         offset="0.75"
         id="stop856" />
      <stop
         id="stop860"
         offset="0.875"
         style="stop-color:#000000;stop-opacity:1" />
      <stop
         style="stop-color:#1a1a1a;stop-opacity:1"
         offset="1"
         id="stop848" />
    </linearGradient>
    <radialGradient
       spreadMethod="repeat"
       inkscape:collect="always"
       xlink:href="#linearGradient850"
       id="radialGradient852"
       cx="960"
       cy="540"
       fx="960"
       fy="540"
       r="960"
       gradientTransform="matrix(0,-0.5625,0.5625,0,656.25,1080)"
       gradientUnits="userSpaceOnUse" />
  </defs>
  <sodipodi:namedview
     id="base"
     pagecolor="#ffffff"
     bordercolor="#666666"
     borderopacity="1.0"
     inkscape:pageopacity="0.0"
     inkscape:pageshadow="2"
     inkscape:zoom="0.49497475"
     inkscape:cx="909.37839"
     inkscape:cy="466.41097"
     inkscape:document-units="px"
     inkscape:current-layer="layer3"
     inkscape:document-rotation="0"
     showgrid="true"
     units="px"
     inkscape:window-width="1920"
     inkscape:window-height="1051"
     inkscape:window-x="-9"
     inkscape:window-y="-9"
     inkscape:window-maximized="1"
     inkscape:snap-bbox="true"
     inkscape:bbox-paths="true"
     inkscape:bbox-nodes="true"
     inkscape:snap-bbox-edge-midpoints="true"
     inkscape:snap-bbox-midpoints="true">
    <inkscape:grid
       type="xygrid"
       id="grid842" />
  </sodipodi:namedview>
  <metadata
     id="metadata5">
    <rdf:RDF>
      <cc:Work
         rdf:about="">
        <dc:format>image/svg+xml</dc:format>
        <dc:type
           rdf:resource="http://purl.org/dc/dcmitype/StillImage" />
        <dc:title></dc:title>
        <cc:license
           rdf:resource="http://creativecommons.org/licenses/by-sa/4.0/" />
      </cc:Work>
      <cc:License
         rdf:about="http://creativecommons.org/licenses/by-sa/4.0/">
        <cc:permits
           rdf:resource="http://creativecommons.org/ns#Reproduction" />
        <cc:permits
           rdf:resource="http://creativecommons.org/ns#Distribution" />
        <cc:requires
           rdf:resource="http://creativecommons.org/ns#Notice" />
        <cc:requires
           rdf:resource="http://creativecommons.org/ns#Attribution" />
        <cc:permits
           rdf:resource="http://creativecommons.org/ns#DerivativeWorks" />
        <cc:requires
           rdf:resource="http://creativecommons.org/ns#ShareAlike" />
      </cc:License>
    </rdf:RDF>
  </metadata>
  <g
     sodipodi:insensitive="true"
     inkscape:label="Main"
     inkscape:groupmode="layer"
     id="layer1">
    <rect
       style="fill:url(#radialGradient852);fill-opacity:1;stroke:none;stroke-width:10;stroke-linecap:round;stroke-linejoin:round;stroke-dashoffset:9.44882"
       id="rect844"
       width="1920"
       height="1080"
       x="0"
       y="0" />
    <circle
       style="fill:none;fill-opacity:0.497217;stroke:#0000f2;stroke-width:10;stroke-linecap:round;stroke-linejoin:round;stroke-dashoffset:9.44882;stroke-opacity:1"
       id="path870"
       cx="960"
       cy="540"
       r="540" />
    <circle
       style="fill:none;fill-opacity:0.497217;stroke:#0000f2;stroke-width:1.10092;stroke-linecap:round;stroke-linejoin:round;stroke-dashoffset:9.44882;stroke-opacity:1"
       id="circle878"
       cx="960"
       cy="540"
       r="59.449539" />
    <circle
       r="138.71559"
       cy="540"
       cx="960"
       id="circle876"
       style="fill:none;fill-opacity:0.497217;stroke:#0000f2;stroke-width:2.56881;stroke-linecap:round;stroke-linejoin:round;stroke-dashoffset:9.44882;stroke-opacity:1" />
    <circle
       style="fill:none;fill-opacity:0.497217;stroke:#0000f2;stroke-width:4.40367;stroke-linecap:round;stroke-linejoin:round;stroke-dashoffset:9.44882;stroke-opacity:1"
       id="circle874"
       cx="960"
       cy="540"
       r="237.79817" />
    <circle
       r="336.88074"
       cy="540"
       cx="960"
       id="circle872"
       style="fill:none;fill-opacity:0.497217;stroke:#0000f2;stroke-width:6.23853;stroke-linecap:round;stroke-linejoin:round;stroke-dashoffset:9.44882;stroke-opacity:1" />
    <circle
       r="772.84406"
       cy="540"
       cx="960"
       id="circle875"
       style="fill:none;fill-opacity:0.497217;stroke:#0000f2;stroke-width:14.3119;stroke-linecap:round;stroke-linejoin:round;stroke-dashoffset:9.44882;stroke-opacity:1" />
    <path
       style="fill:#00ffff;fill-opacity:0.497217;stroke:#000000;stroke-width:1px;stroke-linecap:butt;stroke-linejoin:miter;stroke-opacity:1"
       d="M 960,540 320,1120 H 1600 Z"
       id="path868" />
    <text
       id="text868"
       y="604.59198"
       x="962.57098"
       style="font-weight:bold;font-size:192px;line-height:1.25;font-family:Azonix;-inkscape-font-specification:'Azonix Bold';text-align:center;letter-spacing:0px;word-spacing:0px;text-anchor:middle;fill:#ffffff;fill-opacity:1;stroke:#0000ff;stroke-width:2;stroke-miterlimit:4;stroke-dasharray:none;stroke-opacity:1"
       xml:space="preserve"><tspan
         y="604.59198"
         x="962.57098"
         id="tspan866"
         sodipodi:role="line">OXYCUTE</tspan></text>
    <circle
       style="fill:none;fill-opacity:0.497217;stroke:#0000f2;stroke-width:19.4495;stroke-linecap:round;stroke-linejoin:round;stroke-dashoffset:9.44882;stroke-opacity:1"
       id="circle877"
       cx="960"
       cy="540"
       r="1050.2753" />
    <text
       id="text872"
       y="1280"
       x="120"
       style="font-weight:bold;font-size:64px;line-height:1.25;font-family:Ubuntu;-inkscape-font-specification:'Ubuntu Bold';text-align:center;letter-spacing:0px;word-spacing:0px;text-anchor:middle"
       xml:space="preserve"><tspan
         y="1280"
         x="120"
         id="tspan870"
         sodipodi:role="line">https://www.fontspace.com/azonix-font-f30718</tspan></text>
    <text
       id="text881"
       y="720"
       x="960"
       style="font-weight:bold;font-size:32px;line-height:1.25;font-family:Ubuntu;-inkscape-font-specification:'Ubuntu Bold';text-align:center;letter-spacing:0px;word-spacing:0px;text-anchor:middle;fill:#ffffff;fill-opacity:1;stroke:#0000f2;stroke-opacity:1"
       xml:space="preserve"><tspan
         y="720"
         x="960"
         id="tspan879"
         sodipodi:role="line">Demo MIDI from Yamaha Keyboard &amp; OpenCX Murah Series,</tspan><tspan
         id="tspan883"
         y="760"
         x="960"
         sodipodi:role="line">Takoyaki (DGX LX600)</tspan></text>
    <text
       id="text887"
       y="1060"
       x="940"
       style="font-weight:bold;font-size:32px;line-height:1.25;font-family:Ubuntu;-inkscape-font-specification:'Ubuntu Bold';text-align:center;letter-spacing:0px;word-spacing:0px;text-anchor:middle;fill:#ffffff;fill-opacity:1;stroke:#0000f2;stroke-opacity:1"
       xml:space="preserve"><tspan
         y="1060"
         x="940"
         id="tspan885"
         sodipodi:role="line">https://psrtutorial.com/song/yamaha.html</tspan></text>
    <g
       transform="matrix(0.3828125,0,0,0.3828125,821.41106,631.10547)"
       id="g1536-6-4"
       inkscape:export-xdpi="300"
       inkscape:export-ydpi="300">
      <g
         transform="translate(-128,64)"
         id="g1492-8-7">
        <path
           inkscape:connector-curvature="0"
           style="opacity:1;fill:#ffc800;fill-opacity:1;fill-rule:nonzero;stroke:none;stroke-opacity:1"
           d="m 256,208 a 64,64 0 0 0 -64,64 64,64 0 0 0 64,64 h 64 a 64,64 0 0 0 64,-64 64,64 0 0 0 -64,-64 z"
           transform="translate(0,106.5)"
           id="path1451-5-8" />
        <path
           inkscape:connector-curvature="0"
           style="opacity:1;fill:#fffe00;fill-opacity:1;fill-rule:nonzero;stroke:none;stroke-width:1.04447;stroke-opacity:1"
           d="m 288,224 a 4,4 0 0 0 -4,4 v 40 h -40 a 4,4 0 0 0 -4,4 4,4 0 0 0 4,4 h 40 v 40 a 4,4 0 0 0 4,4 4,4 0 0 0 4,-4 v -40 h 40 a 4,4 0 0 0 4,-4 4,4 0 0 0 -4,-4 h -40 v -40 a 4,4 0 0 0 -4,-4 z"
           transform="translate(0,106.5)"
           id="rect1461-3-4" />
      </g>
      <flowRoot
         transform="translate(-108.256,129.20475)"
         style="font-style:normal;font-weight:normal;font-size:40px;line-height:0;font-family:sans-serif;letter-spacing:0px;word-spacing:0px;fill:#fffff6;fill-opacity:1;stroke:#000000;stroke-opacity:1"
         id="flowRoot1482-6-4"
         xml:space="preserve"><flowRegion
           style="line-height:0;fill:#fffff6;fill-opacity:1;stroke:#000000;stroke-opacity:1"
           id="flowRegion1484-4-7"><rect
             style="line-height:0;fill:#fffff6;fill-opacity:1;stroke:#000000;stroke-opacity:1;"
             y="272"
             x="384"
             height="128"
             width="1024"
             id="rect1486-8-8" /></flowRegion><flowPara
           style="font-style:normal;font-variant:normal;font-weight:normal;font-stretch:normal;font-size:96px;line-height:1;font-family:Ubuntu;-inkscape-font-specification:Ubuntu;fill:#fffff6;fill-opacity:1;stroke:#000000;stroke-opacity:1"
           id="flowPara1488-6-3">Perkedel </flowPara></flowRoot>
    </g>
    <g
       transform="matrix(1.2992125,0,0,1.2992125,826.00001,684.13388)"
       id="g3618"
       inkscape:export-xdpi="300"
       inkscape:export-ydpi="300">
      <g
         id="g3606">
        <rect
           style="opacity:1;fill:#0082ff;fill-opacity:1;fill-rule:nonzero;stroke:none;stroke-width:0.79375;stroke-linejoin:bevel;stroke-miterlimit:0;stroke-dasharray:none;stroke-opacity:1"
           id="rect3501"
           width="50.799999"
           height="33.866665"
           x="118.53333"
           y="110.73333" />
        <flowRoot
           xml:space="preserve"
           id="flowRoot3507"
           style="font-style:normal;font-weight:normal;font-size:96px;line-height:1.25;font-family:sans-serif;text-align:center;letter-spacing:0px;word-spacing:0px;text-anchor:middle;fill:#000000;fill-opacity:1;stroke:none"
           transform="matrix(0.3744524,0,0,0.3744524,-60.181255,-48.777103)"><flowRegion
             id="flowRegion3509"
             style="font-size:96px;text-align:center;text-anchor:middle"><rect
               id="rect3511"
               width="192"
               height="128"
               x="448"
               y="418.51968"
               style="font-size:96px;text-align:center;text-anchor:middle" /></flowRegion><flowPara
             id="flowPara3513">CX</flowPara></flowRoot>
      </g>
      <flowRoot
         transform="scale(0.26458333)"
         style="font-style:normal;font-weight:normal;font-size:40px;line-height:1.25;font-family:sans-serif;text-align:end;letter-spacing:0px;word-spacing:0px;text-anchor:end;fill:#000000;fill-opacity:1;stroke:none"
         id="flowRoot3515"
         xml:space="preserve"><flowRegion
           style="text-align:end;text-anchor:end"
           id="flowRegion3517"><rect
             style="text-align:end;text-anchor:end"
             y="418.51968"
             x="184"
             height="128.00002"
             width="264"
             id="rect3519" /></flowRegion><flowPara
           style="font-style:normal;font-variant:normal;font-weight:normal;font-stretch:normal;font-size:96px;font-family:ubuntu;-inkscape-font-specification:ubuntu"
           id="flowPara3521">Open</flowPara></flowRoot>
    </g>
  </g>
  <g
     inkscape:label="Recorded In"
     id="layer2"
     inkscape:groupmode="layer">
    <g
       sodipodi:insensitive="true"
       inkscape:label="PSR S975"
       id="layer3"
       inkscape:groupmode="layer">
      <text
         id="text2318"
         y="999.33307"
         x="959.54114"
         style="font-weight:bold;font-size:76.4602px;line-height:1.25;font-family:Ubuntu;-inkscape-font-specification:'Ubuntu Bold';text-align:center;letter-spacing:0px;word-spacing:0px;text-anchor:middle;stroke-width:2.38938"
         xml:space="preserve"><tspan
           style="stroke-width:2.38938"
           y="999.33307"
           x="959.54114"
           id="tspan2316"
           sodipodi:role="line">Recorded in PSR-S975</tspan></text>
    </g>
  </g>
</svg>
