<?xml version="1.0" encoding="UTF-8" standalone="no"?>
<svg
   xmlns:dc="http://purl.org/dc/elements/1.1/"
   xmlns:cc="http://creativecommons.org/ns#"
   xmlns:rdf="http://www.w3.org/1999/02/22-rdf-syntax-ns#"
   xmlns:svg="http://www.w3.org/2000/svg"
   xmlns="http://www.w3.org/2000/svg"
   xmlns:xlink="http://www.w3.org/1999/xlink"
   xmlns:sodipodi="http://sodipodi.sourceforge.net/DTD/sodipodi-0.dtd"
   xmlns:inkscape="http://www.inkscape.org/namespaces/inkscape"
   inkscape:export-ydpi="96"
   inkscape:export-xdpi="96"
   inkscape:export-filename="C:\Users\joelr\Documents\starring codes\After Church\Rendered\Thumb\ReconstructSomeGame.png"
   sodipodi:docname="ReconstructSomeGame.svg"
   inkscape:version="1.0 (4035a4fb49, 2020-05-01)"
   id="svg8"
   version="1.1"
   viewBox="0 0 1920 1080"
   height="1080"
   width="1920">
  <defs
     id="defs2">
    <linearGradient
       id="linearGradient850"
       inkscape:collect="always">
      <stop
         id="stop846"
         offset="0"
         style="stop-color:#ac9393;stop-opacity:1;" />
      <stop
         style="stop-color:#b1b8b4;stop-opacity:1"
         offset="0.25"
         id="stop858" />
      <stop
         style="stop-color:#b6aa79;stop-opacity:1"
         offset="0.5"
         id="stop854" />
      <stop
         id="stop856"
         offset="0.75"
         style="stop-color:#5b5579;stop-opacity:1" />
      <stop
         id="stop848"
         offset="1"
         style="stop-color:#000000;stop-opacity:1" />
    </linearGradient>
    <linearGradient
       gradientUnits="userSpaceOnUse"
       y2="1080"
       x2="900"
       y1="0"
       x1="900"
       id="linearGradient852"
       xlink:href="#linearGradient850"
       inkscape:collect="always" />
  </defs>
  <sodipodi:namedview
     inkscape:snap-bbox-midpoints="true"
     inkscape:snap-bbox-edge-midpoints="true"
     inkscape:bbox-nodes="true"
     inkscape:bbox-paths="true"
     inkscape:snap-bbox="true"
     inkscape:window-maximized="1"
     inkscape:window-y="-9"
     inkscape:window-x="-9"
     inkscape:window-height="1051"
     inkscape:window-width="1920"
     units="px"
     showgrid="true"
     inkscape:document-rotation="0"
     inkscape:current-layer="layer1"
     inkscape:document-units="px"
     inkscape:cy="546.11061"
     inkscape:cx="540.17978"
     inkscape:zoom="0.49497475"
     inkscape:pageshadow="2"
     inkscape:pageopacity="0.0"
     borderopacity="1.0"
     bordercolor="#666666"
     pagecolor="#ffffff"
     id="base">
    <inkscape:grid
       id="grid842"
       type="xygrid" />
  </sodipodi:namedview>
  <metadata
     id="metadata5">
    <rdf:RDF>
      <cc:Work
         rdf:about="">
        <dc:format>image/svg+xml</dc:format>
        <dc:type
           rdf:resource="http://purl.org/dc/dcmitype/StillImage" />
        <dc:title></dc:title>
        <cc:license
           rdf:resource="http://creativecommons.org/licenses/by-sa/4.0/" />
      </cc:Work>
      <cc:License
         rdf:about="http://creativecommons.org/licenses/by-sa/4.0/">
        <cc:permits
           rdf:resource="http://creativecommons.org/ns#Reproduction" />
        <cc:permits
           rdf:resource="http://creativecommons.org/ns#Distribution" />
        <cc:requires
           rdf:resource="http://creativecommons.org/ns#Notice" />
        <cc:requires
           rdf:resource="http://creativecommons.org/ns#Attribution" />
        <cc:permits
           rdf:resource="http://creativecommons.org/ns#DerivativeWorks" />
        <cc:requires
           rdf:resource="http://creativecommons.org/ns#ShareAlike" />
      </cc:License>
    </rdf:RDF>
  </metadata>
  <g
     id="layer1"
     inkscape:groupmode="layer"
     inkscape:label="Lapis 1">
    <rect
       ry="0.000128132"
       y="0"
       x="0"
       height="1080"
       width="1920"
       id="rect844"
       style="fill:url(#linearGradient852);stroke:none;stroke-width:2;stroke-linecap:round;stroke-linejoin:round;stroke-dashoffset:9.44882;fill-opacity:1" />
    <path
       id="path860"
       d="m -180,480 c 20,0 520,-60 760,-60 240,0 720,-20 740,40 v 680 c 0,0 -1120,160 -1320,80 -200,-80 -300,-120 -300,-120 V 480 Z"
       style="fill:#ff9955;stroke:#000000;stroke-width:1px;stroke-linecap:butt;stroke-linejoin:miter;stroke-opacity:1;fill-opacity:0.71243042" />
    <rect
       ry="0.000128132"
       y="360"
       x="1320"
       height="860"
       width="480"
       id="rect862"
       style="fill:#808080;fill-opacity:0.71243;stroke:#b1b8b4;stroke-width:2;stroke-linecap:round;stroke-linejoin:round;stroke-dashoffset:9.44882;stroke-opacity:1" />
    <rect
       ry="0.000128132"
       y="400"
       x="1560"
       height="260"
       width="40"
       id="rect864"
       style="fill:#ffffff;fill-opacity:0.98515773;stroke:#b1b8b4;stroke-width:2;stroke-linecap:round;stroke-linejoin:round;stroke-dashoffset:9.44882;stroke-opacity:1" />
    <rect
       style="fill:#ffffff;fill-opacity:0.985158;stroke:#b1b8b4;stroke-width:2;stroke-linecap:round;stroke-linejoin:round;stroke-dashoffset:9.44882;stroke-opacity:1"
       id="rect866"
       width="40"
       height="260"
       x="1560"
       y="780"
       ry="0.000128132" />
    <rect
       ry="0.000128132"
       y="1101"
       x="1560"
       height="260"
       width="40"
       id="rect868"
       style="fill:#ffffff;fill-opacity:0.985158;stroke:#b1b8b4;stroke-width:2;stroke-linecap:round;stroke-linejoin:round;stroke-dashoffset:9.44882;stroke-opacity:1" />
    <path
       inkscape:transform-center-y="-0.82339175"
       inkscape:transform-center-x="0.82339175"
       d="m 1520,899.99999 -30.3113,2.19508 -16.0301,25.81926 -27.8594,-12.14274 -26.1927,15.41229 -19.0253,-23.6988 -30.355,1.47456 -5.8327,-29.82575 -27.5632,-12.80098 8.6961,-29.11998 -18.4571,-24.14398 21.2328,-21.74317 -5.1227,-29.95587 28.9052,-9.38527 9.3853,-28.90523 29.9559,5.12269 21.7432,-21.23276 24.1439,18.45709 29.12,-8.69611 12.801,27.56321 29.8257,5.8327 -1.4745,30.35492 23.6988,19.02532 -15.4123,26.19269 12.1427,27.85947 -25.8192,16.03002 z"
       inkscape:randomized="0"
       inkscape:rounded="0"
       inkscape:flatsided="false"
       sodipodi:arg2="1.0270591"
       sodipodi:arg1="0.78539816"
       sodipodi:r2="96.046822"
       sodipodi:r1="113.13708"
       sodipodi:cy="820"
       sodipodi:cx="1440"
       sodipodi:sides="13"
       id="path7226"
       style="fill:#d40000;fill-opacity:0.985158;stroke:#ffffff;stroke-width:2;stroke-linecap:round;stroke-linejoin:round;stroke-dashoffset:9.44882;stroke-opacity:1"
       sodipodi:type="star" />
    <text
       id="text7230"
       y="181.87094"
       x="12.767665"
       style="font-weight:bold;font-size:192.431px;line-height:1.25;font-family:Ubuntu;-inkscape-font-specification:'Ubuntu Bold';letter-spacing:0px;word-spacing:0px;stroke-width:2.00449;fill:#950000;fill-opacity:1;stroke:#ffa21e;stroke-opacity:1;"
       xml:space="preserve"><tspan
         style="font-style:italic;font-variant:normal;font-weight:bold;font-stretch:normal;font-family:Ubuntu;-inkscape-font-specification:'Ubuntu Bold Italic';stroke-width:2.00449;fill:#950000;fill-opacity:1;stroke:#ffa21e;stroke-opacity:1;"
         y="181.87094"
         x="12.767665"
         id="tspan7228"
         sodipodi:role="line">Reconstructing idk..</tspan></text>
    <g
       transform="translate(-24,557.5)"
       id="g1536-6-4"
       inkscape:export-xdpi="300"
       inkscape:export-ydpi="300">
      <g
         transform="translate(-128,64)"
         id="g1492-8-7">
        <path
           inkscape:connector-curvature="0"
           style="opacity:1;fill:#ffc800;fill-opacity:1;fill-rule:nonzero;stroke:none;stroke-opacity:1"
           d="m 256,208 a 64,64 0 0 0 -64,64 64,64 0 0 0 64,64 h 64 a 64,64 0 0 0 64,-64 64,64 0 0 0 -64,-64 z"
           transform="translate(0,106.5)"
           id="path1451-5-8" />
        <path
           inkscape:connector-curvature="0"
           style="opacity:1;fill:#fffe00;fill-opacity:1;fill-rule:nonzero;stroke:none;stroke-width:1.04447;stroke-opacity:1"
           d="m 288,224 a 4,4 0 0 0 -4,4 v 40 h -40 a 4,4 0 0 0 -4,4 4,4 0 0 0 4,4 h 40 v 40 a 4,4 0 0 0 4,4 4,4 0 0 0 4,-4 v -40 h 40 a 4,4 0 0 0 4,-4 4,4 0 0 0 -4,-4 h -40 v -40 a 4,4 0 0 0 -4,-4 z"
           transform="translate(0,106.5)"
           id="rect1461-3-4" />
      </g>
      <flowRoot
         transform="translate(-108.256,129.20475)"
         style="font-style:normal;font-weight:normal;font-size:40px;line-height:0;font-family:sans-serif;letter-spacing:0px;word-spacing:0px;fill:#fffff6;fill-opacity:1;stroke:#000000;stroke-opacity:1"
         id="flowRoot1482-6-4"
         xml:space="preserve"><flowRegion
           style="line-height:0;fill:#fffff6;fill-opacity:1;stroke:#000000;stroke-opacity:1"
           id="flowRegion1484-4-7"><rect
             style="line-height:0;fill:#fffff6;fill-opacity:1;stroke:#000000;stroke-opacity:1;"
             y="272"
             x="384"
             height="128"
             width="1024"
             id="rect1486-8-8" /></flowRegion><flowPara
           style="font-style:normal;font-variant:normal;font-weight:normal;font-stretch:normal;font-size:96px;line-height:1;font-family:Ubuntu;-inkscape-font-specification:Ubuntu;fill:#fffff6;fill-opacity:1;stroke:#000000;stroke-opacity:1"
           id="flowPara1488-6-3">Perkedel </flowPara></flowRoot>
    </g>
    <text
       id="text7906"
       y="520"
       x="220"
       style="font-weight:bold;font-size:96px;line-height:1.25;font-family:Ubuntu;-inkscape-font-specification:'Ubuntu Bold';letter-spacing:0px;word-spacing:0px"
       xml:space="preserve"><tspan
         y="520"
         x="220"
         id="tspan7904"
         sodipodi:role="line">help.</tspan></text>
    <text
       id="text7910"
       y="354.224"
       x="1403.4991"
       style="font-weight:bold;font-size:37.3333px;line-height:1.25;font-family:Ubuntu;-inkscape-font-specification:'Ubuntu Bold';letter-spacing:0px;word-spacing:0px"
       xml:space="preserve"><tspan
         y="354.224"
         x="1403.4991"
         id="tspan7908"
         sodipodi:role="line">how much the license costs?</tspan></text>
    <path
       id="path7912"
       d="m 720.05081,302.48874 -20.25581,60.76742 55.70346,-20.25581 -10.1279,35.44766 c 0,0 50.63951,20.2558 50.63951,-10.1279 0,-30.38371 20.2558,-40.51161 0,-50.63951 -20.2558,-10.1279 -20.2558,-15.19186 -30.3837,-15.19186 -10.12791,0 -15.19186,50.63951 -15.19186,50.63951 0,0 25.31976,-25.31975 35.44766,5.06395 10.1279,30.38371 40.51161,55.70347 -5.06395,40.51161 -45.57556,-15.19185 -70.89531,-55.70346 -50.63951,-70.89531 20.2558,-15.19185 75.95926,25.31975 86.08716,0 10.12791,-25.31976 10.12791,-101.27902 -25.31975,-75.95926 -35.44766,25.31975 30.38371,81.02321 -25.31975,65.83136 -55.70346,-15.19186 -86.08717,10.1279 -55.70346,-20.25581 30.3837,-30.3837 55.70346,-60.76741 40.5116,-45.57555 -15.19185,15.19185 -30.3837,50.6395 -30.3837,50.6395 z"
       style="fill:#00ff00;fill-opacity:1;stroke:#000000;stroke-width:0.253198px;stroke-linecap:butt;stroke-linejoin:miter;stroke-opacity:1" />
    <text
       id="text7916"
       y="820"
       x="700"
       style="font-weight:bold;font-size:37.3333px;line-height:1.25;font-family:Ubuntu;-inkscape-font-specification:'Ubuntu Bold';letter-spacing:0px;word-spacing:0px;fill:#ff0000;fill-opacity:1;"
       xml:space="preserve"><tspan
         y="820"
         x="700"
         id="tspan7914"
         sodipodi:role="line">spoiler alert!</tspan></text>
    <text
       id="text7920"
       y="634.1004"
       x="40.162724"
       style="font-weight:bold;font-size:47.9606px;line-height:1.25;font-family:Ubuntu;-inkscape-font-specification:'Ubuntu Bold';letter-spacing:0px;word-spacing:0px;fill:#ed5800;fill-opacity:1;stroke:#000000;stroke-width:1.28466;stroke-opacity:1"
       xml:space="preserve"><tspan
         style="stroke-width:1.28466"
         y="634.1004"
         x="40.162724"
         id="tspan7918"
         sodipodi:role="line">wwhy didn't you perthought the room geometry?!?!?!</tspan></text>
    <text
       id="text7924"
       y="880"
       x="860"
       style="font-weight:bold;font-size:37.3333px;line-height:1.25;font-family:Ubuntu;-inkscape-font-specification:'Ubuntu Bold';letter-spacing:0px;word-spacing:0px"
       xml:space="preserve"><tspan
         y="880"
         x="860"
         id="tspan7922"
         sodipodi:role="line">I will spoil now!</tspan></text>
    <text
       id="text7928"
       y="840"
       x="40"
       style="font-weight:bold;font-size:37.3333px;line-height:1.25;font-family:Ubuntu;-inkscape-font-specification:'Ubuntu Bold';letter-spacing:0px;word-spacing:0px;fill:#782bff;fill-opacity:1;stroke:#000000;stroke-opacity:1;"
       xml:space="preserve"><tspan
         y="840"
         x="40"
         id="tspan7926"
         sodipodi:role="line">Is that Nether, or some mods?!</tspan></text>
    <text
       id="text7932"
       y="520"
       x="780"
       style="font-weight:bold;font-size:37.3333px;line-height:1.25;font-family:Ubuntu;-inkscape-font-specification:'Ubuntu Bold';letter-spacing:0px;word-spacing:0px"
       xml:space="preserve"><tspan
         y="520"
         x="780"
         id="tspan7930"
         sodipodi:role="line">I'm sorry. idk what to do</tspan></text>
    <text
       id="text7936"
       y="277.07693"
       x="98.634109"
       style="font-weight:bold;font-size:54.4069px;line-height:1.25;font-family:Ubuntu;-inkscape-font-specification:'Ubuntu Bold';letter-spacing:0px;word-spacing:0px;stroke-width:1.5;fill:#00ffff;fill-opacity:1;stroke:#0000ff;stroke-opacity:1;stroke-miterlimit:4;stroke-dasharray:none"
       xml:space="preserve"><tspan
         style="stroke-width:1.5;fill:#00ffff;fill-opacity:1;stroke:#0000ff;stroke-opacity:1;stroke-miterlimit:4;stroke-dasharray:none"
         y="277.07693"
         x="98.634109"
         id="tspan7934"
         sodipodi:role="line">ELECTRIFIED</tspan><tspan
         style="stroke-width:1.5;fill:#00ffff;fill-opacity:1;stroke:#0000ff;stroke-opacity:1;stroke-miterlimit:4;stroke-dasharray:none"
         id="tspan7938"
         y="345.08557"
         x="98.634109"
         sodipodi:role="line">INFORTUNATE</tspan><tspan
         style="stroke-width:1.5;fill:#00ffff;fill-opacity:1;stroke:#0000ff;stroke-opacity:1;stroke-miterlimit:4;stroke-dasharray:none"
         id="tspan7940"
         y="413.09421"
         x="98.634109"
         sodipodi:role="line">BRUH MOMENTS</tspan></text>
  </g>
</svg>
