<?xml version="1.0" encoding="UTF-8" standalone="no"?>
<svg
   inkscape:export-ydpi="96"
   inkscape:export-xdpi="96"
   inkscape:export-filename="C:\Users\joelr\Documents\starring codes\After Church\RAW files\Inkscape\Senbonzakura-Thumbnaili-Genos.png"
   sodipodi:docname="Senbonzakura-Thumbnaili.svg"
   inkscape:version="1.2.1 (9c6d41e410, 2022-07-14)"
   id="svg8"
   version="1.1"
   viewBox="0 0 1920 1080"
   height="1080"
   width="1920"
   xmlns:inkscape="http://www.inkscape.org/namespaces/inkscape"
   xmlns:sodipodi="http://sodipodi.sourceforge.net/DTD/sodipodi-0.dtd"
   xmlns:xlink="http://www.w3.org/1999/xlink"
   xmlns="http://www.w3.org/2000/svg"
   xmlns:svg="http://www.w3.org/2000/svg"
   xmlns:rdf="http://www.w3.org/1999/02/22-rdf-syntax-ns#"
   xmlns:cc="http://creativecommons.org/ns#"
   xmlns:dc="http://purl.org/dc/elements/1.1/">
  <defs
     id="defs2">
    <linearGradient
       id="linearGradient878"
       inkscape:collect="always">
      <stop
         id="stop868"
         offset="0"
         style="stop-color:#ffff6c;stop-opacity:1" />
      <stop
         style="stop-color:#ffd8ff;stop-opacity:1"
         offset="0.25"
         id="stop870" />
      <stop
         style="stop-color:#ffff7f;stop-opacity:1"
         offset="0.5"
         id="stop872" />
      <stop
         id="stop874"
         offset="0.75"
         style="stop-color:#ffdbff;stop-opacity:1" />
      <stop
         id="stop876"
         offset="1"
         style="stop-color:#fff63b;stop-opacity:1" />
    </linearGradient>
    <linearGradient
       inkscape:collect="always"
       id="linearGradient865">
      <stop
         style="stop-color:#ffff00;stop-opacity:1;"
         offset="0"
         id="stop861" />
      <stop
         id="stop873"
         offset="0.25"
         style="stop-color:#ffc5ff;stop-opacity:1" />
      <stop
         id="stop869"
         offset="0.5"
         style="stop-color:#00ffff;stop-opacity:1" />
      <stop
         style="stop-color:#ffa3ff;stop-opacity:1"
         offset="0.75"
         id="stop871" />
      <stop
         style="stop-color:#00ffff;stop-opacity:1"
         offset="1"
         id="stop863" />
    </linearGradient>
    <linearGradient
       id="linearGradient850"
       inkscape:collect="always">
      <stop
         id="stop846"
         offset="0"
         style="stop-color:#fff455;stop-opacity:1" />
      <stop
         id="stop848"
         offset="1"
         style="stop-color:#ff6f55;stop-opacity:1" />
    </linearGradient>
    <radialGradient
       inkscape:collect="always"
       xlink:href="#linearGradient878"
       id="radialGradient867"
       cx="988.6944"
       cy="545.99921"
       fx="988.6944"
       fy="545.99921"
       r="786.87573"
       gradientTransform="matrix(1.016679,2.2938407e-8,-2.2945719e-8,1.016679,-40.229783,-12.941132)"
       gradientUnits="userSpaceOnUse" />
    <radialGradient
       inkscape:collect="always"
       xlink:href="#linearGradient865"
       id="radialGradient881"
       gradientUnits="userSpaceOnUse"
       gradientTransform="matrix(0.99126199,6.3570184e-4,-6.3570184e-4,0.99126198,8.731451,-655.39594)"
       cx="960"
       cy="539.49982"
       fx="960"
       fy="539.49982"
       r="786.87573" />
    <radialGradient
       gradientUnits="userSpaceOnUse"
       gradientTransform="matrix(1,0,0,0.10394802,0,339.60372)"
       r="182.78354"
       fy="379.00003"
       fx="960"
       cy="379.00003"
       cx="960"
       id="radialGradient890"
       xlink:href="#linearGradient865"
       inkscape:collect="always" />
    <linearGradient
       inkscape:collect="always"
       xlink:href="#linearGradient850"
       id="linearGradient557"
       gradientUnits="userSpaceOnUse"
       x1="1360"
       y1="0"
       x2="1280"
       y2="1080" />
    <linearGradient
       inkscape:collect="always"
       xlink:href="#linearGradient850"
       id="linearGradient1552"
       gradientUnits="userSpaceOnUse"
       x1="1360"
       y1="0"
       x2="1280"
       y2="1080" />
  </defs>
  <sodipodi:namedview
     inkscape:window-maximized="1"
     inkscape:window-y="0"
     inkscape:window-x="0"
     inkscape:window-height="1051"
     inkscape:window-width="1920"
     units="px"
     showgrid="true"
     inkscape:document-rotation="0"
     inkscape:current-layer="layer1"
     inkscape:document-units="px"
     inkscape:cy="590.93925"
     inkscape:cx="943.48249"
     inkscape:zoom="0.49497474"
     inkscape:pageshadow="2"
     inkscape:pageopacity="0.0"
     borderopacity="1.0"
     bordercolor="#666666"
     pagecolor="#ffffff"
     id="base"
     inkscape:snap-bbox="true"
     inkscape:bbox-paths="true"
     inkscape:bbox-nodes="true"
     inkscape:snap-bbox-midpoints="true"
     inkscape:snap-bbox-edge-midpoints="true"
     inkscape:showpageshadow="0"
     inkscape:pagecheckerboard="1"
     inkscape:deskcolor="#d1d1d1">
    <inkscape:grid
       id="grid842"
       type="xygrid" />
  </sodipodi:namedview>
  <metadata
     id="metadata5">
    <rdf:RDF>
      <cc:Work
         rdf:about="">
        <dc:format>image/svg+xml</dc:format>
        <dc:type
           rdf:resource="http://purl.org/dc/dcmitype/StillImage" />
        <cc:license
           rdf:resource="http://creativecommons.org/licenses/by-sa/4.0/" />
      </cc:Work>
      <cc:License
         rdf:about="http://creativecommons.org/licenses/by-sa/4.0/">
        <cc:permits
           rdf:resource="http://creativecommons.org/ns#Reproduction" />
        <cc:permits
           rdf:resource="http://creativecommons.org/ns#Distribution" />
        <cc:requires
           rdf:resource="http://creativecommons.org/ns#Notice" />
        <cc:requires
           rdf:resource="http://creativecommons.org/ns#Attribution" />
        <cc:permits
           rdf:resource="http://creativecommons.org/ns#DerivativeWorks" />
        <cc:requires
           rdf:resource="http://creativecommons.org/ns#ShareAlike" />
      </cc:License>
    </rdf:RDF>
  </metadata>
  <g
     inkscape:groupmode="layer"
     id="layer4"
     inkscape:label="bekgron">
    <g
       inkscape:groupmode="layer"
       id="layer5"
       inkscape:label="Cheapskate"
       style="display:none"
       sodipodi:insensitive="true">
      <rect
         y="0"
         x="0"
         height="1080"
         width="1920"
         id="rect844-7"
         style="fill:url(#linearGradient557);fill-opacity:1;stroke:none;stroke-width:3;stroke-linecap:round;stroke-linejoin:round;stroke-dashoffset:9.44882" />
    </g>
    <rect
       y="0"
       x="0"
       height="1080"
       width="1920"
       id="rect844-7-5"
       style="display:inline;fill:url(#linearGradient1552);fill-opacity:1;stroke:none;stroke-width:3;stroke-linecap:round;stroke-linejoin:round;stroke-dashoffset:9.44882" />
    <g
       inkscape:groupmode="layer"
       id="layer6"
       inkscape:label="Premium"
       style="display:inline"
       sodipodi:insensitive="true">
      <path
         style="fill:#000000;stroke:#0000ff;stroke-linecap:round;stroke-linejoin:bevel"
         d="m 1935,-25 c 0,-5 -5,-5 -5,-5 0,0 -5,0 -5,5 0,5 10,10 10,10 0,0 10,-5 10,-10 0,-5 -5,-5 -5,-5 0,0 -5,0 -5,5 z"
         id="path730" />
      <path
         style="fill:#ff0000;stroke:#800000;stroke-width:0.556148;stroke-linecap:round;stroke-linejoin:round;stroke-dasharray:none"
         d="m 1965,-25 c 0,-5 -4.3695,-4.988903 -4.3695,-4.988903 0,0 -4.3694,0 -4.3694,5.662968 C 1956.2611,-18.662968 1965,-13 1965,-13 c 0,0 8.7389,-5.662968 8.7389,-11.325935 0,-5.662968 -4.3694,-5.662968 -4.3694,-5.662968 0,0 -4.3695,-0.0111 -4.3695,4.988903 z"
         id="path732"
         sodipodi:nodetypes="ccscscc" />
      <g
         id="g2046">
        <g
           id="g2025">
          <path
             style="fill:#aa0000;stroke:#782121;stroke-width:5;stroke-linecap:round;stroke-linejoin:round;stroke-dasharray:none"
             d="m 1420,440 60,720 520,20 -520,-760 z"
             id="path1632" />
          <path
             style="fill:#aa0000;stroke:#782121;stroke-width:5;stroke-linecap:round;stroke-linejoin:round;stroke-dasharray:none"
             d="m 1500,340 580,-380 20,440 -580,-20 z"
             id="path1904"
             sodipodi:nodetypes="ccccc" />
          <path
             style="fill:#aa0000;stroke:#782121;stroke-width:5;stroke-linecap:round;stroke-linejoin:round;stroke-dasharray:none"
             d="m 1740,-180 -300,560 -40,-20 -20,-520 z"
             id="path1906"
             sodipodi:nodetypes="ccccc" />
          <path
             style="fill:#aa0000;stroke:#782121;stroke-width:5;stroke-linecap:round;stroke-linejoin:round;stroke-dasharray:none"
             d="m 920,-120 460,440 -40,45 L 200,-60 Z"
             id="path1908"
             sodipodi:nodetypes="ccccc" />
          <path
             style="fill:#aa0000;stroke:#782121;stroke-width:5;stroke-linecap:round;stroke-linejoin:round;stroke-dasharray:none"
             d="M -100,680 1360,420 1380,440 0,1120 -100,1000 Z"
             id="path1979"
             sodipodi:nodetypes="cccccc" />
          <path
             style="fill:#aa0000;stroke:#782121;stroke-width:5;stroke-linecap:round;stroke-linejoin:round;stroke-dasharray:none"
             d="m 700,1200 660,-720 h 40 l -160,740 z"
             id="path1981"
             sodipodi:nodetypes="ccccc" />
          <path
             style="fill:#aa0000;stroke:#782121;stroke-width:5;stroke-linecap:round;stroke-linejoin:round;stroke-dasharray:none"
             d="m -100,100 1435,280 v 20 l -1435,80 z"
             id="path1997"
             sodipodi:nodetypes="ccccc" />
          <path
             style="fill:#aa0000;stroke:#782121;stroke-width:5;stroke-linecap:round;stroke-linejoin:round;stroke-dasharray:none"
             d="m 2080,920 -580,-500 20,-20 640,220 z"
             id="path2008" />
        </g>
        <path
           style="fill:#ff0000;stroke:#800000;stroke-width:5;stroke-linecap:round;stroke-linejoin:round;stroke-dasharray:none"
           d="m 1430,360 c 28.9117,-64.46081 -27.4846,-89.58392 -27.4846,-89.58392 0,0 -56.3312,-25.2656 -89.0767,47.74232 -32.7455,73.00788 47.1724,196.54754 47.1724,196.54754 0,0 145.4087,-22.4762 178.1542,-95.4841 32.7455,-73.0079 -23.5855,-98.27349 -23.5855,-98.27349 0,0 -56.2679,-25.40927 -85.1798,39.05165 z"
           id="path1508"
           sodipodi:nodetypes="ccscscc" />
      </g>
    </g>
  </g>
  <g
     id="layer1"
     inkscape:groupmode="layer"
     inkscape:label="Main"
     style="display:inline">
    <text
       xml:space="preserve"
       style="font-weight:bold;font-size:286.146px;line-height:1.25;font-family:'a Atmospheric';-inkscape-font-specification:'a Atmospheric Bold';text-align:center;letter-spacing:0px;word-spacing:0px;text-anchor:middle;fill:url(#radialGradient867);fill-opacity:1;stroke:#0000ff;stroke-width:0.5;stroke-miterlimit:4;stroke-dasharray:none;stroke-opacity:1"
       x="960.87854"
       y="624.2981"
       id="text855"><tspan
         sodipodi:role="line"
         id="tspan853"
         x="960.87854"
         y="624.2981"
         style="font-style:normal;font-variant:normal;font-weight:bold;font-stretch:normal;font-family:'BOSTHON BRUSH';-inkscape-font-specification:'BOSTHON BRUSH Bold';fill:url(#radialGradient867);fill-opacity:1;stroke:#0000ff;stroke-width:0.5;stroke-miterlimit:4;stroke-dasharray:none;stroke-opacity:1">SENBONZAKURA</tspan></text>
    <text
       xml:space="preserve"
       style="font-weight:bold;font-size:96px;line-height:1.25;font-family:'a Atmospheric';-inkscape-font-specification:'a Atmospheric Bold';text-align:center;letter-spacing:0px;word-spacing:0px;text-anchor:middle"
       x="-360"
       y="1320"
       id="text859"><tspan
         sodipodi:role="line"
         id="tspan857"
         x="-360.00006"
         y="1320"
         style="font-style:normal;font-variant:normal;font-weight:bold;font-stretch:normal;font-family:Ubuntu;-inkscape-font-specification:'Ubuntu Bold'">https://www.fontspace.com/a-atmospheric-font-f46808</tspan><tspan
         sodipodi:role="line"
         x="-360.00003"
         y="1442.1713"
         style="font-style:normal;font-variant:normal;font-weight:bold;font-stretch:normal;font-family:Ubuntu;-inkscape-font-specification:'Ubuntu Bold'"
         id="tspan875">https://www.fontspace.com/bosthon-brush-font-f32286</tspan><tspan
         id="tspan908"
         sodipodi:role="line"
         x="-359.99997"
         y="1564.3424"
         style="font-style:normal;font-variant:normal;font-weight:bold;font-stretch:normal;font-family:Ubuntu;-inkscape-font-specification:'Ubuntu Bold'">https://www.youtube.com/watch?v=Mqps4anhz0Q</tspan></text>
    <text
       id="text879"
       y="-62.931309"
       x="955.49457"
       style="font-weight:bold;font-size:146.462px;line-height:1.25;font-family:'a Atmospheric';-inkscape-font-specification:'a Atmospheric Bold';text-align:center;letter-spacing:0px;word-spacing:0px;text-anchor:middle;fill:url(#radialGradient881);fill-opacity:1;stroke-width:1.52564"
       xml:space="preserve"><tspan
         style="fill:url(#radialGradient881);fill-opacity:1;stroke-width:1.52564"
         y="-62.931309"
         x="955.49457"
         id="tspan877"
         sodipodi:role="line">SENBONZAKURA</tspan></text>
    <text
       id="text882"
       y="397.22357"
       x="958.40143"
       style="font-weight:bold;font-size:46.7692px;line-height:1.25;font-family:'a Atmospheric';-inkscape-font-specification:'a Atmospheric Bold';text-align:center;letter-spacing:0px;word-spacing:0px;text-anchor:middle;fill:#0038ff;fill-opacity:1;stroke:#00ffff;stroke-width:0.487179;stroke-opacity:1"
       xml:space="preserve"><tspan
         style="fill:#0038ff;fill-opacity:1;stroke:#00ffff;stroke-width:0.487179;stroke-opacity:1"
         y="397.22357"
         x="958.40143"
         id="tspan880"
         sodipodi:role="line">Kurousa-p</tspan></text>
    <text
       id="text898"
       y="673.35925"
       x="960.89032"
       style="font-weight:bold;font-size:35.8959px;line-height:1.25;font-family:'BOSTHON Swash';-inkscape-font-specification:'BOSTHON Swash Bold';text-align:center;letter-spacing:0px;word-spacing:0px;text-anchor:middle;fill:#4d4d4d;stroke:#00ffff;stroke-width:0.373916;stroke-opacity:1"
       xml:space="preserve"><tspan
         style="font-style:normal;font-variant:normal;font-weight:bold;font-stretch:normal;font-family:Ubuntu;-inkscape-font-specification:'Ubuntu Bold';fill:#4d4d4d;stroke:#00ffff;stroke-width:0.373916;stroke-opacity:1"
         y="673.35925"
         x="960.89032"
         id="tspan896"
         sodipodi:role="line">1000 cherry trees</tspan></text>
    <text
       id="text902"
       y="778.40625"
       x="960"
       style="font-weight:bold;font-size:96px;line-height:1.25;font-family:'a Atmospheric';-inkscape-font-specification:'a Atmospheric Bold';text-align:center;letter-spacing:0px;word-spacing:0px;text-anchor:middle;fill:#00aaff;fill-opacity:1;stroke:#00ffff;stroke-width:2;stroke-miterlimit:4;stroke-dasharray:none;stroke-opacity:1"
       xml:space="preserve"><tspan
         y="778.40625"
         x="960"
         id="tspan900"
         sodipodi:role="line">ft. hatsune miku</tspan></text>
    <text
       id="text906"
       y="839.38867"
       x="959.84711"
       style="font-weight:bold;font-size:43.6658px;line-height:1.25;font-family:'a Atmospheric';-inkscape-font-specification:'a Atmospheric Bold';text-align:center;letter-spacing:0px;word-spacing:0px;text-anchor:middle;fill:#ece18b;fill-opacity:1;stroke:#00ffff;stroke-width:1;stroke-miterlimit:4;stroke-dasharray:none;stroke-opacity:1"
       xml:space="preserve"><tspan
         style="font-style:normal;font-variant:normal;font-weight:bold;font-stretch:normal;font-family:Ubuntu;-inkscape-font-specification:'Ubuntu Bold';fill:#ece18b;fill-opacity:1;stroke:#00ffff;stroke-width:1;stroke-miterlimit:4;stroke-dasharray:none;stroke-opacity:1"
         y="839.38867"
         x="959.84711"
         id="tspan904"
         sodipodi:role="line">Yamaha XG MIDI edition</tspan></text>
    <g
       transform="matrix(0.625,0,0,0.625,733.73234,725.9375)"
       id="g1536-6-4"
       inkscape:export-xdpi="300"
       inkscape:export-ydpi="300">
      <g
         transform="translate(-128,64)"
         id="g1492-8-7">
        <path
           inkscape:connector-curvature="0"
           style="opacity:1;fill:#ffc800;fill-opacity:1;fill-rule:nonzero;stroke:none;stroke-opacity:1"
           d="m 256,208 a 64,64 0 0 0 -64,64 64,64 0 0 0 64,64 h 64 a 64,64 0 0 0 64,-64 64,64 0 0 0 -64,-64 z"
           transform="translate(0,106.5)"
           id="path1451-5-8" />
        <path
           inkscape:connector-curvature="0"
           style="opacity:1;fill:#fffe00;fill-opacity:1;fill-rule:nonzero;stroke:none;stroke-width:1.04447;stroke-opacity:1"
           d="m 288,224 a 4,4 0 0 0 -4,4 v 40 h -40 a 4,4 0 0 0 -4,4 4,4 0 0 0 4,4 h 40 v 40 a 4,4 0 0 0 4,4 4,4 0 0 0 4,-4 v -40 h 40 a 4,4 0 0 0 4,-4 4,4 0 0 0 -4,-4 h -40 v -40 a 4,4 0 0 0 -4,-4 z"
           transform="translate(0,106.5)"
           id="rect1461-3-4" />
      </g>
      <flowRoot
         transform="translate(-108.256,129.20475)"
         style="font-style:normal;font-weight:normal;font-size:40px;line-height:0;font-family:sans-serif;letter-spacing:0px;word-spacing:0px;fill:#fffff6;fill-opacity:1;stroke:#000000;stroke-opacity:1"
         id="flowRoot1482-6-4"
         xml:space="preserve"><flowRegion
           style="line-height:0;fill:#fffff6;fill-opacity:1;stroke:#000000;stroke-opacity:1"
           id="flowRegion1484-4-7"><rect
             style="line-height:0;fill:#fffff6;fill-opacity:1;stroke:#000000;stroke-opacity:1;"
             y="272"
             x="384"
             height="128"
             width="1024"
             id="rect1486-8-8" /></flowRegion><flowPara
           style="font-style:normal;font-variant:normal;font-weight:normal;font-stretch:normal;font-size:96px;line-height:1;font-family:Ubuntu;-inkscape-font-specification:Ubuntu;fill:#fffff6;fill-opacity:1;stroke:#000000;stroke-opacity:1"
           id="flowPara1488-6-3">Perkedel </flowPara></flowRoot>
    </g>
  </g>
  <g
     inkscape:label="Render Cover of"
     id="layer2"
     inkscape:groupmode="layer">
    <g
       inkscape:label="Yamaha PSR-S775"
       id="layer3"
       inkscape:groupmode="layer"
       sodipodi:insensitive="true"
       style="display:none">
      <text
         id="text914"
         y="946.52802"
         x="960"
         style="font-weight:bold;font-size:96px;line-height:1.25;font-family:Ubuntu;-inkscape-font-specification:'Ubuntu Bold';text-align:center;letter-spacing:0px;word-spacing:0px;text-anchor:middle"
         xml:space="preserve"><tspan
           y="946.52802"
           x="960"
           id="tspan912"
           sodipodi:role="line">Yamaha PSR-S775</tspan></text>
    </g>
    <g
       inkscape:label="Yamaha PSR-SX700"
       id="g294"
       inkscape:groupmode="layer"
       sodipodi:insensitive="true"
       style="display:none">
      <text
         id="text292"
         y="946.52802"
         x="960"
         style="font-weight:bold;font-size:96px;line-height:1.25;font-family:Ubuntu;-inkscape-font-specification:'Ubuntu Bold';text-align:center;letter-spacing:0px;word-spacing:0px;text-anchor:middle;stroke:#0000ff"
         xml:space="preserve"><tspan
           y="946.52802"
           x="960"
           sodipodi:role="line"
           id="tspan452">Yamaha PSR-SX700</tspan></text>
    </g>
    <g
       inkscape:label="Yamaha Genos"
       id="g2127"
       inkscape:groupmode="layer"
       style="display:inline"
       sodipodi:insensitive="true">
      <text
         id="text2125"
         y="946.52802"
         x="960"
         style="font-weight:bold;font-size:96px;line-height:1.25;font-family:Ubuntu;-inkscape-font-specification:'Ubuntu Bold';text-align:center;letter-spacing:0px;word-spacing:0px;text-anchor:middle;fill:#0000ff;stroke:#00ffff"
         xml:space="preserve"><tspan
           y="946.52802"
           x="960"
           sodipodi:role="line"
           id="tspan2123">Yamaha Genos</tspan></text>
    </g>
  </g>
</svg>
