<?xml version="1.0" encoding="UTF-8" standalone="no"?>
<svg
   xmlns:dc="http://purl.org/dc/elements/1.1/"
   xmlns:cc="http://creativecommons.org/ns#"
   xmlns:rdf="http://www.w3.org/1999/02/22-rdf-syntax-ns#"
   xmlns:svg="http://www.w3.org/2000/svg"
   xmlns="http://www.w3.org/2000/svg"
   xmlns:xlink="http://www.w3.org/1999/xlink"
   xmlns:sodipodi="http://sodipodi.sourceforge.net/DTD/sodipodi-0.dtd"
   xmlns:inkscape="http://www.inkscape.org/namespaces/inkscape"
   inkscape:export-ydpi="96"
   inkscape:export-xdpi="96"
   inkscape:export-filename="C:\Users\joelr\Documents\starring codes\Godot Projects\Where_Is_LoadingBar_Functionality\GameDVDCardtridge\WhereIsLoadingBarFunctions\sprites\icon_loading-functionality.png"
   sodipodi:docname="Where_is_loading_icon.svg"
   inkscape:version="1.0 (4035a4fb49, 2020-05-01)"
   id="svg1634"
   version="1.1"
   viewBox="0 0 135.46666 135.46667"
   height="512"
   width="512">
  <defs
     id="defs1628" />
  <sodipodi:namedview
     inkscape:snap-bbox-midpoints="true"
     inkscape:snap-bbox-edge-midpoints="true"
     inkscape:bbox-paths="true"
     inkscape:bbox-nodes="true"
     inkscape:snap-bbox="true"
     inkscape:window-maximized="1"
     inkscape:window-y="-9"
     inkscape:window-x="-9"
     inkscape:window-height="1051"
     inkscape:window-width="1920"
     units="px"
     showgrid="true"
     inkscape:document-rotation="0"
     inkscape:current-layer="layer1"
     inkscape:document-units="mm"
     inkscape:cy="248.58313"
     inkscape:cx="221.52015"
     inkscape:zoom="1.4"
     inkscape:pageshadow="2"
     inkscape:pageopacity="0.0"
     borderopacity="1.0"
     bordercolor="#666666"
     pagecolor="#ffffff"
     id="base">
    <inkscape:grid
       empspacing="4"
       id="grid2206"
       type="xygrid" />
    <inkscape:grid
       empspacing="64"
       empopacity="0.25098039"
       empcolor="#ff3f00"
       opacity="0.1254902"
       color="#ff3fff"
       id="grid2208"
       type="xygrid" />
  </sodipodi:namedview>
  <metadata
     id="metadata1631">
    <rdf:RDF>
      <cc:Work
         rdf:about="">
        <dc:format>image/svg+xml</dc:format>
        <dc:type
           rdf:resource="http://purl.org/dc/dcmitype/StillImage" />
        <dc:title></dc:title>
      </cc:Work>
    </rdf:RDF>
  </metadata>
  <g
     id="layer1"
     inkscape:groupmode="layer"
     inkscape:label="Lapis 1">
    <image
       transform="rotate(-30)"
       id="image2220"
       xlink:href="data:image/png;base64,iVBORw0KGgoAAAANSUhEUgAAACAAAAAgCAYAAABzenr0AAAABHNCSVQICAgIfAhkiAAAAL5JREFU
WIXV1zkSgCAMBdAf739nLLRQIZCdkUIdi/wHLkMIQMPGQfe51TsIAIgedwoR9D7UIt65X0Ayop/0
CJCEGK44CwhGjMNXgCAEHy4BOBHzcCnAiFiHawBKhCxcCxAi5OEWwAKhC7cCGIQ+3AP4IGzhAHA4
ANtHY65V47crMJpx2Y5mFpSOkASkITSFwxGWgmEITyE3ImIW5hqRz1FdK+NNFtfM/JaXtSv+ZmxG
ZXPYZe3okBtwbSK2tucnnS859xdUKRgAAAAASUVORK5CYII=
"
       preserveAspectRatio="none"
       height="85.724998"
       width="85.724998"
       x="-18.070379"
       y="49.662956" />
    <g
       style="stroke-width:2.64583333;stroke-miterlimit:4;stroke-dasharray:none;stroke:#00ff00;stroke-opacity:1"
       id="g2238">
      <path
         style="fill:none;stroke:#00ff00;stroke-width:2.64583333;stroke-linecap:round;stroke-linejoin:round;stroke-opacity:1;stroke-miterlimit:4;stroke-dasharray:none"
         d="m 44.449999,118.53333 c 0,0 -46.5666656,6.35 -23.283333,-50.799998"
         id="path2224" />
      <path
         style="fill:none;stroke:#00ff00;stroke-width:2.64583333;stroke-linecap:round;stroke-linejoin:round;stroke-opacity:1;stroke-miterlimit:4;stroke-dasharray:none"
         d="m 6.3499999,71.966666 14.8166661,-4.233334 6.35,10.583334"
         id="path2226" />
    </g>
    <g
       style="stroke:#00ff00;stroke-opacity:1;stroke-width:2.64583333;stroke-miterlimit:4;stroke-dasharray:none;stroke-linejoin:round;stroke-linecap:round"
       id="g2234">
      <path
         style="fill:none;stroke:#00ff00;stroke-width:2.64583333;stroke-linecap:round;stroke-linejoin:round;stroke-opacity:1;stroke-miterlimit:4;stroke-dasharray:none"
         d="m 88.899999,19.05 c 0,0 52.916661,-2.116667 29.633331,48.683332"
         id="path2228" />
      <path
         style="fill:none;stroke:#00ff00;stroke-width:2.64583333;stroke-linecap:round;stroke-linejoin:round;stroke-opacity:1;stroke-miterlimit:4;stroke-dasharray:none"
         d="m 112.18333,55.033333 6.35,12.699999 h 12.7"
         id="path2230" />
    </g>
  </g>
</svg>
