<?xml version="1.0" encoding="UTF-8" standalone="no"?>
<!-- Created with Inkscape (http://www.inkscape.org/) -->

<svg
   xmlns:dc="http://purl.org/dc/elements/1.1/"
   xmlns:cc="http://creativecommons.org/ns#"
   xmlns:rdf="http://www.w3.org/1999/02/22-rdf-syntax-ns#"
   xmlns:svg="http://www.w3.org/2000/svg"
   xmlns="http://www.w3.org/2000/svg"
   xmlns:xlink="http://www.w3.org/1999/xlink"
   xmlns:sodipodi="http://sodipodi.sourceforge.net/DTD/sodipodi-0.dtd"
   xmlns:inkscape="http://www.inkscape.org/namespaces/inkscape"
   width="1920"
   height="1080"
   viewBox="0 0 1920 1080"
   version="1.1"
   id="svg8"
   inkscape:version="0.92.4 (5da689c313, 2019-01-14)"
   sodipodi:docname="Thumbnailers.svg"
   inkscape:export-filename="C:\Users\ASUS\Documents\starring codes\Unity Projects\CorruptedSet\NEWset\Geogon_Polymetry_Havent_Done_Yet\Assets\Sprites\Thumnail\WarkCark.png"
   inkscape:export-xdpi="96"
   inkscape:export-ydpi="96">
  <defs
     id="defs2">
    <linearGradient
       inkscape:collect="always"
       id="linearGradient989">
      <stop
         style="stop-color:#002dff;stop-opacity:1"
         offset="0"
         id="stop985" />
      <stop
         style="stop-color:#00a800;stop-opacity:0;"
         offset="1"
         id="stop987" />
    </linearGradient>
    <linearGradient
       inkscape:collect="always"
       id="linearGradient949">
      <stop
         style="stop-color:#00d0cc;stop-opacity:1"
         offset="0"
         id="stop945" />
      <stop
         style="stop-color:#b7c8c4;stop-opacity:1"
         offset="1"
         id="stop947" />
    </linearGradient>
    <linearGradient
       inkscape:collect="always"
       xlink:href="#linearGradient949"
       id="linearGradient951"
       x1="950"
       y1="0"
       x2="950"
       y2="1080"
       gradientUnits="userSpaceOnUse" />
    <radialGradient
       inkscape:collect="always"
       xlink:href="#linearGradient989"
       id="radialGradient991"
       cx="1230"
       cy="1030"
       fx="1230"
       fy="1030"
       r="25"
       gradientUnits="userSpaceOnUse" />
  </defs>
  <sodipodi:namedview
     id="base"
     pagecolor="#ffffff"
     bordercolor="#666666"
     borderopacity="1.0"
     inkscape:pageopacity="0.0"
     inkscape:pageshadow="2"
     inkscape:zoom="0.49497475"
     inkscape:cx="795.2308"
     inkscape:cy="474.75455"
     inkscape:document-units="px"
     inkscape:current-layer="layer2"
     showgrid="true"
     units="px"
     inkscape:pagecheckerboard="false"
     inkscape:window-width="1920"
     inkscape:window-height="1051"
     inkscape:window-x="-9"
     inkscape:window-y="-9"
     inkscape:window-maximized="1"
     inkscape:snap-bbox="true"
     inkscape:bbox-paths="true"
     inkscape:bbox-nodes="true"
     inkscape:snap-bbox-edge-midpoints="true"
     inkscape:snap-bbox-midpoints="true">
    <inkscape:grid
       type="xygrid"
       id="grid815" />
    <inkscape:grid
       type="xygrid"
       id="grid851"
       empspacing="50"
       color="#ff3fff"
       opacity="0.1254902"
       empcolor="#ff3fff"
       empopacity="0.25098039" />
  </sodipodi:namedview>
  <metadata
     id="metadata5">
    <rdf:RDF>
      <cc:Work
         rdf:about="">
        <dc:format>image/svg+xml</dc:format>
        <dc:type
           rdf:resource="http://purl.org/dc/dcmitype/StillImage" />
        <dc:title></dc:title>
        <cc:license
           rdf:resource="http://creativecommons.org/licenses/by-sa/4.0/" />
      </cc:Work>
      <cc:License
         rdf:about="http://creativecommons.org/licenses/by-sa/4.0/">
        <cc:permits
           rdf:resource="http://creativecommons.org/ns#Reproduction" />
        <cc:permits
           rdf:resource="http://creativecommons.org/ns#Distribution" />
        <cc:requires
           rdf:resource="http://creativecommons.org/ns#Notice" />
        <cc:requires
           rdf:resource="http://creativecommons.org/ns#Attribution" />
        <cc:permits
           rdf:resource="http://creativecommons.org/ns#DerivativeWorks" />
        <cc:requires
           rdf:resource="http://creativecommons.org/ns#ShareAlike" />
      </cc:License>
    </rdf:RDF>
  </metadata>
  <g
     inkscape:label="WarkCark"
     inkscape:groupmode="layer"
     id="layer1"
     transform="translate(0,-11.249983)"
     style="display:inline"
     sodipodi:insensitive="true">
    <g
       id="g941">
      <rect
         y="11.249983"
         x="0"
         height="1080"
         width="1920"
         id="rect817"
         style="fill:#000000;fill-opacity:1;stroke:#000000;stroke-width:1;stroke-miterlimit:4;stroke-dasharray:none;stroke-dashoffset:25;stroke-opacity:1" />
      <text
         id="text821"
         y="426.20395"
         x="145.25369"
         style="font-style:normal;font-weight:normal;font-size:398.53747559px;line-height:1.25;font-family:sans-serif;letter-spacing:0px;word-spacing:0px;fill:#ff00cc;fill-opacity:1;stroke:#ff6aff;stroke-width:10;stroke-miterlimit:4;stroke-dasharray:none;stroke-opacity:1"
         xml:space="preserve"><tspan
           id="tspan823"
           style="font-style:normal;font-variant:normal;font-weight:normal;font-stretch:normal;font-family:Magneto;-inkscape-font-specification:Magneto;fill:#ff00cc;stroke:#ff6aff;stroke-width:10;stroke-miterlimit:4;stroke-dasharray:none;stroke-opacity:1"
           y="426.20395"
           x="145.25369"
           sodipodi:role="line">Wark</tspan></text>
      <text
         xml:space="preserve"
         style="font-style:normal;font-weight:normal;font-size:398.53747559px;line-height:1.25;font-family:sans-serif;letter-spacing:0px;word-spacing:0px;fill:#ff00cc;fill-opacity:1;stroke:#ff6aff;stroke-width:10;stroke-miterlimit:4;stroke-dasharray:none;stroke-opacity:1"
         x="677.41064"
         y="826.20398"
         id="text829"><tspan
           sodipodi:role="line"
           x="677.41064"
           y="826.20398"
           style="font-style:normal;font-variant:normal;font-weight:normal;font-stretch:normal;font-family:Magneto;-inkscape-font-specification:Magneto;fill:#ff00cc;stroke:#ff6aff;stroke-width:10;stroke-miterlimit:4;stroke-dasharray:none;stroke-opacity:1"
           id="tspan827">Cark</tspan></text>
      <text
         id="text833"
         y="958.34094"
         x="140.07585"
         style="font-style:normal;font-weight:normal;font-size:97.65617371px;line-height:1.25;font-family:sans-serif;letter-spacing:0px;word-spacing:0px;fill:#7f2aff;fill-opacity:1;stroke:#00f8ff;stroke-width:5;stroke-miterlimit:4;stroke-dasharray:none;stroke-opacity:1"
         xml:space="preserve"><tspan
           style="font-style:normal;font-variant:normal;font-weight:normal;font-stretch:normal;font-family:Magneto;-inkscape-font-specification:Magneto;fill:#7f2aff;stroke:#00f8ff;stroke-width:5;stroke-miterlimit:4;stroke-dasharray:none;stroke-opacity:1"
           y="958.34094"
           x="140.07585"
           id="tspan831"
           sodipodi:role="line">The Free and Open Source guy</tspan></text>
      <text
         xml:space="preserve"
         style="font-style:normal;font-weight:normal;font-size:78.17193604px;line-height:1.25;font-family:sans-serif;letter-spacing:0px;word-spacing:0px;fill:#0000ff;fill-opacity:1;stroke:#00f8ff;stroke-width:4.00240612;stroke-miterlimit:4;stroke-dasharray:none;stroke-opacity:1"
         x="142.07755"
         y="1054.467"
         id="text837"><tspan
           sodipodi:role="line"
           id="tspan835"
           x="142.07755"
           y="1054.467"
           style="font-style:normal;font-variant:normal;font-weight:normal;font-stretch:normal;font-family:Magneto;-inkscape-font-specification:Magneto;fill:#0000ff;stroke:#00f8ff;stroke-width:4.00240612;stroke-miterlimit:4;stroke-dasharray:none;stroke-opacity:1">Free as in beer, Free as in Freedom!</tspan></text>
      <text
         id="text841"
         y="511.24997"
         x="220"
         style="font-style:normal;font-weight:normal;font-size:40px;line-height:1.25;font-family:sans-serif;letter-spacing:0px;word-spacing:0px;fill:#000000;fill-opacity:1;stroke:#0000ff;stroke-opacity:1"
         xml:space="preserve"><tspan
           style="font-style:normal;font-variant:normal;font-weight:normal;font-stretch:normal;font-family:Magneto;-inkscape-font-specification:Magneto;fill:#3e3748;stroke:#0000ff;stroke-opacity:1"
           y="511.24997"
           x="220"
           id="tspan839"
           sodipodi:role="line">u got that? font is magneto, if you'd ask.</tspan></text>
      <text
         transform="rotate(17.087277)"
         id="text845"
         y="-257.20102"
         x="1629.5597"
         style="font-style:normal;font-weight:normal;font-size:76.99449158px;line-height:1.25;font-family:sans-serif;letter-spacing:0px;word-spacing:0px;fill:#000000;fill-opacity:1;stroke:#007018;stroke-width:1.92486238;stroke-opacity:1"
         xml:space="preserve"><tspan
           style="font-style:normal;font-variant:normal;font-weight:normal;font-stretch:normal;font-family:Magneto;-inkscape-font-specification:Magneto;text-align:center;text-anchor:middle;fill:#ff0066;stroke:#007018;stroke-width:1.92486238;stroke-opacity:1"
           y="-257.20102"
           x="1629.5597"
           id="tspan843"
           sodipodi:role="line">SO</tspan><tspan
           id="tspan849"
           style="font-style:normal;font-variant:normal;font-weight:normal;font-stretch:normal;font-family:Magneto;-inkscape-font-specification:Magneto;text-align:center;text-anchor:middle;fill:#ff0066;stroke:#007018;stroke-width:1.92486238;stroke-opacity:1"
           y="-160.9579"
           x="1629.5597"
           sodipodi:role="line" /><tspan
           style="font-style:normal;font-variant:normal;font-weight:normal;font-stretch:normal;font-family:Magneto;-inkscape-font-specification:Magneto;text-align:center;text-anchor:middle;fill:#ff0066;stroke:#007018;stroke-width:1.92486238;stroke-opacity:1"
           id="tspan847"
           y="-63.942307"
           x="1629.5597"
           sodipodi:role="line">COOL</tspan></text>
      <g
         transform="rotate(17.558158,1536.4853,-1569.4424)"
         id="g887">
        <path
           style="fill:#ff0066;fill-opacity:1;stroke:#00fc00;stroke-width:10;stroke-linecap:butt;stroke-linejoin:miter;stroke-miterlimit:4;stroke-dasharray:none;stroke-opacity:1"
           d="m 2050,141.24998 h 250 c 0,0 -5,100 -50,100 -45,0 -50,-90 -50,-90 h -50 c 0,0 0,90 -50,90 -50,0 -50,-100 -50,-100 z"
           id="path853"
           inkscape:connector-curvature="0" />
        <g
           id="g877">
          <g
             id="g865">
            <ellipse
               style="fill:#ff0066;fill-opacity:1;stroke:none;stroke-width:10;stroke-miterlimit:4;stroke-dasharray:none;stroke-dashoffset:25;stroke-opacity:1"
               id="path859"
               cx="2165"
               cy="176.24998"
               rx="5"
               ry="10" />
            <path
               style="fill:none;stroke:#ffff00;stroke-width:1px;stroke-linecap:butt;stroke-linejoin:miter;stroke-opacity:1"
               d="m 2155,156.24998 10,20"
               id="path855"
               inkscape:connector-curvature="0" />
          </g>
          <g
             id="g869">
            <ellipse
               ry="10"
               rx="5"
               cy="176.24998"
               cx="2185"
               id="ellipse861"
               style="fill:#ff0066;fill-opacity:1;stroke:none;stroke-width:10;stroke-miterlimit:4;stroke-dasharray:none;stroke-dashoffset:25;stroke-opacity:1" />
            <path
               style="fill:none;stroke:#ffff00;stroke-width:1px;stroke-linecap:butt;stroke-linejoin:miter;stroke-opacity:1"
               d="m 2195,156.24998 -10,20"
               id="path857"
               inkscape:connector-curvature="0" />
          </g>
        </g>
      </g>
      <g
         transform="translate(882.2075,-8.2345598)"
         id="g908">
        <text
           xml:space="preserve"
           style="font-style:normal;font-weight:normal;font-size:63.03952789px;line-height:1.25;font-family:sans-serif;letter-spacing:0px;word-spacing:0px;fill:#000000;fill-opacity:1;stroke:none;stroke-width:1.57598817;stroke-miterlimit:4;stroke-dasharray:none"
           x="-646.68756"
           y="490.21271"
           id="text891"
           transform="rotate(-17.445402)"><tspan
             sodipodi:role="line"
             id="tspan889"
             x="-646.68756"
             y="490.21271"
             style="font-style:normal;font-variant:normal;font-weight:normal;font-stretch:normal;font-family:Magneto;-inkscape-font-specification:Magneto;text-align:center;text-anchor:middle;fill:#00ffcc;stroke:#ff0000;stroke-width:1.57598817;stroke-miterlimit:4;stroke-dasharray:none;stroke-opacity:1">FAMOUS</tspan><tspan
             sodipodi:role="line"
             x="-646.68756"
             y="569.01215"
             id="tspan893"
             style="font-style:normal;font-variant:normal;font-weight:normal;font-stretch:normal;font-family:Magneto;-inkscape-font-specification:Magneto;text-align:center;text-anchor:middle;fill:#00ffcc;stroke:#ff0000;stroke-width:1.57598817;stroke-miterlimit:4;stroke-dasharray:none;stroke-opacity:1" /><tspan
             sodipodi:role="line"
             x="-646.68756"
             y="648.44403"
             id="tspan895"
             style="font-style:normal;font-variant:normal;font-weight:normal;font-stretch:normal;font-family:Magneto;-inkscape-font-specification:Magneto;text-align:center;text-anchor:middle;fill:#00ffcc;stroke:#ff0000;stroke-width:1.57598817;stroke-miterlimit:4;stroke-dasharray:none;stroke-opacity:1">HATS</tspan></text>
        <circle
           style="fill:#00ffcc;fill-opacity:1;stroke:#ff0000;stroke-width:1;stroke-miterlimit:4;stroke-dasharray:none;stroke-dashoffset:25;stroke-opacity:1"
           id="path901"
           cx="-450"
           cy="721.25"
           r="40" />
      </g>
    </g>
  </g>
  <g
     inkscape:groupmode="layer"
     id="layer2"
     inkscape:label="Terainning"
     style="display:none">
    <g
       id="g1007"
       inkscape:export-filename="C:\Users\ASUS\Documents\starring codes\Unity Projects\CorruptedSet\NEWset\Geogon_Polymetry_Havent_Done_Yet\Assets\Sprites\Thumnail\TerainingScene.png"
       inkscape:export-xdpi="96"
       inkscape:export-ydpi="96">
      <rect
         y="0"
         x="0"
         height="1080"
         width="1920"
         id="rect943"
         style="fill:url(#linearGradient951);fill-opacity:1;stroke:#ff0000;stroke-width:1;stroke-miterlimit:4;stroke-dasharray:none;stroke-dashoffset:25;stroke-opacity:1" />
      <text
         id="text955"
         y="277.79025"
         x="938.0155"
         style="font-style:normal;font-weight:normal;font-size:325.13153076px;line-height:1.25;font-family:sans-serif;text-align:center;letter-spacing:0px;word-spacing:0px;text-anchor:middle;fill:#000000;fill-opacity:1;stroke:#000052;stroke-width:5;stroke-miterlimit:4;stroke-dasharray:none;stroke-opacity:1"
         xml:space="preserve"><tspan
           style="font-style:normal;font-variant:normal;font-weight:normal;font-stretch:normal;font-family:'Times New Roman';-inkscape-font-specification:'Times New Roman, ';fill:#000000;fill-opacity:1;stroke:#000052;stroke-width:5;stroke-miterlimit:4;stroke-dasharray:none;stroke-opacity:1"
           y="277.79025"
           x="938.0155"
           id="tspan953"
           sodipodi:role="line">Teraining</tspan></text>
      <path
         sodipodi:nodetypes="csccsscscsscc"
         inkscape:connector-curvature="0"
         id="path957"
         d="m 100,980 c 0,0 0,-500 200,-500 200,0 200,450 200,450 h 280 c 0,0 20,-310 70,-310 28.45141,0 -13.57352,189.9872 75.72908,189.99378 C 1010,810 1005,915 1005,915 c 0,0 34.5816,-1.36549 74.5816,-1.36549 40,0 70.4184,1.36549 70.4184,1.36549 0,0 -10,-395 150,-395 160,0 120,-100 260,-100 140,0 240,560 240,560 z"
         style="fill:#009500;fill-opacity:1;stroke:#003200;stroke-width:1px;stroke-linecap:butt;stroke-linejoin:miter;stroke-opacity:1" />
      <circle
         r="60"
         cy="860"
         cx="650"
         id="path959"
         style="fill:#ffff00;fill-opacity:1;stroke:#ff9f00;stroke-width:5;stroke-miterlimit:4;stroke-dasharray:none;stroke-dashoffset:25;stroke-opacity:1" />
      <path
         inkscape:connector-curvature="0"
         id="path961"
         d="m 1080,810 a 25,25 0 0 0 -25,25 v 50 a 25,25 0 0 0 25,25 25,25 0 0 0 25,-25 v -50 a 25,25 0 0 0 -25,-25 z"
         style="fill:#00ff00;fill-opacity:1;stroke:#ff0000;stroke-width:5;stroke-miterlimit:4;stroke-dasharray:none;stroke-dashoffset:25;stroke-opacity:1" />
      <rect
         y="730"
         x="900"
         height="50"
         width="50"
         id="rect969"
         style="fill:#00a800;fill-opacity:0.55491327;stroke:#ffff00;stroke-width:5;stroke-miterlimit:4;stroke-dasharray:none;stroke-dashoffset:25;stroke-opacity:1" />
      <text
         id="text973"
         y="333.61328"
         x="920.08789"
         style="font-style:normal;font-weight:normal;font-size:40px;line-height:1.25;font-family:sans-serif;text-align:center;letter-spacing:0px;word-spacing:0px;text-anchor:middle;fill:#000000;fill-opacity:1;stroke:none"
         xml:space="preserve"><tspan
           style="font-style:normal;font-variant:normal;font-weight:normal;font-stretch:normal;font-family:'Times New Roman';-inkscape-font-specification:'Times New Roman, '"
           y="333.61328"
           x="920.08789"
           id="tspan971"
           sodipodi:role="line">Too basic level to test too basic stuffs</tspan></text>
      <text
         xml:space="preserve"
         style="font-style:normal;font-weight:normal;font-size:32.86653137px;line-height:1.25;font-family:sans-serif;text-align:center;letter-spacing:0px;word-spacing:0px;text-anchor:middle;fill:#000000;fill-opacity:1;stroke:none;stroke-width:0.82166326"
         x="959.5426"
         y="382.8204"
         id="text977"><tspan
           sodipodi:role="line"
           id="tspan975"
           x="959.5426"
           y="382.8204"
           style="font-style:normal;font-variant:normal;font-weight:normal;font-stretch:normal;font-family:'Times New Roman';-inkscape-font-specification:'Times New Roman, ';stroke-width:0.82166326">So outdated and as boring as Times New Roman rule applied in schools and offices</tspan></text>
      <circle
         r="22.5"
         cy="1030"
         cx="1230"
         id="path983"
         style="fill:url(#radialGradient991);fill-opacity:1;stroke:none;stroke-width:5;stroke-miterlimit:4;stroke-dasharray:none;stroke-dashoffset:25;stroke-opacity:1" />
      <text
         id="text981"
         y="1039.5801"
         x="912.67578"
         style="font-style:normal;font-weight:normal;font-size:40px;line-height:1.25;font-family:sans-serif;text-align:center;letter-spacing:0px;word-spacing:0px;text-anchor:middle;fill:#000000;fill-opacity:1;stroke:none"
         xml:space="preserve"><tspan
           style="font-style:normal;font-variant:normal;font-weight:normal;font-stretch:normal;font-family:'Times New Roman';-inkscape-font-specification:'Times New Roman, '"
           y="1039.5801"
           x="912.67578"
           id="tspan979"
           sodipodi:role="line">Coines, Helths, ENemies, jump, attacs, h</tspan></text>
    </g>
  </g>
</svg>
