# Blender MTL File: 'MemeFailImpact.blend'
# Material Count: 6

newmtl Material
Ns 323.999994
Ka 1.000000 1.000000 1.000000
Kd 0.800000 0.800000 0.800000
Ks 0.500000 0.500000 0.500000
Ke 0.0 0.0 0.0
Ni 1.450000
d 1.000000
illum 2

newmtl Material.001
Ns 900.000000
Ka 1.000000 1.000000 1.000000
Kd 0.000000 0.000372 0.800000
Ks 1.000000 1.000000 1.000000
Ke 0.0 0.0 0.0
Ni 1.450000
d 1.000000
illum 2

newmtl Material.002
Ns 900.000000
Ka 1.000000 1.000000 1.000000
Kd 0.800000 0.800000 0.800000
Ks 1.000000 1.000000 1.000000
Ke 0.0 0.0 0.0
Ni 50.000000
d 1.000000
illum 2

newmtl Material.003
Ns 900.000000
Ka 1.000000 1.000000 1.000000
Kd 1.000000 0.000372 0.000000
Ks 1.000000 1.000000 1.000000
Ke 0.0 0.0 0.0
Ni 50.000000
d 1.000000
illum 2

newmtl Material.004
Ns 900.000000
Ka 1.000000 1.000000 1.000000
Kd 0.000000 0.000372 1.000000
Ks 1.000000 1.000000 1.000000
Ke 0.0 0.0 0.0
Ni 50.000000
d 1.000000
illum 2

newmtl Material.005
Ns 900.000000
Ka 1.000000 1.000000 1.000000
Kd 0.004020 1.000000 0.000000
Ks 1.000000 1.000000 1.000000
Ke 0.0 0.0 0.0
Ni 50.000000
d 1.000000
illum 2
