<?xml version="1.0" encoding="UTF-8" standalone="no"?>
<svg
   xmlns:dc="http://purl.org/dc/elements/1.1/"
   xmlns:cc="http://creativecommons.org/ns#"
   xmlns:rdf="http://www.w3.org/1999/02/22-rdf-syntax-ns#"
   xmlns:svg="http://www.w3.org/2000/svg"
   xmlns="http://www.w3.org/2000/svg"
   xmlns:sodipodi="http://sodipodi.sourceforge.net/DTD/sodipodi-0.dtd"
   xmlns:inkscape="http://www.inkscape.org/namespaces/inkscape"
   inkscape:export-ydpi="96"
   inkscape:export-xdpi="96"
   inkscape:export-filename="C:\Users\joelr\Documents\starring codes\After Church\RAW files\Inkscape\Week Strong\09-dont-sit.png"
   width="1080"
   height="1920"
   viewBox="0 0 1080 1920"
   version="1.1"
   id="svg2188"
   inkscape:version="1.0 (4035a4fb49, 2020-05-01)"
   sodipodi:docname="09-dont-sit.svg">
  <defs
     id="defs2182" />
  <sodipodi:namedview
     id="base"
     pagecolor="#ffffff"
     bordercolor="#666666"
     borderopacity="1.0"
     inkscape:pageopacity="0.0"
     inkscape:pageshadow="2"
     inkscape:zoom="0.35"
     inkscape:cx="170.20271"
     inkscape:cy="827.47242"
     inkscape:document-units="px"
     inkscape:current-layer="layer1"
     inkscape:document-rotation="0"
     showgrid="true"
     units="px"
     inkscape:window-width="1920"
     inkscape:window-height="1051"
     inkscape:window-x="-9"
     inkscape:window-y="-9"
     inkscape:window-maximized="1"
     inkscape:snap-bbox="true"
     inkscape:bbox-paths="true"
     inkscape:bbox-nodes="true"
     inkscape:snap-bbox-edge-midpoints="true"
     inkscape:snap-bbox-midpoints="true">
    <inkscape:grid
       type="xygrid"
       id="grid2760" />
  </sodipodi:namedview>
  <metadata
     id="metadata2185">
    <rdf:RDF>
      <cc:Work
         rdf:about="">
        <dc:format>image/svg+xml</dc:format>
        <dc:type
           rdf:resource="http://purl.org/dc/dcmitype/StillImage" />
        <dc:title></dc:title>
        <cc:license
           rdf:resource="http://creativecommons.org/licenses/by-sa/4.0/" />
      </cc:Work>
      <cc:License
         rdf:about="http://creativecommons.org/licenses/by-sa/4.0/">
        <cc:permits
           rdf:resource="http://creativecommons.org/ns#Reproduction" />
        <cc:permits
           rdf:resource="http://creativecommons.org/ns#Distribution" />
        <cc:requires
           rdf:resource="http://creativecommons.org/ns#Notice" />
        <cc:requires
           rdf:resource="http://creativecommons.org/ns#Attribution" />
        <cc:permits
           rdf:resource="http://creativecommons.org/ns#DerivativeWorks" />
        <cc:requires
           rdf:resource="http://creativecommons.org/ns#ShareAlike" />
      </cc:License>
    </rdf:RDF>
  </metadata>
  <g
     inkscape:label="Lapis 1"
     inkscape:groupmode="layer"
     id="layer1">
    <path
       style="fill:#e6e4ed;stroke:#000000;stroke-width:10;stroke-linecap:butt;stroke-linejoin:miter;stroke-opacity:1;fill-opacity:1;stroke-miterlimit:4;stroke-dasharray:none"
       d="m 1020,1020 c 0,0 -80,480 -400,480 -320,0 -380,-460 -380,-460 z"
       id="path2764" />
    <rect
       style="fill:#e6e4ed;stroke:#000000;stroke-width:37.7953;stroke-linecap:round;stroke-linejoin:round;stroke-dashoffset:9.44882"
       id="rect2762"
       width="500"
       height="340"
       x="840"
       y="1020"
       ry="0" />
    <path
       id="path2766"
       d="m -219.99995,1220 c 0,0 80,-480 400,-480 320,0 379.99995,460 379.99995,460 z"
       style="fill:#00ffff;fill-opacity:1;stroke:#0000ff;stroke-width:10;stroke-linecap:butt;stroke-linejoin:miter;stroke-miterlimit:4;stroke-dasharray:20, 10;stroke-opacity:1;stroke-dashoffset:0" />
    <text
       xml:space="preserve"
       style="font-style:italic;font-size:42.6667px;line-height:1.25;font-family:Ubuntu;-inkscape-font-specification:'Ubuntu Italic';letter-spacing:0px;word-spacing:0px"
       x="392.85715"
       y="1280"
       id="text2770"><tspan
         sodipodi:role="line"
         id="tspan2768"
         x="392.85715"
         y="1280">by JOELwindows7</tspan><tspan
         sodipodi:role="line"
         x="392.85715"
         y="1333.3334"
         id="tspan2772">Perkedel Technologies</tspan><tspan
         sodipodi:role="line"
         x="392.85715"
         y="1386.6667"
         id="tspan2774">CC4.0-BY-SA</tspan></text>
    <text
       xml:space="preserve"
       style="font-style:italic;font-size:42.6667px;line-height:1.25;font-family:Ubuntu;-inkscape-font-specification:'Ubuntu Italic';letter-spacing:0px;word-spacing:0px"
       x="28.307604"
       y="-208.02145"
       id="text2778"><tspan
         sodipodi:role="line"
         id="tspan2776"
         x="28.307604"
         y="-208.02145">if you decided to sit, then you'll sit there for good</tspan><tspan
         sodipodi:role="line"
         x="28.307604"
         y="-154.68808"
         id="tspan2780">Wake up. I know days is hard.</tspan><tspan
         sodipodi:role="line"
         x="28.307604"
         y="-101.35471"
         id="tspan2782">don't let yourself rot by time with all good things undone</tspan><tspan
         sodipodi:role="line"
         x="28.307604"
         y="-48.021339"
         id="tspan2784">awake, redo your good, not only new</tspan></text>
  </g>
</svg>
