<?xml version="1.0" encoding="UTF-8" standalone="no"?>
<svg
   xmlns:dc="http://purl.org/dc/elements/1.1/"
   xmlns:cc="http://creativecommons.org/ns#"
   xmlns:rdf="http://www.w3.org/1999/02/22-rdf-syntax-ns#"
   xmlns:svg="http://www.w3.org/2000/svg"
   xmlns="http://www.w3.org/2000/svg"
   xmlns:xlink="http://www.w3.org/1999/xlink"
   xmlns:sodipodi="http://sodipodi.sourceforge.net/DTD/sodipodi-0.dtd"
   xmlns:inkscape="http://www.inkscape.org/namespaces/inkscape"
   width="1080"
   height="1920"
   viewBox="0 0 1080 1920"
   version="1.1"
   id="svg2910"
   inkscape:version="1.0 (4035a4fb49, 2020-05-01)"
   sodipodi:docname="Force-Majeure_Mockup.svg"
   inkscape:export-filename="C:\Users\joelr\Documents\starring codes\After Church\RAW files\Inkscape\Week Strong\Force-Majeure_Mockup-lit.png"
   inkscape:export-xdpi="96"
   inkscape:export-ydpi="96">
  <defs
     id="defs2904">
    <rect
       x="40"
       y="380"
       width="1000"
       height="1280"
       id="rect99003" />
    <symbol
       id="system-restart">
      <title
         id="title19266">system-restart</title>
      <g
         id="g4115">
        <rect
           style="color:#000000;display:inline;overflow:visible;visibility:visible;fill:none;stroke:none;stroke-width:7.5;marker:none;enable-background:accumulate"
           id="rect4198-7-7"
           width="90"
           height="90"
           x="-67.857147"
           y="84.505035" />
        <path
           style="color:#000000;display:inline;overflow:visible;visibility:visible;fill:#808080;fill-opacity:1;fill-rule:nonzero;stroke:none;stroke-width:3;marker:none;enable-background:accumulate"
           d="m -10.81368,119.38699 c 0,0 12.4590296,6.93737 25.898068,11.0529 0.0016,-0.001 0.0032,-0.002 0.0034,-0.009 0.0016,-0.001 0.0018,-0.008 0.0037,-0.01 0.0016,-0.001 0.0018,-0.008 0.0037,-0.01 0.0016,-0.001 0.0018,-0.008 0.0042,-0.009 -0.672474,-14.70223 -4.003569,-27.83169 -4.003569,-27.83169 z"
           id="path2194-3-3" />
        <rect
           style="color:#000000;display:inline;overflow:visible;visibility:visible;fill:none;stroke:none;stroke-width:6;marker:none;enable-background:accumulate"
           id="rect3049-2"
           width="90"
           height="90"
           x="-22.142853"
           y="84.505051"
           transform="scale(-1,1)" />
        <path
           style="color:#000000;display:inline;overflow:visible;visibility:visible;fill:none;stroke:#808080;stroke-width:6.00000048;stroke-linecap:butt;stroke-linejoin:round;stroke-miterlimit:4;stroke-dasharray:none;stroke-dashoffset:0;stroke-opacity:1;marker:none;enable-background:accumulate"
           id="path4145-8"
           d="M 150.71824,1.6439379 A 29.999996,29.999996 0 0 1 156.83095,35.238348 29.999996,29.999996 0 0 1 127.54294,52.792904 29.999996,29.999996 0 0 1 100.79683,31.565679 29.999996,29.999996 0 0 1 111.24219,-0.9434574"
           transform="matrix(0,1,-1,0,0,0)" />
      </g>
    </symbol>
    <symbol
       id="system-shutdown">
      <title
         id="title19268">system-shutdown</title>
      <g
         id="g4139">
        <rect
           y="84.50502"
           x="-67.857147"
           height="90"
           width="90"
           id="rect4198-4-6"
           style="color:#000000;display:inline;overflow:visible;visibility:visible;fill:none;stroke:none;stroke-width:7.5;marker:none;enable-background:accumulate" />
        <rect
           transform="scale(-1,1)"
           y="84.505028"
           x="-22.142853"
           height="90"
           width="90"
           id="rect3049-3-4"
           style="color:#000000;display:inline;overflow:visible;visibility:visible;fill:none;stroke:none;stroke-width:6;marker:none;enable-background:accumulate" />
        <path
           id="rect4747-4-9"
           d="m -25.857146,91.50504 6,-1.000018 0,33.000008 -6.000014,0 z"
           style="color:#000000;display:inline;overflow:visible;visibility:visible;fill:#808080;fill-opacity:1;stroke:none;stroke-width:9;marker:none;enable-background:accumulate" />
        <path
           style="color:#000000;display:inline;overflow:visible;visibility:visible;fill:none;stroke:#808080;stroke-width:6.00000048;stroke-linecap:butt;stroke-linejoin:round;stroke-miterlimit:4;stroke-dasharray:none;stroke-dashoffset:0;stroke-opacity:1;marker:none;enable-background:accumulate"
           id="path4145-6"
           d="m -7.8571461,103.52428 a 29.999996,29.999996 0 0 1 13.9777716,33.74533 29.999996,29.999996 0 0 1 -28.9777715,22.23542 29.999996,29.999996 0 0 1 -28.97777,-22.23542 29.999996,29.999996 0 0 1 13.977772,-33.74533" />
      </g>
    </symbol>
    <symbol
       id="icon-disc">
      <title
         id="title79441">disc</title>
      <path
         id="path79443"
         d="M16 9.931c-3.356 0-6.075 2.719-6.075 6.075s2.719 6.069 6.075 6.069c3.356 0 6.075-2.719 6.075-6.069 0-3.356-2.719-6.075-6.075-6.075zM16 18.719c-1.5 0-2.719-1.219-2.719-2.719s1.219-2.719 2.719-2.719c1.5 0 2.719 1.219 2.719 2.719s-1.219 2.719-2.719 2.719z" />
      <path
         id="path79445"
         d="M16 2c-7.731 0-14 6.269-14 14s6.269 14 14 14 14-6.269 14-14c0-7.731-6.269-14-14-14zM16 23.675c-4.238 0-7.675-3.438-7.675-7.675s3.438-7.675 7.675-7.675c4.238 0 7.675 3.438 7.675 7.675s-3.438 7.675-7.675 7.675z" />
    </symbol>
  </defs>
  <sodipodi:namedview
     id="base"
     pagecolor="#ffffff"
     bordercolor="#666666"
     borderopacity="1.0"
     inkscape:pageopacity="0.0"
     inkscape:pageshadow="2"
     inkscape:zoom="0.49497475"
     inkscape:cx="415.84516"
     inkscape:cy="1051.9531"
     inkscape:document-units="px"
     inkscape:current-layer="layer1"
     inkscape:document-rotation="0"
     showgrid="true"
     units="px"
     inkscape:window-width="1920"
     inkscape:window-height="1051"
     inkscape:window-x="-9"
     inkscape:window-y="-9"
     inkscape:window-maximized="1"
     inkscape:snap-bbox="true"
     inkscape:bbox-paths="true"
     inkscape:bbox-nodes="true"
     inkscape:snap-bbox-edge-midpoints="true"
     inkscape:snap-bbox-midpoints="true"
     inkscape:snap-global="true"
     showguides="false">
    <inkscape:grid
       type="xygrid"
       id="grid3482" />
  </sodipodi:namedview>
  <metadata
     id="metadata2907">
    <rdf:RDF>
      <cc:Work
         rdf:about="">
        <dc:format>image/svg+xml</dc:format>
        <dc:type
           rdf:resource="http://purl.org/dc/dcmitype/StillImage" />
        <dc:title></dc:title>
        <cc:license
           rdf:resource="http://creativecommons.org/licenses/by-sa/4.0/" />
      </cc:Work>
      <cc:License
         rdf:about="http://creativecommons.org/licenses/by-sa/4.0/">
        <cc:permits
           rdf:resource="http://creativecommons.org/ns#Reproduction" />
        <cc:permits
           rdf:resource="http://creativecommons.org/ns#Distribution" />
        <cc:requires
           rdf:resource="http://creativecommons.org/ns#Notice" />
        <cc:requires
           rdf:resource="http://creativecommons.org/ns#Attribution" />
        <cc:permits
           rdf:resource="http://creativecommons.org/ns#DerivativeWorks" />
        <cc:requires
           rdf:resource="http://creativecommons.org/ns#ShareAlike" />
      </cc:License>
    </rdf:RDF>
  </metadata>
  <g
     sodipodi:insensitive="true"
     inkscape:label="main"
     inkscape:groupmode="layer"
     id="layer1">
    <rect
       style="fill:#000000;fill-opacity:0.65;stroke:none;stroke-width:5;stroke-linecap:round;stroke-linejoin:round;paint-order:stroke fill markers"
       id="rect3484"
       width="1080"
       height="1920"
       x="0"
       y="0"
       ry="0" />
    <g
       id="g3498"
       style="fill:#ffffff;fill-opacity:0.65"
       transform="translate(-21.220775)">
      <path
         id="path3492"
         d="m 3,-7 c 0,0 1,-1 4,-1 0,0 1,0 0,1 -1,1 -4,0 -4,0 z"
         style="fill:#ffffff;fill-opacity:0.65;stroke:#000000;stroke-width:0.25;stroke-linecap:round;stroke-linejoin:round;stroke-miterlimit:4;stroke-dasharray:none;stroke-opacity:1" />
      <path
         sodipodi:nodetypes="cc"
         id="path3494"
         d="m 3,-7 c 0,0 3.09375,-0.7232143 4.2098214,-0.4107144"
         style="fill:#ffffff;fill-opacity:0.65;stroke:#000000;stroke-width:0.25;stroke-linecap:round;stroke-linejoin:round;stroke-miterlimit:4;stroke-dasharray:none;stroke-opacity:1" />
    </g>
    <g
       id="g3606">
      <g
         id="g3591">
        <rect
           style="fill:#ffdc4d;fill-opacity:1;stroke:#ff5006;stroke-width:1.91667;stroke-linecap:round;stroke-linejoin:round;stroke-miterlimit:4;stroke-dasharray:none;stroke-opacity:1;paint-order:normal"
           id="rect3486"
           width="38.333336"
           height="38.333336"
           x="0.70833331"
           y="-44.041668"
           ry="7.666667" />
      </g>
      <g
         id="g3588">
        <g
           id="g3576">
          <g
             id="g3568">
            <path
               sodipodi:nodetypes="ccccc"
               id="path3524"
               d="m 32,-36 v 29 h -5 v -26 c 0,0 1,-2 5,-3 z"
               style="fill:#00ffff;fill-opacity:0.65;stroke:none;stroke-width:1px;stroke-linecap:butt;stroke-linejoin:miter;stroke-opacity:1" />
            <path
               style="fill:#00ffff;fill-opacity:0.65;stroke:none;stroke-width:1px;stroke-linecap:butt;stroke-linejoin:miter;stroke-opacity:1"
               d="m 7,-36 v 29 h 5 v -26 c 0,0 -1,-2 -5,-3 z"
               id="path3518"
               sodipodi:nodetypes="ccccc" />
          </g>
          <g
             transform="matrix(3.8333334,0,0,3.8333334,0.70833332,13.458334)"
             id="g3502">
            <path
               style="fill:none;stroke:#000000;stroke-width:0.5;stroke-linecap:round;stroke-linejoin:round;stroke-miterlimit:4;stroke-dasharray:none;stroke-opacity:1"
               d="m 1,-13 c 0,0 2,0 3,2"
               id="path3488" />
            <path
               style="fill:none;stroke:#000000;stroke-width:0.5;stroke-linecap:round;stroke-linejoin:round;stroke-miterlimit:4;stroke-dasharray:none;stroke-opacity:1"
               d="m 9,-13 c 0,0 -2,0 -3,2"
               id="path3490" />
          </g>
        </g>
        <g
           id="g3516">
          <path
             sodipodi:nodetypes="cc"
             id="path3510"
             d="m 30,-19 c -10,-4 -20,4 -20,4 0,0 14,-2 18,2 0,0 7,0 2,-6 z"
             style="fill:#ffffff;fill-opacity:1;stroke:#000000;stroke-width:1px;stroke-linecap:round;stroke-linejoin:round;stroke-opacity:1" />
          <path
             id="path3512"
             d="m 10,-15 c 0,0 15,-4 22,-1"
             style="fill:none;stroke:#000000;stroke-width:1px;stroke-linecap:round;stroke-linejoin:round;stroke-opacity:1" />
        </g>
      </g>
    </g>
    <g
       id="g3634"
       transform="matrix(5.8374733,0,0,5.8374733,6.5010431,267.72798)">
      <g
         id="g3610">
        <rect
           ry="7.666667"
           y="-44.041668"
           x="0.70833331"
           height="38.333336"
           width="38.333336"
           id="rect3608"
           style="fill:#ffdc4d;fill-opacity:1;stroke:#ff5006;stroke-width:1.91667;stroke-linecap:round;stroke-linejoin:round;stroke-miterlimit:4;stroke-dasharray:none;stroke-opacity:1;paint-order:normal" />
      </g>
      <g
         id="g3632">
        <g
           id="g3624">
          <g
             id="g3616">
            <path
               style="fill:#00ffff;fill-opacity:0.65;stroke:none;stroke-width:1px;stroke-linecap:butt;stroke-linejoin:miter;stroke-opacity:1"
               d="m 32,-36 v 29 h -5 v -26 c 0,0 1,-2 5,-3 z"
               id="path3612"
               sodipodi:nodetypes="ccccc" />
            <path
               sodipodi:nodetypes="ccccc"
               id="path3614"
               d="m 7,-36 v 29 h 5 v -26 c 0,0 -1,-2 -5,-3 z"
               style="fill:#00ffff;fill-opacity:0.65;stroke:none;stroke-width:1px;stroke-linecap:butt;stroke-linejoin:miter;stroke-opacity:1" />
          </g>
          <g
             id="g3622"
             transform="matrix(3.8333334,0,0,3.8333334,0.70833332,13.458334)">
            <path
               id="path3618"
               d="m 1,-13 c 0,0 2,0 3,2"
               style="fill:none;stroke:#000000;stroke-width:0.5;stroke-linecap:round;stroke-linejoin:round;stroke-miterlimit:4;stroke-dasharray:none;stroke-opacity:1" />
            <path
               id="path3620"
               d="m 9,-13 c 0,0 -2,0 -3,2"
               style="fill:none;stroke:#000000;stroke-width:0.5;stroke-linecap:round;stroke-linejoin:round;stroke-miterlimit:4;stroke-dasharray:none;stroke-opacity:1" />
          </g>
        </g>
        <g
           id="g3630">
          <path
             style="fill:#ffffff;fill-opacity:1;stroke:#000000;stroke-width:1px;stroke-linecap:round;stroke-linejoin:round;stroke-opacity:1"
             d="m 30,-19 c -10,-4 -20,4 -20,4 0,0 14,-2 18,2 0,0 7,0 2,-6 z"
             id="path3626"
             sodipodi:nodetypes="cc" />
          <path
             style="fill:none;stroke:#000000;stroke-width:1px;stroke-linecap:round;stroke-linejoin:round;stroke-opacity:1"
             d="m 10,-15 c 0,0 15,-4 22,-1"
             id="path3628" />
        </g>
      </g>
    </g>
    <text
       xml:space="preserve"
       style="font-weight:bold;font-size:126.432px;line-height:1.25;font-family:Ubuntu;-inkscape-font-specification:'Ubuntu Bold';letter-spacing:0px;word-spacing:0px;fill:#ffffff;stroke-width:0.658501"
       x="249.88544"
       y="176.7285"
       id="text3638"><tspan
         sodipodi:role="line"
         id="tspan3636"
         x="249.88544"
         y="176.7285"
         style="stroke-width:0.658501">Force Majeur</tspan></text>
    <rect
       style="fill:#000000;fill-opacity:0.8;stroke:none;stroke-width:0.313392;stroke-linecap:round;stroke-linejoin:round;stroke-miterlimit:4;stroke-dasharray:none;stroke-opacity:1;paint-order:normal"
       id="rect3640"
       width="1040"
       height="1320"
       x="20"
       y="360"
       ry="0" />
    <rect
       style="fill:#000000;fill-opacity:0.8;stroke:none;stroke-width:0.242956;stroke-linecap:round;stroke-linejoin:round;stroke-miterlimit:4;stroke-dasharray:none;stroke-opacity:1;paint-order:normal"
       id="rect3642"
       width="340"
       height="80"
       x="20"
       y="260" />
    <rect
       y="260"
       x="380"
       height="80"
       width="340"
       id="rect3644"
       style="fill:#000000;fill-opacity:0.8;stroke:none;stroke-width:0.242956;stroke-linecap:round;stroke-linejoin:round;stroke-miterlimit:4;stroke-dasharray:none;stroke-opacity:1;paint-order:normal" />
    <rect
       style="fill:#000000;fill-opacity:0.8;stroke:none;stroke-width:0.235702;stroke-linecap:round;stroke-linejoin:round;stroke-miterlimit:4;stroke-dasharray:none;stroke-opacity:1;paint-order:normal"
       id="rect3646"
       width="320"
       height="80"
       x="740"
       y="260" />
    <text
       xml:space="preserve"
       style="font-size:64px;line-height:1.25;font-family:Ubuntu;-inkscape-font-specification:Ubuntu;letter-spacing:0px;word-spacing:0px;fill:#ffffff;fill-opacity:1"
       x="40"
       y="320"
       id="text3650"><tspan
         sodipodi:role="line"
         id="tspan3648"
         x="40"
         y="320">Terminal</tspan></text>
    <text
       id="text3654"
       y="320"
       x="394.496"
       style="font-size:64px;line-height:1.25;font-family:Ubuntu;-inkscape-font-specification:Ubuntu;letter-spacing:0px;word-spacing:0px;fill:#ffffff;fill-opacity:1"
       xml:space="preserve"><tspan
         y="320"
         x="394.496"
         id="tspan3652"
         sodipodi:role="line">Dump files</tspan></text>
    <text
       xml:space="preserve"
       style="font-size:64px;line-height:1.25;font-family:Ubuntu;-inkscape-font-specification:Ubuntu;letter-spacing:0px;word-spacing:0px;fill:#ffffff;fill-opacity:1"
       x="754.49597"
       y="320"
       id="text3658"><tspan
         sodipodi:role="line"
         id="tspan3656"
         x="754.49597"
         y="320">Actions</tspan></text>
    <rect
       y="1780"
       x="20"
       height="120"
       width="340"
       id="rect3664"
       style="fill:#000000;fill-opacity:0.8;stroke:none;stroke-width:0.297559;stroke-linecap:round;stroke-linejoin:round;stroke-miterlimit:4;stroke-dasharray:none;stroke-opacity:1;paint-order:normal" />
    <rect
       style="fill:#000000;fill-opacity:0.8;stroke:none;stroke-width:0.297559;stroke-linecap:round;stroke-linejoin:round;stroke-miterlimit:4;stroke-dasharray:none;stroke-opacity:1;paint-order:normal"
       id="rect3666"
       width="340"
       height="120"
       x="380"
       y="1780" />
    <rect
       y="1780"
       x="740"
       height="120"
       width="320"
       id="rect3668"
       style="fill:#000000;fill-opacity:0.8;stroke:none;stroke-width:0.288675;stroke-linecap:round;stroke-linejoin:round;stroke-miterlimit:4;stroke-dasharray:none;stroke-opacity:1;paint-order:normal" />
    <rect
       style="fill:#000000;fill-opacity:1;stroke:none;stroke-width:0.261116;stroke-linecap:round;stroke-linejoin:round;stroke-miterlimit:4;stroke-dasharray:none;stroke-opacity:1;paint-order:normal"
       id="rect3670"
       width="60"
       height="60"
       x="20"
       y="1700" />
    <text
       xml:space="preserve"
       style="font-size:48px;line-height:1.25;font-family:Ubuntu;-inkscape-font-specification:Ubuntu;letter-spacing:0px;word-spacing:0px;fill:#ffffff;fill-opacity:1"
       x="100"
       y="1754.184"
       id="text3674"><tspan
         sodipodi:role="line"
         id="tspan3672"
         x="100"
         y="1754.184">Send Dump files to Van Elektronische</tspan></text>
    <use
       xlink:href="#system-restart"
       style="fill:#000000;stroke:none"
       id="use98793"
       x="0"
       y="0"
       width="100%"
       height="100%"
       transform="translate(91.643938,1709.2818)" />
    <use
       xlink:href="#system-shutdown"
       style="fill:#000000;stroke:none"
       id="use98841"
       x="0"
       y="0"
       width="100%"
       height="100%"
       transform="translate(460.85716,1711.495)" />
    <use
       xlink:href="#icon-disc"
       style="fill:#808080;stroke:none"
       id="use98971"
       x="0"
       y="0"
       width="100%"
       height="100%"
       transform="matrix(2.8571429,0,0,2.8571429,744.28571,1794.2857)" />
    <text
       xml:space="preserve"
       style="font-size:64px;line-height:1.25;font-family:Ubuntu;-inkscape-font-specification:Ubuntu;letter-spacing:0px;word-spacing:0px;fill:#ffffff"
       x="120"
       y="1870"
       id="text98989"><tspan
         sodipodi:role="line"
         id="tspan98987"
         x="120"
         y="1870">Restart</tspan></text>
    <text
       id="text98993"
       y="1870.2112"
       x="484.96057"
       style="font-size:49.9221px;line-height:1.25;font-family:Ubuntu;-inkscape-font-specification:Ubuntu;letter-spacing:0px;word-spacing:0px;fill:#ffffff;stroke-width:0.780033"
       xml:space="preserve"><tspan
         y="1870.2112"
         x="484.96057"
         id="tspan98991"
         sodipodi:role="line"
         style="fill:#ffffff;stroke-width:0.780033">Shutdown</tspan></text>
    <text
       id="text98997"
       y="1829.576"
       x="837.51196"
       style="font-size:42.8969px;line-height:1.25;font-family:Ubuntu;-inkscape-font-specification:Ubuntu;letter-spacing:0px;word-spacing:0px;fill:#ffffff;stroke-width:0.670264"
       xml:space="preserve"><tspan
         y="1829.576"
         x="837.51196"
         id="tspan98995"
         sodipodi:role="line"
         style="stroke-width:0.670264">Change </tspan><tspan
         y="1883.1971"
         x="837.51196"
         sodipodi:role="line"
         style="stroke-width:0.670264"
         id="tspan98999">Machine</tspan></text>
    <text
       xml:space="preserve"
       id="text99001"
       style="font-size:42.6667px;line-height:1.25;font-family:'Ubuntu Mono';-inkscape-font-specification:'Ubuntu Mono';letter-spacing:0px;word-spacing:0px;white-space:pre;shape-inside:url(#rect99003);fill:#00ff00;fill-opacity:1;"><tspan
         x="40"
         y="419.7949"><tspan
           style="font-size:42.6667px;fill:#ffffff;fill-opacity:1">Run the song now
</tspan></tspan><tspan
         x="40"
         y="473.12828"><tspan
           style="font-size:42.6667px;fill:#ffffff;fill-opacity:1">Attempt left
</tspan></tspan><tspan
         x="40"
         y="526.46165"><tspan
           style="font-size:42.6667px;fill:#ffffff;fill-opacity:1">Attempt right
</tspan></tspan><tspan
         x="40"
         y="579.79502"><tspan
           style="font-size:42.6667px;fill:#ffffff;fill-opacity:1">Attempt down
</tspan></tspan><tspan
         x="40"
         y="633.1284"><tspan
           style="font-size:42.6667px;fill:#ffffff;fill-opacity:1">Attempt up
</tspan></tspan><tspan
         x="40"
         y="686.46177"><tspan
           style="font-size:42.6667px;fill:#ffffff;fill-opacity:1">[</tspan><tspan
           style="font-size:42.6667px;fill:#ff0000">WARN</tspan><tspan
           style="font-size:42.6667px;fill:#ffffff;fill-opacity:1">] Low HP
</tspan></tspan><tspan
         x="40"
         y="739.79515"><tspan
           style="font-size:42.6667px;fill:#ffffff;fill-opacity:1">Attempt down
</tspan></tspan><tspan
         x="40"
         y="793.12852"><tspan
           style="font-size:42.6667px;fill:#ffffff;fill-opacity:1">[ERROR] 404 not found embarrassment_handler.so
</tspan></tspan><tspan
         x="40"
         y="846.46189"><tspan
           style="font-size:42.6667px;fill:#ffffff;fill-opacity:1">[ERROR] Werror! app return 1
</tspan></tspan><tspan
         x="40"
         y="899.79527"><tspan
           style="font-size:42.6667px;fill:#ffffff;fill-opacity:1">
</tspan></tspan><tspan
         x="40"
         y="953.12864"><tspan
           style="font-size:42.6667px;fill:#ffffff;fill-opacity:1">trace:
</tspan></tspan><tspan
         x="40"
         y="1006.462"><tspan
           style="font-size:42.6667px;fill:#ffffff;fill-opacity:1">- boyfriend.tscn: func _on_HP_zero()
</tspan></tspan><tspan
         x="40"
         y="1059.7954"><tspan
           style="font-size:42.6667px;fill:#ffffff;fill-opacity:1">- boyfriend.tscn: func break_bone()
</tspan></tspan><tspan
         x="40"
         y="1113.1288"><tspan
           style="font-size:42.6667px;fill:#ffffff;fill-opacity:1">- Singletoner.tscn: func execute_app()
</tspan></tspan><tspan
         x="40"
         y="1166.4621"><tspan
           style="font-size:42.6667px;fill:#ffffff;fill-opacity:1">
</tspan></tspan><tspan
         x="40"
         y="1219.7955"><tspan
           style="font-size:42.6667px;fill:#ffffff;fill-opacity:1">[</tspan><tspan
           style="font-size:42.6667px;fill:#ff0000">PANIC</tspan><tspan
           style="font-size:42.6667px;fill:#ffffff;fill-opacity:1">] Kernel Panic - not syncing: assertion </tspan></tspan><tspan
         x="40"
         y="1273.1289"><tspan
           style="font-size:42.6667px;fill:#ffffff;fill-opacity:1">failed: mem 0x0023487 value is 199 while </tspan></tspan><tspan
         x="40"
         y="1326.4623"><tspan
           style="font-size:42.6667px;fill:#ffffff;fill-opacity:1">supposed to be `&lt;=199`
</tspan></tspan><tspan
         x="40"
         y="1379.7956"><tspan
           style="font-size:42.6667px;fill:#ffffff;fill-opacity:1">
</tspan></tspan><tspan
         x="40"
         y="1433.129"><tspan
           style="font-size:42.6667px;fill:#ffffff;fill-opacity:1">Received panic handler interception from </tspan></tspan><tspan
         x="40"
         y="1486.4624"><tspan
           style="font-size:42.6667px;fill:#ffffff;fill-opacity:1">Soul_Selector.tscn BIOS
</tspan></tspan><tspan
         x="40"
         y="1539.7958"><tspan
           style="font-size:42.6667px;fill:#ffffff;fill-opacity:1">Connected panic handler to BIOS
</tspan></tspan><tspan
         x="40"
         y="1593.1291"><tspan
           style="font-size:42.6667px;fill:#ffffff;fill-opacity:1">[CATCH] auto restart stopped. choose options </tspan></tspan><tspan
         x="40"
         y="1646.4625"><tspan
           style="font-size:42.6667px;fill:#ffffff;fill-opacity:1">bellow!</tspan></tspan></text>
  </g>
  <g
     style="display:inline"
     inkscape:label="addition"
     id="layer2"
     inkscape:groupmode="layer">
    <rect
       ry="0"
       y="1767.1506"
       x="7.1506162"
       height="145.69875"
       width="365.69876"
       id="rect1031"
       style="fill:#0000ff;fill-opacity:0.333952;stroke:#ffffff;stroke-width:4.30123;stroke-linecap:round;stroke-linejoin:round;paint-order:stroke fill markers" />
  </g>
</svg>
