<?xml version="1.0" encoding="UTF-8" standalone="no"?>
<!-- Created with Inkscape (http://www.inkscape.org/) -->

<svg
   xmlns:dc="http://purl.org/dc/elements/1.1/"
   xmlns:cc="http://creativecommons.org/ns#"
   xmlns:rdf="http://www.w3.org/1999/02/22-rdf-syntax-ns#"
   xmlns:svg="http://www.w3.org/2000/svg"
   xmlns="http://www.w3.org/2000/svg"
   xmlns:xlink="http://www.w3.org/1999/xlink"
   xmlns:sodipodi="http://sodipodi.sourceforge.net/DTD/sodipodi-0.dtd"
   xmlns:inkscape="http://www.inkscape.org/namespaces/inkscape"
   width="128"
   height="64"
   viewBox="0 0 128 63.999999"
   id="svg4382"
   version="1.1"
   inkscape:version="0.91 r13725"
   sodipodi:docname="Get serious receptor face (Animated) .svg"
   inkscape:export-filename="/home/joelwindows7/.stepmania-5.0/NewSkins/vacuum-ship/Down Receptor 2x1.png"
   inkscape:export-xdpi="90"
   inkscape:export-ydpi="90"
   style="enable-background:new">
  <defs
     id="defs4384">
    <linearGradient
       inkscape:collect="always"
       id="linearGradient6069">
      <stop
         style="stop-color:#ff00ff;stop-opacity:1"
         offset="0"
         id="stop6071" />
      <stop
         style="stop-color:#ff00ff;stop-opacity:0"
         offset="1"
         id="stop6073" />
    </linearGradient>
    <linearGradient
       inkscape:collect="always"
       id="linearGradient4616">
      <stop
         style="stop-color:#ff00ff;stop-opacity:1"
         offset="0"
         id="stop4618" />
      <stop
         style="stop-color:#ff00ff;stop-opacity:0"
         offset="1"
         id="stop4620" />
    </linearGradient>
    <linearGradient
       inkscape:collect="always"
       id="linearGradient6940">
      <stop
         style="stop-color:#e2b74f;stop-opacity:1"
         offset="0"
         id="stop6942" />
      <stop
         style="stop-color:#88ff41;stop-opacity:1"
         offset="1"
         id="stop6944" />
    </linearGradient>
    <linearGradient
       inkscape:collect="always"
       id="linearGradient6847">
      <stop
         style="stop-color:#ff0000;stop-opacity:1;"
         offset="0"
         id="stop6849" />
      <stop
         style="stop-color:#0000ff;stop-opacity:1"
         offset="1"
         id="stop6851" />
    </linearGradient>
    <linearGradient
       inkscape:collect="always"
       id="linearGradient6831">
      <stop
         style="stop-color:#ff0000;stop-opacity:1;"
         offset="0"
         id="stop6833" />
      <stop
         style="stop-color:#0000ff;stop-opacity:1"
         offset="1"
         id="stop6835" />
    </linearGradient>
    <filter
       inkscape:collect="always"
       style="color-interpolation-filters:sRGB"
       id="filter5131">
      <feBlend
         inkscape:collect="always"
         mode="lighten"
         in2="BackgroundImage"
         id="feBlend5133" />
    </filter>
    <linearGradient
       inkscape:collect="always"
       xlink:href="#linearGradient6831"
       id="linearGradient6837"
       x1="905.6615"
       y1="451.93903"
       x2="910.71149"
       y2="451.93903"
       gradientUnits="userSpaceOnUse" />
    <linearGradient
       inkscape:collect="always"
       xlink:href="#linearGradient6847"
       id="linearGradient6853"
       x1="0.54320747"
       y1="-0.74167818"
       x2="6.5431976"
       y2="-0.74167818"
       gradientUnits="userSpaceOnUse" />
    <filter
       inkscape:collect="always"
       style="color-interpolation-filters:sRGB"
       id="filter5131-6">
      <feBlend
         inkscape:collect="always"
         mode="lighten"
         in2="BackgroundImage"
         id="feBlend5133-0" />
    </filter>
    <linearGradient
       inkscape:collect="always"
       xlink:href="#linearGradient6831"
       id="linearGradient6902"
       gradientUnits="userSpaceOnUse"
       x1="905.6615"
       y1="451.93903"
       x2="910.71149"
       y2="451.93903" />
    <linearGradient
       inkscape:collect="always"
       xlink:href="#linearGradient6847"
       id="linearGradient6904"
       gradientUnits="userSpaceOnUse"
       x1="0.54320747"
       y1="-0.74167818"
       x2="6.5431976"
       y2="-0.74167818" />
    <linearGradient
       inkscape:collect="always"
       xlink:href="#linearGradient6940"
       id="linearGradient6946"
       x1="32"
       y1="1003.3622"
       x2="32"
       y2="1010.3622"
       gradientUnits="userSpaceOnUse" />
    <radialGradient
       inkscape:collect="always"
       xlink:href="#linearGradient4616"
       id="radialGradient4626"
       cx="64"
       cy="1028.3622"
       fx="64"
       fy="1028.3622"
       r="8"
       gradientUnits="userSpaceOnUse"
       gradientTransform="matrix(1.2142857,0,0,1.2142857,18.285714,-228.36324)" />
    <radialGradient
       inkscape:collect="always"
       xlink:href="#linearGradient6069"
       id="radialGradient6075"
       cx="64"
       cy="1028.3622"
       fx="64"
       fy="1028.3622"
       r="8"
       gradientUnits="userSpaceOnUse"
       gradientTransform="matrix(1.2142857,0,0,1.2142857,18.285714,-228.36324)" />
    <linearGradient
       inkscape:collect="always"
       xlink:href="#linearGradient6847"
       id="linearGradient6837-6"
       x1="905.6615"
       y1="451.93903"
       x2="910.71149"
       y2="451.93903"
       gradientUnits="userSpaceOnUse" />
    <linearGradient
       inkscape:collect="always"
       xlink:href="#linearGradient6847"
       id="linearGradient6853-9"
       x1="0.54320747"
       y1="-0.74167818"
       x2="6.5431976"
       y2="-0.74167818"
       gradientUnits="userSpaceOnUse" />
    <filter
       inkscape:collect="always"
       style="color-interpolation-filters:sRGB"
       id="filter5131-4">
      <feBlend
         inkscape:collect="always"
         mode="lighten"
         in2="BackgroundImage"
         id="feBlend5133-5" />
    </filter>
    <linearGradient
       inkscape:collect="always"
       xlink:href="#linearGradient6847"
       id="linearGradient6902-0"
       gradientUnits="userSpaceOnUse"
       x1="905.6615"
       y1="451.93903"
       x2="910.71149"
       y2="451.93903" />
    <filter
       inkscape:collect="always"
       style="color-interpolation-filters:sRGB"
       id="filter5131-6-4">
      <feBlend
         inkscape:collect="always"
         mode="lighten"
         in2="BackgroundImage"
         id="feBlend5133-0-6" />
    </filter>
    <linearGradient
       inkscape:collect="always"
       xlink:href="#linearGradient6847"
       id="linearGradient6904-9"
       gradientUnits="userSpaceOnUse"
       x1="0.54320747"
       y1="-0.74167818"
       x2="6.5431976"
       y2="-0.74167818" />
    <linearGradient
       inkscape:collect="always"
       xlink:href="#linearGradient6940"
       id="linearGradient6946-3"
       x1="32"
       y1="1003.3622"
       x2="32"
       y2="1010.3622"
       gradientUnits="userSpaceOnUse" />
  </defs>
  <sodipodi:namedview
     id="base"
     pagecolor="#ffffff"
     bordercolor="#666666"
     borderopacity="1.0"
     inkscape:pageopacity="0.0"
     inkscape:pageshadow="2"
     inkscape:zoom="7.2407734"
     inkscape:cx="67.185477"
     inkscape:cy="27.860288"
     inkscape:document-units="px"
     inkscape:current-layer="layer1"
     showgrid="true"
     units="px"
     inkscape:snap-bbox="true"
     inkscape:bbox-nodes="true"
     inkscape:snap-bbox-midpoints="true"
     inkscape:bbox-paths="true"
     inkscape:snap-bbox-edge-midpoints="true"
     inkscape:object-paths="true"
     inkscape:snap-intersection-paths="true"
     inkscape:object-nodes="true"
     inkscape:snap-smooth-nodes="true"
     inkscape:snap-center="true"
     inkscape:snap-object-midpoints="true"
     inkscape:snap-nodes="true"
     inkscape:window-width="1366"
     inkscape:window-height="744"
     inkscape:window-x="0"
     inkscape:window-y="24"
     inkscape:window-maximized="1">
    <inkscape:grid
       type="xygrid"
       id="grid4392"
       originy="-2.7755575e-17"
       empspacing="4" />
  </sodipodi:namedview>
  <metadata
     id="metadata4387">
    <rdf:RDF>
      <cc:Work
         rdf:about="">
        <dc:format>image/svg+xml</dc:format>
        <dc:type
           rdf:resource="http://purl.org/dc/dcmitype/StillImage" />
        <dc:title></dc:title>
      </cc:Work>
    </rdf:RDF>
  </metadata>
  <g
     inkscape:label="Layer 1"
     inkscape:groupmode="layer"
     id="layer1"
     transform="translate(0,-988.3622)"
     style="filter:url(#filter5131)">
    <g
       id="g6424">
      <path
         inkscape:connector-curvature="0"
         id="path5155"
         d="M 32,1052.1296 0.2325455,988.59463 32,1014.0086 63.767454,988.59463 Z"
         style="fill:#a3a3a3;fill-opacity:1;fill-rule:evenodd;stroke:#000000;stroke-width:0.63534909;stroke-linecap:round;stroke-linejoin:bevel;stroke-miterlimit:4;stroke-dasharray:none;stroke-opacity:1" />
      <g
         transform="translate(0.0515875,-0.16004874)"
         id="g4204">
        <g
           id="g4184">
          <g
             id="g4178">
            <path
               sodipodi:type="star"
               style="opacity:1;fill:#4800dc;fill-opacity:1;stroke:#000000;stroke-width:0.18679182;stroke-linecap:round;stroke-linejoin:bevel;stroke-miterlimit:4;stroke-dasharray:none;stroke-opacity:1"
               id="path5200"
               sodipodi:sides="4"
               sodipodi:cx="32"
               sodipodi:cy="-1048.3622"
               sodipodi:r1="0.93395913"
               sodipodi:r2="0.66040885"
               sodipodi:arg1="0"
               sodipodi:arg2="0.78539816"
               inkscape:flatsided="true"
               inkscape:rounded="0"
               inkscape:randomized="0"
               d="M 32.933959,-1048.3622 32,-1047.4282 31.066041,-1048.3622 32,-1049.2961 Z"
               transform="scale(1,-1)" />
            <g
               id="g5930">
              <path
                 d="m 58,996.36218 -1,-1 1,-1 1,1 z"
                 inkscape:randomized="0"
                 inkscape:rounded="0"
                 inkscape:flatsided="true"
                 sodipodi:arg2="2.3561945"
                 sodipodi:arg1="1.5707963"
                 sodipodi:r2="0.70710677"
                 sodipodi:r1="1"
                 sodipodi:cy="995.36218"
                 sodipodi:cx="58"
                 sodipodi:sides="4"
                 id="path5926"
                 style="opacity:1;fill:#ff6700;fill-opacity:1;stroke:#000000;stroke-width:0.1;stroke-linecap:round;stroke-linejoin:bevel;stroke-miterlimit:4;stroke-dasharray:none;stroke-opacity:1"
                 sodipodi:type="star" />
              <path
                 d="m 6,996.36218 -1,-1 1,-1 1,1 z"
                 inkscape:randomized="0"
                 inkscape:rounded="0"
                 inkscape:flatsided="true"
                 sodipodi:arg2="2.3561945"
                 sodipodi:arg1="1.5707963"
                 sodipodi:r2="0.70710677"
                 sodipodi:r1="1"
                 sodipodi:cy="995.36218"
                 sodipodi:cx="6"
                 sodipodi:sides="4"
                 id="path5928"
                 style="opacity:1;fill:#ff6700;fill-opacity:1;stroke:#000000;stroke-width:0.1;stroke-linecap:round;stroke-linejoin:bevel;stroke-miterlimit:4;stroke-dasharray:none;stroke-opacity:1"
                 sodipodi:type="star" />
            </g>
          </g>
          <g
             id="g6912">
            <g
               id="g6855">
              <rect
                 transform="matrix(0.45519572,0.89039141,-0.89039141,0.45519572,0,0)"
                 y="450.68903"
                 x="905.68652"
                 height="2.4999957"
                 width="4.9999914"
                 id="rect6804"
                 style="opacity:1;fill:url(#linearGradient6837);fill-opacity:1;stroke:#000000;stroke-width:0.05;stroke-linecap:round;stroke-linejoin:bevel;stroke-miterlimit:4;stroke-dasharray:none;stroke-opacity:1" />
              <rect
                 transform="matrix(-0.45519572,0.89039141,0.89039141,0.45519572,55.273234,1011.545)"
                 y="-1.9916761"
                 x="1.0432066"
                 height="2.4999957"
                 width="4.9999914"
                 id="rect6804-4"
                 style="opacity:1;fill:url(#linearGradient6853);fill-opacity:1;stroke:#000000;stroke-width:0.04999992;stroke-linecap:round;stroke-linejoin:bevel;stroke-miterlimit:4;stroke-dasharray:none;stroke-opacity:1;filter:url(#filter5131)" />
            </g>
            <g
               id="g6908">
              <rect
                 transform="matrix(0.45519572,0.89039141,-0.89039141,0.45519572,17.000008,34.000011)"
                 y="450.68903"
                 x="905.68652"
                 height="2.4999957"
                 width="4.9999914"
                 id="rect6804-5"
                 style="opacity:1;fill:url(#linearGradient6902);fill-opacity:1;stroke:#000000;stroke-width:0.05;stroke-linecap:round;stroke-linejoin:bevel;stroke-miterlimit:4;stroke-dasharray:none;stroke-opacity:1;filter:url(#filter5131-6)" />
              <rect
                 transform="matrix(-0.45519572,0.89039141,0.89039141,0.45519572,38.273234,1045.545)"
                 y="-1.9916761"
                 x="1.0432066"
                 height="2.4999957"
                 width="4.9999914"
                 id="rect6804-4-1"
                 style="opacity:1;fill:url(#linearGradient6904);fill-opacity:1;stroke:#000000;stroke-width:0.04999992;stroke-linecap:round;stroke-linejoin:bevel;stroke-miterlimit:4;stroke-dasharray:none;stroke-opacity:1;filter:url(#filter5131-6)" />
            </g>
          </g>
        </g>
        <g
           id="g4198">
          <g
             transform="matrix(6.3534909,0,0,-6.3534909,-126.88886,7357.2538)"
             id="g5194">
            <circle
               style="opacity:1;fill:#48ffdc;fill-opacity:1;stroke:#0000ff;stroke-width:0.1;stroke-linecap:round;stroke-linejoin:bevel;stroke-miterlimit:4;stroke-dasharray:none;stroke-opacity:1"
               id="path5157"
               cx="25"
               cy="997.36218"
               r="1" />
            <circle
               style="opacity:1;fill:#ffff00;fill-opacity:1;stroke:#707070;stroke-width:0.1;stroke-linecap:round;stroke-linejoin:bevel;stroke-miterlimit:4;stroke-dasharray:none;stroke-opacity:1"
               id="path5181"
               cx="25"
               cy="997.36218"
               r="0.5" />
          </g>
          <rect
             y="1003.3372"
             x="28.5"
             height="7"
             width="7"
             id="rect6930"
             style="opacity:1;fill:url(#linearGradient6946);fill-opacity:1;fill-rule:evenodd;stroke:#a70000;stroke-width:0.05;stroke-linecap:round;stroke-linejoin:bevel;stroke-miterlimit:4;stroke-dasharray:none;stroke-opacity:1" />
        </g>
      </g>
    </g>
    <path
       style="fill:#c8c8c8;fill-opacity:1;fill-rule:evenodd;stroke:#000000;stroke-width:0.63534909;stroke-linecap:round;stroke-linejoin:bevel;stroke-miterlimit:4;stroke-dasharray:none;stroke-opacity:1;filter:url(#filter5131-4);enable-background:new"
       d="m 95.999996,1052.1297 -31.76745,-63.53507 31.76745,25.41407 31.767464,-25.41407 z"
       id="path5155-8"
       inkscape:connector-curvature="0" />
    <g
       id="g6402">
      <circle
         r="9.7142859"
         cy="1020.3622"
         cx="96"
         id="path4614"
         style="opacity:1;fill:url(#radialGradient4626);fill-opacity:1;fill-rule:evenodd;stroke:url(#radialGradient6075);stroke-width:14.5714283;stroke-linecap:square;stroke-linejoin:miter;stroke-miterlimit:4;stroke-dasharray:none;stroke-opacity:1" />
      <g
         transform="translate(64.051588,-0.16004874)"
         id="g4204-8"
         style="filter:url(#filter5131-4);enable-background:new">
        <g
           id="g4184-0">
          <g
             id="g4178-8">
            <path
               sodipodi:type="star"
               style="opacity:1;fill:#9a69ff;fill-opacity:1;stroke:#000000;stroke-width:0.18679182;stroke-linecap:round;stroke-linejoin:bevel;stroke-miterlimit:4;stroke-dasharray:none;stroke-opacity:1"
               id="path5200-2"
               sodipodi:sides="4"
               sodipodi:cx="32"
               sodipodi:cy="-1048.3622"
               sodipodi:r1="0.93395913"
               sodipodi:r2="0.66040885"
               sodipodi:arg1="0"
               sodipodi:arg2="0.78539816"
               inkscape:flatsided="true"
               inkscape:rounded="0"
               inkscape:randomized="0"
               d="M 32.933959,-1048.3622 32,-1047.4282 31.066041,-1048.3622 32,-1049.2961 Z"
               transform="scale(1,-1)" />
            <g
               id="g5930-3">
              <path
                 d="m 58,996.36218 -1,-1 1,-1 1,1 z"
                 inkscape:randomized="0"
                 inkscape:rounded="0"
                 inkscape:flatsided="true"
                 sodipodi:arg2="2.3561945"
                 sodipodi:arg1="1.5707963"
                 sodipodi:r2="0.70710677"
                 sodipodi:r1="1"
                 sodipodi:cy="995.36218"
                 sodipodi:cx="58"
                 sodipodi:sides="4"
                 id="path5926-2"
                 style="opacity:1;fill:#ffbf00;fill-opacity:1;stroke:#000000;stroke-width:0.1;stroke-linecap:round;stroke-linejoin:bevel;stroke-miterlimit:4;stroke-dasharray:none;stroke-opacity:1"
                 sodipodi:type="star" />
              <path
                 d="m 6,996.36218 -1,-1 1,-1 1,1 z"
                 inkscape:randomized="0"
                 inkscape:rounded="0"
                 inkscape:flatsided="true"
                 sodipodi:arg2="2.3561945"
                 sodipodi:arg1="1.5707963"
                 sodipodi:r2="0.70710677"
                 sodipodi:r1="1"
                 sodipodi:cy="995.36218"
                 sodipodi:cx="6"
                 sodipodi:sides="4"
                 id="path5928-0"
                 style="opacity:1;fill:#ffbf00;fill-opacity:1;stroke:#000000;stroke-width:0.1;stroke-linecap:round;stroke-linejoin:bevel;stroke-miterlimit:4;stroke-dasharray:none;stroke-opacity:1"
                 sodipodi:type="star" />
            </g>
          </g>
          <g
             id="g6912-0">
            <g
               id="g6855-0">
              <rect
                 transform="matrix(0.45519572,0.89039141,-0.89039141,0.45519572,0,0)"
                 y="450.68903"
                 x="905.68652"
                 height="2.4999957"
                 width="4.9999914"
                 id="rect6804-0"
                 style="opacity:1;fill:url(#linearGradient6837-6);fill-opacity:1;stroke:#000000;stroke-width:0.05;stroke-linecap:round;stroke-linejoin:bevel;stroke-miterlimit:4;stroke-dasharray:none;stroke-opacity:1" />
              <rect
                 transform="matrix(-0.45519572,0.89039141,0.89039141,0.45519572,55.273234,1011.545)"
                 y="-1.9916761"
                 x="1.0432066"
                 height="2.4999957"
                 width="4.9999914"
                 id="rect6804-4-7"
                 style="opacity:1;fill:url(#linearGradient6853-9);fill-opacity:1;stroke:#000000;stroke-width:0.04999992;stroke-linecap:round;stroke-linejoin:bevel;stroke-miterlimit:4;stroke-dasharray:none;stroke-opacity:1;filter:url(#filter5131-4)" />
            </g>
            <g
               id="g6908-9">
              <rect
                 transform="matrix(0.45519572,0.89039141,-0.89039141,0.45519572,17.000008,34.000011)"
                 y="450.68903"
                 x="905.68652"
                 height="2.4999957"
                 width="4.9999914"
                 id="rect6804-5-9"
                 style="opacity:1;fill:url(#linearGradient6902-0);fill-opacity:1;stroke:#000000;stroke-width:0.05;stroke-linecap:round;stroke-linejoin:bevel;stroke-miterlimit:4;stroke-dasharray:none;stroke-opacity:1;filter:url(#filter5131-6-4)" />
              <rect
                 transform="matrix(-0.45519572,0.89039141,0.89039141,0.45519572,38.273234,1045.545)"
                 y="-1.9916761"
                 x="1.0432066"
                 height="2.4999957"
                 width="4.9999914"
                 id="rect6804-4-1-9"
                 style="opacity:1;fill:url(#linearGradient6904-9);fill-opacity:1;stroke:#000000;stroke-width:0.04999992;stroke-linecap:round;stroke-linejoin:bevel;stroke-miterlimit:4;stroke-dasharray:none;stroke-opacity:1;filter:url(#filter5131-6-4)" />
            </g>
          </g>
        </g>
        <g
           id="g4198-3">
          <g
             transform="matrix(6.3534909,0,0,-6.3534909,-126.88886,7357.2538)"
             id="g5194-5">
            <circle
               style="opacity:1;fill:#48ffdc;fill-opacity:1;stroke:#0000ff;stroke-width:0.1;stroke-linecap:round;stroke-linejoin:bevel;stroke-miterlimit:4;stroke-dasharray:none;stroke-opacity:1"
               id="path5157-7"
               cx="25"
               cy="997.36218"
               r="1" />
            <circle
               style="opacity:1;fill:#ffff00;fill-opacity:1;stroke:#707070;stroke-width:0.1;stroke-linecap:round;stroke-linejoin:bevel;stroke-miterlimit:4;stroke-dasharray:none;stroke-opacity:1"
               id="path5181-2"
               cx="25"
               cy="997.36218"
               r="0.5" />
          </g>
          <rect
             y="1003.3372"
             x="28.5"
             height="7"
             width="7"
             id="rect6930-6"
             style="opacity:1;fill:url(#linearGradient6946-3);fill-opacity:1;fill-rule:evenodd;stroke:#a70000;stroke-width:0.05;stroke-linecap:round;stroke-linejoin:bevel;stroke-miterlimit:4;stroke-dasharray:none;stroke-opacity:1" />
        </g>
      </g>
    </g>
  </g>
</svg>
