<?xml version="1.0" encoding="UTF-8" standalone="no"?>
<!-- Created with Inkscape (http://www.inkscape.org/) -->

<svg
   xmlns:dc="http://purl.org/dc/elements/1.1/"
   xmlns:cc="http://creativecommons.org/ns#"
   xmlns:rdf="http://www.w3.org/1999/02/22-rdf-syntax-ns#"
   xmlns:svg="http://www.w3.org/2000/svg"
   xmlns="http://www.w3.org/2000/svg"
   xmlns:xlink="http://www.w3.org/1999/xlink"
   xmlns:sodipodi="http://sodipodi.sourceforge.net/DTD/sodipodi-0.dtd"
   xmlns:inkscape="http://www.inkscape.org/namespaces/inkscape"
   width="512"
   height="768"
   viewBox="0 0 512.00001 768.00001"
   id="svg4174"
   version="1.1"
   inkscape:version="0.91 r13725"
   sodipodi:docname="Vacuum hold bar horizontal.svg"
   inkscape:export-filename="/home/joelwindows7/.stepmania-5.0/NewSkins/vacuum-ship/Left Hold 8x4.png"
   inkscape:export-xdpi="90"
   inkscape:export-ydpi="90">
  <defs
     id="defs4176">
    <linearGradient
       inkscape:collect="always"
       id="linearGradient5718">
      <stop
         style="stop-color:#1aff1a;stop-opacity:0.58823532"
         offset="0"
         id="stop5720" />
      <stop
         style="stop-color:#ff0000;stop-opacity:0.29019609"
         offset="1"
         id="stop5722" />
    </linearGradient>
    <linearGradient
       inkscape:collect="always"
       id="linearGradient5712">
      <stop
         style="stop-color:#01ff01;stop-opacity:0.4509804"
         offset="0"
         id="stop5714" />
      <stop
         style="stop-color:#ff4b4b;stop-opacity:0.34117648"
         offset="1"
         id="stop5716" />
    </linearGradient>
    <linearGradient
       id="linearGradient5706"
       inkscape:collect="always">
      <stop
         id="stop5708"
         offset="0"
         style="stop-color:#00ff00;stop-opacity:1" />
      <stop
         id="stop5710"
         offset="1"
         style="stop-color:#800000;stop-opacity:1" />
    </linearGradient>
    <linearGradient
       id="linearGradient5700"
       inkscape:collect="always">
      <stop
         id="stop5702"
         offset="0"
         style="stop-color:#00ff00;stop-opacity:1" />
      <stop
         id="stop5704"
         offset="1"
         style="stop-color:#ff0000;stop-opacity:1" />
    </linearGradient>
    <linearGradient
       id="linearGradient5694"
       inkscape:collect="always">
      <stop
         id="stop5696"
         offset="0"
         style="stop-color:#24b2b2;stop-opacity:0.33725491" />
      <stop
         id="stop5698"
         offset="1"
         style="stop-color:#8c8c8c;stop-opacity:0.2" />
    </linearGradient>
    <linearGradient
       id="linearGradient5688"
       inkscape:collect="always">
      <stop
         id="stop5690"
         offset="0"
         style="stop-color:#2cb2b2;stop-opacity:0.50196081" />
      <stop
         id="stop5692"
         offset="1"
         style="stop-color:#666666;stop-opacity:0.43921569" />
    </linearGradient>
    <linearGradient
       inkscape:collect="always"
       id="linearGradient5682">
      <stop
         style="stop-color:#00ffff;stop-opacity:1"
         offset="0"
         id="stop5684" />
      <stop
         style="stop-color:#bfbfbf;stop-opacity:1"
         offset="1"
         id="stop5686" />
    </linearGradient>
    <linearGradient
       inkscape:collect="always"
       id="linearGradient5676">
      <stop
         style="stop-color:#00ffff;stop-opacity:1"
         offset="0"
         id="stop5678" />
      <stop
         style="stop-color:#808080;stop-opacity:1"
         offset="1"
         id="stop5680" />
    </linearGradient>
    <linearGradient
       id="linearGradient5670"
       inkscape:collect="always">
      <stop
         id="stop5672"
         offset="0"
         style="stop-color:#ffa500;stop-opacity:0.58823532" />
      <stop
         id="stop5674"
         offset="1"
         style="stop-color:#00ffff;stop-opacity:0.58823532" />
    </linearGradient>
    <linearGradient
       id="linearGradient5664"
       inkscape:collect="always">
      <stop
         id="stop5666"
         offset="0"
         style="stop-color:#ffa500;stop-opacity:0.58039218" />
      <stop
         id="stop5668"
         offset="1"
         style="stop-color:#006363;stop-opacity:0.34117648" />
    </linearGradient>
    <linearGradient
       inkscape:collect="always"
       id="linearGradient5658">
      <stop
         style="stop-color:#ff8c00;stop-opacity:1"
         offset="0"
         id="stop5660" />
      <stop
         style="stop-color:#00ffff;stop-opacity:1"
         offset="1"
         id="stop5662" />
    </linearGradient>
    <linearGradient
       inkscape:collect="always"
       id="linearGradient5652">
      <stop
         style="stop-color:#ff8c00;stop-opacity:1"
         offset="0"
         id="stop5654" />
      <stop
         style="stop-color:#00ffff;stop-opacity:1"
         offset="1"
         id="stop5656" />
    </linearGradient>
    <linearGradient
       inkscape:collect="always"
       id="linearGradient5646">
      <stop
         style="stop-color:#ff00ff;stop-opacity:0.58823532"
         offset="0"
         id="stop5648" />
      <stop
         style="stop-color:#ffa500;stop-opacity:0.43119267"
         offset="1"
         id="stop5650" />
    </linearGradient>
    <linearGradient
       inkscape:collect="always"
       id="linearGradient5640">
      <stop
         style="stop-color:#ff00ff;stop-opacity:0.35909089"
         offset="0"
         id="stop5642" />
      <stop
         style="stop-color:#ffa500;stop-opacity:0.78431374"
         offset="1"
         id="stop5644" />
    </linearGradient>
    <linearGradient
       id="linearGradient5634"
       inkscape:collect="always">
      <stop
         id="stop5636"
         offset="0"
         style="stop-color:#ff00ff;stop-opacity:1" />
      <stop
         id="stop5638"
         offset="1"
         style="stop-color:#ff8c00;stop-opacity:1" />
    </linearGradient>
    <linearGradient
       id="linearGradient5628"
       inkscape:collect="always">
      <stop
         id="stop5630"
         offset="0"
         style="stop-color:#ff00ff;stop-opacity:1" />
      <stop
         id="stop5632"
         offset="1"
         style="stop-color:#ff8c00;stop-opacity:1" />
    </linearGradient>
    <linearGradient
       id="linearGradient5323"
       inkscape:collect="always">
      <stop
         id="stop5325"
         offset="0"
         style="stop-color:#636300;stop-opacity:0.58823532" />
      <stop
         id="stop5327"
         offset="1"
         style="stop-color:#ea00ea;stop-opacity:0.28899083" />
    </linearGradient>
    <linearGradient
       id="linearGradient5317"
       inkscape:collect="always">
      <stop
         id="stop5319"
         offset="0"
         style="stop-color:#a7a700;stop-opacity:0.44954127" />
      <stop
         id="stop5321"
         offset="1"
         style="stop-color:#ad00ad;stop-opacity:0.34117648" />
    </linearGradient>
    <linearGradient
       inkscape:collect="always"
       id="linearGradient5311">
      <stop
         style="stop-color:#ffff00;stop-opacity:1"
         offset="0"
         id="stop5313" />
      <stop
         style="stop-color:#aa00aa;stop-opacity:1"
         offset="1"
         id="stop5315" />
    </linearGradient>
    <linearGradient
       inkscape:collect="always"
       id="linearGradient5305">
      <stop
         style="stop-color:#ffff00;stop-opacity:1"
         offset="0"
         id="stop5307" />
      <stop
         style="stop-color:#ff00ff;stop-opacity:1"
         offset="1"
         id="stop5309" />
    </linearGradient>
    <linearGradient
       inkscape:collect="always"
       id="linearGradient5299">
      <stop
         style="stop-color:#7e27b3;stop-opacity:0.33725491"
         offset="0"
         id="stop5301" />
      <stop
         style="stop-color:#fbff94;stop-opacity:0.58823532"
         offset="1"
         id="stop5303" />
    </linearGradient>
    <linearGradient
       inkscape:collect="always"
       id="linearGradient5293">
      <stop
         style="stop-color:#5e1a7a;stop-opacity:0.59545457"
         offset="0"
         id="stop5295" />
      <stop
         style="stop-color:#808500;stop-opacity:0.43636364"
         offset="1"
         id="stop5297" />
    </linearGradient>
    <linearGradient
       id="linearGradient5287"
       inkscape:collect="always">
      <stop
         id="stop5289"
         offset="0"
         style="stop-color:#8525b9;stop-opacity:1" />
      <stop
         id="stop5291"
         offset="1"
         style="stop-color:#9aae1e;stop-opacity:1" />
    </linearGradient>
    <linearGradient
       id="linearGradient5281"
       inkscape:collect="always">
      <stop
         id="stop5283"
         offset="0"
         style="stop-color:#5a1b81;stop-opacity:1" />
      <stop
         id="stop5285"
         offset="1"
         style="stop-color:#ffff00;stop-opacity:1" />
    </linearGradient>
    <linearGradient
       inkscape:collect="always"
       id="linearGradient5118">
      <stop
         style="stop-color:#0000ff;stop-opacity:0.58823532"
         offset="0"
         id="stop5120" />
      <stop
         style="stop-color:#4b175b;stop-opacity:0.58823532"
         offset="1"
         id="stop5122" />
    </linearGradient>
    <linearGradient
       inkscape:collect="always"
       id="linearGradient5112">
      <stop
         style="stop-color:#0000ff;stop-opacity:0.58039218"
         offset="0"
         id="stop5114" />
      <stop
         style="stop-color:#9417c5;stop-opacity:0.34090909"
         offset="1"
         id="stop5116" />
    </linearGradient>
    <linearGradient
       id="linearGradient5106"
       inkscape:collect="always">
      <stop
         id="stop5108"
         offset="0"
         style="stop-color:#0000ff;stop-opacity:1" />
      <stop
         id="stop5110"
         offset="1"
         style="stop-color:#aa39ff;stop-opacity:1" />
    </linearGradient>
    <linearGradient
       id="linearGradient5100"
       inkscape:collect="always">
      <stop
         id="stop5102"
         offset="0"
         style="stop-color:#0000ff;stop-opacity:1" />
      <stop
         id="stop5104"
         offset="1"
         style="stop-color:#c800ff;stop-opacity:1" />
    </linearGradient>
    <linearGradient
       id="linearGradient4897"
       inkscape:collect="always">
      <stop
         id="stop4899"
         offset="0"
         style="stop-color:#b92a00;stop-opacity:0.58823532" />
      <stop
         id="stop4901"
         offset="1"
         style="stop-color:#00ffff;stop-opacity:0.58823532" />
    </linearGradient>
    <linearGradient
       id="linearGradient4891"
       inkscape:collect="always">
      <stop
         id="stop4893"
         offset="0"
         style="stop-color:#652700;stop-opacity:0.78431374" />
      <stop
         id="stop4895"
         offset="1"
         style="stop-color:#000085;stop-opacity:0.78431374" />
    </linearGradient>
    <linearGradient
       inkscape:collect="always"
       id="linearGradient4809">
      <stop
         style="stop-color:#ff2700;stop-opacity:1"
         offset="0"
         id="stop4811" />
      <stop
         style="stop-color:#0000ff;stop-opacity:1"
         offset="1"
         id="stop4813" />
    </linearGradient>
    <linearGradient
       inkscape:collect="always"
       xlink:href="#linearGradient4809"
       id="linearGradient4815"
       x1="0.5"
       y1="96.5"
       x2="80"
       y2="96.5"
       gradientUnits="userSpaceOnUse"
       gradientTransform="translate(0,-0.5)" />
    <linearGradient
       gradientTransform="translate(64,-0.5000015)"
       inkscape:collect="always"
       xlink:href="#linearGradient4809"
       id="linearGradient4815-8"
       x1="0.5"
       y1="96.5"
       x2="191"
       y2="96.5"
       gradientUnits="userSpaceOnUse" />
    <linearGradient
       gradientTransform="translate(64,0.49999965)"
       inkscape:collect="always"
       xlink:href="#linearGradient4809"
       id="linearGradient4882"
       x1="0.5"
       y1="96.5"
       x2="191"
       y2="96.5"
       gradientUnits="userSpaceOnUse" />
    <linearGradient
       inkscape:collect="always"
       xlink:href="#linearGradient4891"
       id="linearGradient4887"
       gradientUnits="userSpaceOnUse"
       x1="0.5"
       y1="96.5"
       x2="80"
       y2="96.5"
       gradientTransform="translate(128,-0.50000024)" />
    <linearGradient
       inkscape:collect="always"
       xlink:href="#linearGradient4897"
       id="linearGradient4889"
       gradientUnits="userSpaceOnUse"
       gradientTransform="translate(192,-0.50000149)"
       x1="0.5"
       y1="96.5"
       x2="191"
       y2="96.5" />
    <linearGradient
       gradientTransform="translate(64,0.49999965)"
       inkscape:collect="always"
       xlink:href="#linearGradient4809"
       id="linearGradient4972"
       x1="0.5"
       y1="96.5"
       x2="191"
       y2="96.5"
       gradientUnits="userSpaceOnUse" />
    <linearGradient
       gradientTransform="translate(64,-0.190983)"
       inkscape:collect="always"
       xlink:href="#linearGradient4809"
       id="linearGradient5083"
       x1="0.5"
       y1="96.5"
       x2="191"
       y2="96.5"
       gradientUnits="userSpaceOnUse" />
    <linearGradient
       inkscape:collect="always"
       xlink:href="#linearGradient5100"
       id="linearGradient5092"
       gradientUnits="userSpaceOnUse"
       x1="0.5"
       y1="96.5"
       x2="63.5"
       y2="96.5"
       gradientTransform="translate(256,-0.5)" />
    <linearGradient
       inkscape:collect="always"
       xlink:href="#linearGradient5106"
       id="linearGradient5094"
       gradientUnits="userSpaceOnUse"
       gradientTransform="translate(320,-0.5000015)"
       x1="0.5"
       y1="96.5"
       x2="69.5"
       y2="96.5" />
    <linearGradient
       inkscape:collect="always"
       xlink:href="#linearGradient5112"
       id="linearGradient5096"
       gradientUnits="userSpaceOnUse"
       gradientTransform="translate(384,-0.50000149)"
       x1="0.5"
       y1="96.5"
       x2="105.5"
       y2="96.5" />
    <linearGradient
       inkscape:collect="always"
       xlink:href="#linearGradient5118"
       id="linearGradient5098"
       gradientUnits="userSpaceOnUse"
       gradientTransform="translate(448,-0.50000149)"
       x1="0.5"
       y1="96.5"
       x2="66.5"
       y2="96.5" />
    <linearGradient
       gradientTransform="translate(64,-0.190983)"
       inkscape:collect="always"
       xlink:href="#linearGradient4809"
       id="linearGradient5249"
       x1="0.5"
       y1="96.5"
       x2="191"
       y2="96.5"
       gradientUnits="userSpaceOnUse" />
    <linearGradient
       inkscape:collect="always"
       xlink:href="#linearGradient5305"
       id="linearGradient5092-3"
       gradientUnits="userSpaceOnUse"
       x1="0.5"
       y1="96.5"
       x2="98.5"
       y2="96.5"
       gradientTransform="translate(256,191.5)" />
    <linearGradient
       inkscape:collect="always"
       xlink:href="#linearGradient5281"
       id="linearGradient5267"
       gradientUnits="userSpaceOnUse"
       x1="0.5"
       y1="96.5"
       x2="80"
       y2="96.5"
       gradientTransform="translate(0,191.5)" />
    <linearGradient
       inkscape:collect="always"
       xlink:href="#linearGradient5287"
       id="linearGradient5269"
       gradientUnits="userSpaceOnUse"
       gradientTransform="translate(64,191.5)"
       x1="0.5"
       y1="96.5"
       x2="96"
       y2="96.5" />
    <linearGradient
       inkscape:collect="always"
       xlink:href="#linearGradient5293"
       id="linearGradient5271"
       gradientUnits="userSpaceOnUse"
       gradientTransform="translate(128,191.5)"
       x1="0.5"
       y1="96.5"
       x2="80"
       y2="96.5" />
    <linearGradient
       inkscape:collect="always"
       xlink:href="#linearGradient5299"
       id="linearGradient5273"
       gradientUnits="userSpaceOnUse"
       gradientTransform="translate(192,191.5)"
       x1="0.5"
       y1="96.5"
       x2="73"
       y2="96.5" />
    <linearGradient
       inkscape:collect="always"
       xlink:href="#linearGradient5311"
       id="linearGradient5275"
       gradientUnits="userSpaceOnUse"
       gradientTransform="translate(320,191.5)"
       x1="0.5"
       y1="96.5"
       x2="124.5"
       y2="96.5" />
    <linearGradient
       inkscape:collect="always"
       xlink:href="#linearGradient5317"
       id="linearGradient5277"
       gradientUnits="userSpaceOnUse"
       gradientTransform="translate(384,191.5)"
       x1="0.5"
       y1="96.5"
       x2="105.5"
       y2="96.5" />
    <linearGradient
       inkscape:collect="always"
       xlink:href="#linearGradient5323"
       id="linearGradient5279"
       gradientUnits="userSpaceOnUse"
       gradientTransform="translate(448,191.5)"
       x1="0.5"
       y1="96.5"
       x2="66.5"
       y2="96.5" />
    <linearGradient
       gradientTransform="translate(64,-0.190983)"
       inkscape:collect="always"
       xlink:href="#linearGradient4809"
       id="linearGradient5566"
       x1="0.5"
       y1="96.5"
       x2="191"
       y2="96.5"
       gradientUnits="userSpaceOnUse" />
    <linearGradient
       inkscape:collect="always"
       xlink:href="#linearGradient5652"
       id="linearGradient5092-4"
       gradientUnits="userSpaceOnUse"
       x1="0.5"
       y1="96.5"
       x2="93.5"
       y2="96.5"
       gradientTransform="translate(256,383.5)" />
    <linearGradient
       inkscape:collect="always"
       xlink:href="#linearGradient5676"
       id="linearGradient5267-7"
       gradientUnits="userSpaceOnUse"
       x1="0.5"
       y1="96.5"
       x2="80"
       y2="96.5"
       gradientTransform="translate(0,575.5)" />
    <linearGradient
       inkscape:collect="always"
       xlink:href="#linearGradient5700"
       id="linearGradient5092-3-7"
       gradientUnits="userSpaceOnUse"
       x1="0.5"
       y1="96.5"
       x2="98.5"
       y2="96.5"
       gradientTransform="translate(256,575.5)" />
    <linearGradient
       inkscape:collect="always"
       xlink:href="#linearGradient5628"
       id="linearGradient5602"
       gradientUnits="userSpaceOnUse"
       x1="0.5"
       y1="96.5"
       x2="60"
       y2="96.5"
       gradientTransform="translate(0,383.5)" />
    <linearGradient
       inkscape:collect="always"
       xlink:href="#linearGradient5634"
       id="linearGradient5604"
       gradientUnits="userSpaceOnUse"
       gradientTransform="translate(64,383.5)"
       x1="0.5"
       y1="96.5"
       x2="81"
       y2="96.5" />
    <linearGradient
       inkscape:collect="always"
       xlink:href="#linearGradient5640"
       id="linearGradient5606"
       gradientUnits="userSpaceOnUse"
       gradientTransform="translate(128,383.5)"
       x1="0.5"
       y1="96.5"
       x2="62"
       y2="96.5" />
    <linearGradient
       inkscape:collect="always"
       xlink:href="#linearGradient5646"
       id="linearGradient5608"
       gradientUnits="userSpaceOnUse"
       gradientTransform="translate(192,383.5)"
       x1="0.5"
       y1="96.5"
       x2="53"
       y2="96.5" />
    <linearGradient
       inkscape:collect="always"
       xlink:href="#linearGradient5658"
       id="linearGradient5610"
       gradientUnits="userSpaceOnUse"
       gradientTransform="translate(320,383.5)"
       x1="0.5"
       y1="96.5"
       x2="139.5"
       y2="96.5" />
    <linearGradient
       inkscape:collect="always"
       xlink:href="#linearGradient5664"
       id="linearGradient5612"
       gradientUnits="userSpaceOnUse"
       gradientTransform="translate(384,383.5)"
       x1="0.5"
       y1="96.5"
       x2="105.5"
       y2="96.5" />
    <linearGradient
       inkscape:collect="always"
       xlink:href="#linearGradient5670"
       id="linearGradient5614"
       gradientUnits="userSpaceOnUse"
       gradientTransform="translate(448,383.5)"
       x1="0.5"
       y1="96.5"
       x2="66.5"
       y2="96.5" />
    <linearGradient
       inkscape:collect="always"
       xlink:href="#linearGradient5682"
       id="linearGradient5616"
       gradientUnits="userSpaceOnUse"
       gradientTransform="translate(64,575.5)"
       x1="0.5"
       y1="96.5"
       x2="96"
       y2="96.5" />
    <linearGradient
       inkscape:collect="always"
       xlink:href="#linearGradient5688"
       id="linearGradient5618"
       gradientUnits="userSpaceOnUse"
       gradientTransform="translate(128,575.5)"
       x1="0.5"
       y1="96.5"
       x2="80"
       y2="96.5" />
    <linearGradient
       inkscape:collect="always"
       xlink:href="#linearGradient5694"
       id="linearGradient5620"
       gradientUnits="userSpaceOnUse"
       gradientTransform="translate(192,575.5)"
       x1="0.5"
       y1="96.5"
       x2="73"
       y2="96.5" />
    <linearGradient
       inkscape:collect="always"
       xlink:href="#linearGradient5706"
       id="linearGradient5622"
       gradientUnits="userSpaceOnUse"
       gradientTransform="translate(320,575.5)"
       x1="0.5"
       y1="96.5"
       x2="124.5"
       y2="96.5" />
    <linearGradient
       inkscape:collect="always"
       xlink:href="#linearGradient5712"
       id="linearGradient5624"
       gradientUnits="userSpaceOnUse"
       gradientTransform="translate(384,575.5)"
       x1="0.5"
       y1="96.5"
       x2="105.5"
       y2="96.5" />
    <linearGradient
       inkscape:collect="always"
       xlink:href="#linearGradient5718"
       id="linearGradient5626"
       gradientUnits="userSpaceOnUse"
       gradientTransform="translate(448,575.5)"
       x1="0.5"
       y1="96.5"
       x2="66.5"
       y2="96.5" />
  </defs>
  <sodipodi:namedview
     id="base"
     pagecolor="#ffffff"
     bordercolor="#666666"
     borderopacity="1.0"
     inkscape:pageopacity="0.0"
     inkscape:pageshadow="2"
     inkscape:zoom="2.56"
     inkscape:cx="409.77151"
     inkscape:cy="99.656726"
     inkscape:document-units="px"
     inkscape:current-layer="layer2"
     showgrid="true"
     units="px"
     inkscape:snap-bbox="true"
     inkscape:bbox-paths="true"
     inkscape:bbox-nodes="true"
     inkscape:snap-bbox-edge-midpoints="false"
     inkscape:snap-bbox-midpoints="true"
     showguides="true"
     inkscape:snap-page="true"
     inkscape:object-paths="true"
     inkscape:snap-intersection-paths="true"
     inkscape:object-nodes="true"
     inkscape:snap-smooth-nodes="true"
     inkscape:snap-object-midpoints="true"
     inkscape:snap-center="true"
     inkscape:window-width="1366"
     inkscape:window-height="744"
     inkscape:window-x="0"
     inkscape:window-y="24"
     inkscape:window-maximized="1"
     inkscape:snap-nodes="true"
     inkscape:snap-others="false">
    <inkscape:grid
       type="xygrid"
       id="grid4786"
       empspacing="4" />
  </sodipodi:namedview>
  <metadata
     id="metadata4179">
    <rdf:RDF>
      <cc:Work
         rdf:about="">
        <dc:format>image/svg+xml</dc:format>
        <dc:type
           rdf:resource="http://purl.org/dc/dcmitype/StillImage" />
        <dc:title />
      </cc:Work>
    </rdf:RDF>
  </metadata>
  <g
     inkscape:label="Refference"
     inkscape:groupmode="layer"
     id="layer1"
     transform="translate(0,-284.36216)"
     sodipodi:insensitive="true"
     style="display:none;opacity:0.81699997">
    <image
       y="284.47452"
       x="-1.7371554e-05"
       id="image4730"
       xlink:href="data:image/png;base64,iVBORw0KGgoAAAANSUhEUgAAAgAAAAMACAYAAABSD99OAAAABmJLR0QA/wD/AP+gvaeTAAAACXBI WXMAAAsTAAALEwEAmpwYAAAAB3RJTUUH4AEOBhQRR7xktAAAIABJREFUeNrt3Xl4XfV95/HvPTLP dGbamaSZJ2nDhE66YIFIWGLCjrEl0ULTJJ0EUixhfNhC2MECmUBCICRYYFZjwn6MLZkGmknSJiTF EsaENWyGIJBJ2k7J0DR5Oi3zzEzmmQnWmT/uPdu9knXuvee3nPN7v54nT4ys5Z77ub/7+Ui2ZBEA AOCcmqkPHARBmP5v3/drjt33oS1ZkD/5kz/5k797+Xsmw5/e4Mv01/w5HxAuhD+yRGTko/M+ICp/ +Mev9GX8S+7m37+XSP/vuJu/f8+0+HdMO5u/HDEicsiIu/l/eVz8L427m//v9ov8Tr/R/D1T4b+6 wY9f5tgICEVEVi9JXuDSCIgy3nxlkn/eEfCzS6uT//K9khe4NALiJ/+7X00++3NrBNSv8fDVyUsc GgFx/ldvTvJ3awTUr/GDy5OXGBwBnonwX73Fb/m96bucGAH18j+g9TdGDqt+CcTlf0Vr/uNX7z7/ n11cofLfs/U3+j/oTv7+va+2/J6/YdqZ8y9Hrm79nSUj7uT/5c2t+V857k7+v7u89Xf2MjMCPN3h T9/oz/s6FR8B9S/7f2j+V6jyCIi/7H/5/PnPNwKqVP7975//Fao8AuIn/43T875OxUdA/ZqWjsz/ GhUeAXH+XxmfP/9qj4D6Nf1+//yvYWAEeDrD3135V3wELFj+VR4Becp/vhHgSvlXeQTkKf+Kj4CF y7/CIyBP+Vd8BCxc/oZGgKcr/Ol1fu63mb63UiOgXv59+d9g5MjqlEBc/p/Pn//4l6uXf/9v53+D /t+tXv7++HTut/Fvm65c/tI/kv8tPjJSvfzXjufP/4vj1ct/cX/+t/iAvhHg6Qh/eq3f9tu+cV4l SqBe/ovbf8PLfr38JRCX/5r283/grPrbfP9D5c+//33tv+Gx/6o6+fsPTLf9tv4zb1Tm/MuxI+2/ 5Wcvq07+Y+Pt53/PA9XJv7e//bc84lgt+Xuqw++k/CsyAjou/yqMgG7KvyIjoOPyr8II6Kb8KzIC Oi//CoyAbsq/IiOg8/LXOAI8leF3U/6RnReVcgR0Xf6RNe8qXwnE5T/aff5bzi7lCKiX/3u7f0eD /7q8+fsPTnf9vvwndpb2/MtxI92/p9PWlDf/68e7z/+uLeXNf9/+7t/TYYNK8/dUhf/aNX5h77Nk IyAUEbnk94p7h2UaAXH5X1Jc/vEI2Kc8+ff/h+LeYZlGQPzk/9Brhb3Pko2A+m08/pLi3mOJRkCc /7rx4vIv1wio38a+/uLeo8IR4KkIv8jyL9kIKLz8yzQCVJR/8wgoQ/5Fln+ZRoCK8i/ZCCi+/Es0 AlSUf8lGQPHlr3gEeEWH//qXfWX37s6LrS6BUETk0t9V9wHWvNveEogymRhRl/+Wc+zPf+A96j7A 4L+xP3//v7yu7GP4j++0Pn/5E4U/rtJfY3/+N06ou/w7t9if/4cG1H2EQ4sfAV6R4b9+la/8XrZ0 BNTL/z+p/0A2joC4/Ferz9/SEVAv/99U/4FsHAHxk/+3Xlf+sSwdAfXb8gkNP6vawhGgo/wtHwHq y1/RCPCKCl9H+UdmRqwqAW3lHxl9jz0loLP84xFwrn356yj/eAT8W/vy11H+cQlsm7Eufy3lH1k5 al/+Gso/zv9rW+zLX0f5Rz5a3Ajwigj/9St97ff6TjtGQL3899L/gddYMALi8r9Yf/6WjIB6+b9b /we2YQTET/5/9br2j+0/ttOa/OU/G/hXqk5ZY0/+t0zoz/+OLfbkf8CA/o98SDEjwOs2/JkrfGP3 /syo0RIIRURG9zT36Bt9r7kSiMv/InP5bznPfP4D7zKX/+Cvm8/ff3jG2PX7UzPG85cTRs09AIZH zed/64S5/G/fYj7/AwfM5X9w9yPA6yZ8k+VveAQYL3+TI8CG8o9MnG8uf5PlHxn4DXP5myz/uAS2 zhjL32j5R1aMmsvfYPnH+W+YMJe/yfKPLBnoKn+v0/BnLjf/5G9oBNTL//3WXL7WERCX/4X25K95 BNTL/9/bk7/OERA/+f/1jDXXr3kE1D/Gn43a8wDQOALi/NdP2JO/3hFQ/xgHDdiTfxcjwOsk/JlR e5784xFwuZYSCJsK154R8H71JRCX//n25R8NEh35pwrXnhHw7/XlHxWuTaJBoiP/VOHa489G9eW/ YcK+/NdP6Mt/yYB9+R/U2QiodVz+i5K3DntSU8ITCaOXL0q9g0XJ64Q99f+upSdIT+p1e0T22DHH +4jer1f/ZdjT9P5rIr3XBPkfNL5fazf8uPwtvf6xt0Rp/nH5e6m3rmV/HV1/5nVSvw5r9WusSdPv p25Vz1vJtbbc2t18rKGb1OYfl7+l1z/5ttr84/KfFZFdjd/cFSa/nm38t4hImHr5LhF5J/X6syJS q6Ve1nRPL9mj/ut3Us9ns6m3r9WS95O6PcHxvUrzj8vf0uuXh8bU5h+V/2yqasKm2z8bJi+fneN1 ZsP6f9dqycvCpuvfqyf7vtKvM9u45bON+zh1e4Lzh9TmH5W/pdcvL022lf+isn/m3/KVgCv8XIXc tyaQdsO38TP/lq8E7JlvkKzb2f7y33Ke38ZThqGvBFzk776QG4bH2s9/8Nft/1msA++SXNc/9YsO PvObmrH+8e8/PJOrkIOT+trOX4ZHkyd0W50wmm+QPLKu/fwbf+nO6vxvnchVyMHocPv5HzyYFK6t DhzIN0hmplo+79ht+DtH7C9/lV/2WfMeNy8+Lv9z3c4/9W13TuYffdudq/mnvu3Ozfzv2OJ2/sm3 3VWKl+szf8fLf5Typ/xdfvLfNuN0/qkfvONm/l9zvPw/OljZC/QW/Mz/Ysc/83+3OH34ox+962z5 /xvHy/9xxz/z9x3/zP9Ox8v/0MFKX6RH+VP+lD/lT/lT/pS/W+U/5wCIy/8ix8v/XeL04Y/++V1n y/9fO17+Tzhe/qc5Xv53OV7+hw06cbEe5U/5U/6UP+VP+VP+bpW/SP27xyl/yt/J8v/HxjkPf03k t/+K8qf8KX/Kf9Cpi/bS4b9xntvlf9mvu/3k/8BZbuYflf+x/8rx8n/mDbef/D97mdv53/OA2/kf caxzFx7/EYDD5S8ul3/E1fKPuFr+EYfLX1wu/zh/d8tfXC1/kdQfAQCuqe3iPgDgLgYA3LVL5H3b uRsAuMnjLoCrKH8ADAAAAMAAAAAADAAAAMAAAAAADAAAAMAAAAAADAAAAMAAAAAADAAAAMAAAAAA DAAAAMAAAIr1j4PcBwAYAAAjAAAYAAAAoMoWcRfAVb+1lfsAAF8BAAAADAAAAMAAAAAADAAAAMAA AAAADAAAAMAAAAAADAAAAMAAAAAADAAAAMAAAAAADAAAAMAAAAAADAAAAMAAAAAADAAAAMAAAACA AQAAABgAAACAAQAAABgAAACAAQAAABgAAACAAQAAABgAAACAAQAAABgAAACAAQAAABgAAACAAQAA ABgAAACAAQAAABgAAACAAQAAAAMAAAAwAAAAAAMAAAAwAAAAAAMAAAAwAIAy+cWR3AcAGACAk36+ lPsAAAMAAAAwAAAAAAMAAAAwAAAAAAMAAACUyCLuArjqvU9wHwDgKwAAAIABAAAAGAAAAIABAAAA GAAAAIABAAAAGAAAAIABAAAAGAAAAIABAAAAGAAAAIABAAAAGAAAAIABAAAAGAAAAIABAAAAGAAA ADAAAAAAAwAAADAAAAAAAwAAADAAAAAAAwAAADAAAAAAAwAAADAAAAAAAwAAADAAAAAAAwAAADAA AAAAAwAAADAAAAAAAwAAADAAAABgAAAAAAYAAABgAAAAAAYAAABgAAAAAAYAAABgAAAAAAYAAABg AAAAAAYAAABgAAAAAAYAAABgAAAAAAYAAABgAAAAAAYAAABgAAAAAAYAAAAMAAAAwAAAAAAMAAAA wAAAAAAMAAAAwAAAAAAMAAAAwAAAAAAMAAAAwAAAAAAMAAAAwAAAAACFDYC91wdO3xHX/i+3Hwgn 3eF2/o/8X7fzDw7d2+074M5r3c7/9JPczv/JR9wdAL7v1xwfATWXR0CUv8MjoObyCIjyd3gE1Fwe AXH+7o6AmqsjwGt+ECy+ye0SWPu22yWw4na389/6fxwfAUcudrsE7l3rdv5nrnA7/6e3ujkAGAGM AEYAI4ARwAhgBLgzArz5HgSMAEYAI4ARwAhgBDACHBoAmRFwo+Mj4F8cHwEbHB8Bv3R8BBzt+AgI HB8Bn3V8BDxT/RHgLfQgYAQwAhgBjABGACOAEeDQAEg/CHrXuV0CY//d8RFwm+Mj4H87PgKW9bpd ApvG3M7/c46PgB9WdwR4eR8Eix0fAWsZAYwAl0vgGMe/EnC/418JOMvxEfDs1gpfXA5BEIQiIjOj fv0Fi5K3DntSU8ITCaOXL0q9g0XJ64Q99f+upSdIT+p1e0T22DHH+4jer1f/ZdjT9P5rIr3XBG0/ uHMKRURG3ytWX//YW2rznzjfT6ZjLfVeUr+Orj/zOqlfh7X6Ndak6fdTt6rnreRaW27tbj7W0E1q 8x/4DbH6+iffVpu/v3Wm/oJZEdnV+M1dYfLr2cZ/i4iEqZfvEpF3Uq8/KyK1WuplTff0kj3qv34n TF4+m3r7Wi15P6nbExzfqzR/WTFq9fXLQ2Nq898wkXy8MHV707d/NkxePjvH68yG9f+u1ZKXhU3X v1dP9n2lX2e2cctnG/dx6vYE5w+pzX/JgNXXLy9NtpV/O3dAdgRYWIC9Xwk6CVbafRCMvtfOATD2 D+0f7E7ynzjft7IAh27Wk//Ab9g5ACb/h578/a0zVhZg8Ie9WvKXFaN2DoA/H9OT/4YJKwswOG9I T/5LBuwcAC9Otp1/W/8WQPx3Asbs+3KwhvKP79ixX9j3pRzV5Z++b4dutS9/DeUf37eT/9O+/FWX f+bLwYP2/Z0ADeWf3LdbLPw7AYrLP5P/OUP25a++/JP79vlJ+/LvoPzbHgCZEfAVe0ogGiSKw8+O gH+wqPx/of7Jv2UE3GxP/tEg0Zl/qnDNl///1J9/VLhWPPkP9mrPP1W45m0Z05//efaMgGiQaM3/ RYtGwPOTHefvdfMgaOfP2ytS/tkR8Jb57HWWf8sIsOCHRWku/+wIsOCHReks/5YSON78CNBc/tn7 +iELRoDG8m/J/3zzI0Bz+Wfv65csGAFdlH/HA8CWEWCo/K0ZASbK36YRsGK9+fxNjoCt/8t8/iZH QNDfazx/oyNgfMx8/gZHQHD2CvP5mxwBz23tOn+viAfBPlfpL4Ho2xINhZ+54697U/8HTn1borHr j0eAgR8WFX1bog35Txr4YVGpb0s0nn/wJ/vof/JvfFuiDfnLf7lO/0dOvi3RfP4X6B8B0bclWpH/ DgMj4NmtheTvFfUg2OdKfSXQa0f5Z0fAf9X4mb8F5d8yAm7Ql78l5Z8dAf/sVvm3lMAn9Y2A6AcT 2ZS/fFvjCNg0Zl/+F+sbAdEPJrIq/x9pHAE/3FpY/l6RDwIdIyD60cSWhK99BKR+NLE1169zBEQ/ mtjG/HWMgNSPJrYufx0jIPrRxDbmr2UEBGvtzV/DCIh+NLGV+esYAc9sLTR/r+gHwT5fUFcClpZ/ dgT8rVvl3zICFP7ESEvLPzsCFP7ESBvLv6UE/rO6EWBp+Wcz+SuFI8DC8tc5Aiwtf30joODyL3QA pIPZ94riSyD654ktDT8TzPV/o6D837b3yb85/+Hri88/+ueJy5D/1D8pKP//U578gxP2Lf7J/8jF pclfHr6++Pd879ry5D8yXHz+Z64oT/7TU8W/56e3KsnfU/UgKHIElKT8lY2AMpS/yhFQkvJXNgLK UP4qR0BJyl/dCChB+ascASUpf3UjQFH5KxkA6aD61nRfAiUr/0xQ63a6Vf4tI6CAnxhZsvLPjoAC fmJkmcq/pQRO7HOt/LNZfW+dU+Xfkv8l3Y+AkpV/NqvXChgBCstf2QAoagTsvb6UT/6FjYBrDX6f d2EjYG3n+Z90R/nzn/p55+/gkf9b/vyDkzofAcGhe5c+f3mkixFw57Xlz3+08xEQnH5S+fOf6WIE PPmI8vw9HQ+CTkZAycu/6xFQ5vIvYgSUvPy7HgFlLv8iRkDJy7/7EVDi8i9iBJS8/LsfARrKX/kA yIyAkfwl0HdaJZ78syNgOv8brHui/E/+LSPgq/nzH/5C9fKf+ln+N5j62+rlHwznHwHBuX2Vy1+m 2hgBL6yrXv5r8o+A4Orh6uW/s40R8NMpbfl7Oh8EfRcvXAJ9Z1bqyT87An6Uo/yfrs6Tf8sIyPEP SA1/sbr5T+X4B6Sm/q66+QerFh4BwTl9lc1ftucYAc+vq27+ly88AoKrhqub/09yjIA3p7Tm7+l+ EOxuBFS0/HOPgCqWfzsjoKLln3sEVLH82xkBFS3//COgguXfzgioaPnnHwGay1/rAEgHu98FgWvl nwn2hh1ulX9z/ifP8Q9IVbz8M9k++pZb5d9SAqft51r5Z7N94ganyr8l/y+c7Fr5Z7P920etKH/t AyAzAs5JSqDvc048+WdHwPOp8v9h9Z/8W0ZA6h+QGv6Se/k/mvoHpKb+3r38gzOSERCc1edc/vJU agQ8u869/L+YjIDgS8Pu5f93qRHw91PG8jd2hwdBEM71wHBIaEsW5E/+5E/+5E/+AAAAAACgivgj AHP4EiD5kz/5kz/5G8vfMxn+1BVvymNXvDnnA8KF8If3vEpO2fOq+R4QlT/8t1/0kNxx0UPO5n/w u46XQ951vLP5b5/25bFp39n8V42InDIizuZ/x2Zf7hh3N/9Dlosc0m82f89U+NuuSP4atGMjIBQR WZkUv1MjIMr4a43iFxHXRkAoIvLRpPidGgFx+b/qJ+ffrRFQL//VyQtcGgHp8o/P/7h7+R+yPHmB yRHgmQh/a6r8I098wYkREIqIrEiVf+S0/1j9ERBluyFV/pG73BgBoYjIklT5Rw5zYARE2f4gVf6R rW6MgFBE5NTVrb+xwoEREGV75+bW/DeMu5P/octbf2OJoRHg6Q5/rvJ3ZATMW/4ujIDdlb8jI2De 8ndhBESZPjntz/s6FR8BoYjI6SPzv0KVR0CU6d2b58+/4iMgFBE5fPn8r2BiBHg6w99d+Vd8BCxY /lUeAXnKv+IjYMHyr/IIyFP+FR8BC5Z/lUdAnvKv+AhYsPxNjQBPV/jfy1H+kaeqNQJCEZETc5R/ 5IwKjYAow/U5yj9yd7VGQCgiclCO8o8cXqEREGX4wxzlH/nrao2AUETkcyP53+DPKjQCogzvHc+f //rx6uV/ZH/+NzhI4wjwdIT/nTbKP37bKysxAkIRkU+1Uf6Ro/cq/wiIsruljfKPXLP6ocrkf0Ab 5R/5vd88vjL5v9BG+UfeeNKvTP7njrT/hpedLpXJPxhvP/8td1Un/6P723/DwcP05O+pDr+T8q/I COi4/KswArop/4qMgI7LvwojoJvyr8gI6Lj8qzACuin/ioyAjstf5wjwVIb/nS+82fX72ljOEVAv //94VdfvaGkJR0AR5R/5ysUPlTb/bso/8vvvPr60+e/oovwjO8s5AkIRkQtGun9Ha0o4AqKsNo53 n/+Wu8ub/9L+7t/R4OFq8/dUhf/tAsq/pCMgFBH5ZAHlX8YREGV0cwHlX9IREIqI7F9A+ZdxBEQZ vfKaX9j7LNkICEVELrqkuHdYphEQZbRpvLj8SzYCQhGRZf3FvUOVI8BTEX6R5V+yEVB4+ZdpBKgo /5KNgMLLv0wjQEX5l2wEFF7+ZRoBKsq/ZCOg8PJXPQK8osP/poLyj2yyewSEIiIfV1D+kWUWj4Ao kxsVlH/kq3aPgFBE5EMKyj/yBxaPgCiT1173lX0My0dAKCJyyaXqPoDNIyDKZHxcXf6Wj4BQRKS/ X90HUDECvCLDV1n+lo8A5eVv8wjQUf6WjwDl5W/zCIiyeP1VX/nHsnQEhCIil65W/4FsHAFx+W9W n7+lI6Be/svVf6CiR4BXVPg6yj+y2a4RoK38I8stGgE6yz+y1q4RoK38I4stGgE6yz8y84xvXf46 yj8y+lmxLn8d5R+ZuMe+/HWUf2TgiOLy94oI/8Evvqn9XrfkKwGhiMhxH7hK+we24SsB0X1//cUP af/Y19oxAkIRkX3ffbz2D7y3BSMgLv9XfO0fe6cdI6Be/hfp/8BrLBgB0X0/sUl//lvusSf/gWX6 P/BgQSPA6zb8rxso/8i42REQioj8kYHyj/QbHAEmy9+SrwQYK38bvhIQ3eczL/nGrn/mOd94/qPn m2uf0bPFeP4TG83lP3Gv+fwHlprLf+DI7vP3ugnfZPnHDwIzI8B4+ccPAgMjwIbyNzwCjJe/yRFg Q/nHI+AF31j+Jss/HgHnirH8TZZ//PwfmMvfZPnHz/9Hd5e/12n4D1xpvvwNjYBQROTYva6y5vp1 joDoPh6zoPwNjYBQRKTXgvI3MQLi8n/Bt+b6NY+AsKl4nRoBcfkH9uSveQSETcVb6hHgdRS+ReUf eUDPCAibCtcax2oYAdF9u9ai8o+M6RkBYVPhWqNXwwiwsfw1jwDryl/nCLCx/DWPAOvKv9sRUOu0 /D0R8cLknewRtq6KntTN6RGRRan3t0hEZqPXEZFFtezb7/Rab6CXutFh479rqd/zQpHPXL1X7ov3 fb/WdviNorX1+r//0yuV5h+Vf61pPfaEc9/O9Mu8pv8OUy/zmm7Uz6PrD1tvbPS2taa38UTkkhtP UJp/VP62Xv9r//Kw0vwz5d+4jWFP9tfvNG7zbCiyq/Gqu0TkV5K8fLbx0aPL+1XqY82KyAffnv/Z LOxpnIGe1ju198BAaf6Z8rfw+sduFbXP/+nyTz0gw1rystnUdYSpX8+GrS+P3seuput/zy/nv4Vh rXH9tdaDM7RKbf6Z8rfw+ie3t5f/onbCH7/yTamJ3b7+xTdzFfLHrtlL2g2/38LP/Jv90QeuynX9 33gr/1Cw+TP/ZtHfS1iokC+46YS287fxM/9m0d9LWOj6d7z9cNv5zzzna/gHxLv8SsBLfq5C/khf 0Hb+qb90Z63R8/MNktvWdfCZ/7325z+x0c9VyP5w+/mn/tKdtQaW5hskj0+1fuKx2/A3Wfhlf03q P96xBOWv8st+15ag/FXmv3cJyl9l/tG33bmaf+rb7pzMP/q2O1fzT33bXaV4ecLf7Hj5L3e8/Nc6 Xv6LHS//GcfLf9Tx8p9wvPwHjqjuBXp85s9n/rvL/6uOl/8fuP6Z/5OOf+Z/uuOf+d/t+Gf+h1f7 Ij3Kn/Kn/Cl/yp/yp/zdKv85B0AU/kbHy3+p4+X/FcfL//cpf8qf8qf8XRoAlD/lT/lT/pQ/5U/5 OzYAKH/Kn/Kn/Cl/yp/yd2wAROEHjpf/0Y6X/zWr3S7/3/tNt8v/DcfL/zLXy/8ux8v/MPcuPPkK gLvlLy6Xf8Th8heXyz/icPmLy+Ufcbj8xdXyzwwAAADAAAAAAAwAAADAAAAAAAwAAADAAAAAAAwA AADAAAAAAAwAAADAAAAAAAwAAADAAAAAAAwAAADAAAAAAAwAAADAAAAAAAwAAAAYAAAAgAEAAAAY AAAAgAEAAAAYAAAAgAEAAAAYAAAAgAEAAAAYAAAAgAEAAAAYAAAAgAEAAAAYAAAAgAEAAAAYAAAA gAEAAAAYAAAAMAAAAAADAAAAMAAAAAADAAAAMAAAAAADAAAAMAAAAAADAAAAMAAAAAADAAAAMAAA AAADAAAAMAAAAAADAAAAMAAAAAADAAAAMAAAAAADAAAABgAAAGAAAAAABgAAAGAAAAAABgAAAGAA AAAABgAAAGAAAAAABgAAAGAAAAAABgAAAGAAAAAABgAAAGAAAAAABgAAAGAAAAAABgAAAAwAAADA AAAAAAwAAADAAAAAAAwAAADAAAAAAAwAAADAAAAAAAwAAADAAAAAAAwAAADAAAAAAAwAAADAAAAA AAwAAADAAAAAAAwAAAAYAAAAgAEAAAAYAAAAgAEAAAAYAAAAgAEAAAAYAAAAgAEAAAAYAAAAgAEA AAAYAAAAgAEAAAAYAAAAgAEAAAAYAAAAgAEAAAAYAAAAMAAAAAADAAAAMAAAAAADAAAAMAAAAAAD AAAAMAAAAAADAAAAMAAAAAADAAAAMAAAAAADAAAAMAAAAAADAAAAMAAAAAADAAAAMAAAAGAAAAAA BgAAAGAAAAAABgAAAGAAAAAABgAAAGAAAAAABgAAAGAAAAAA4wPAv2ovp++Ix9+80unrv+KGE5y+ /r/554edvv69jwicvv5r73G7CFac6Xb+W592eAD4vl9zfATUXB4BUf4Oj4CayyMgyt/hEVBzeQRE +Ts8AmqujgCv+UGwyvERsN3xEXD5jW6PgJ/8i9sjYLHjI2Ct6yPgDMdHwFOODgBGACOAEcAIYAQw AhgBjg4ARgAjgBHACGAEMAIYAY4OgPSDYKXjI2Cb4yPg846PgB8zAhgBjABGgGsDgBHACGAEMAIY AYwARoCjAyD9IDjZ8RHwqOMjYI3jI2Cn4yOg91C3S2DsTrdHwNDpbuc/+aSjA4CvBPCVgCj/yxwf AW+4/pUAx0fAWsdHwArHR8DWJyt8cXkEQRCKiExc+Wa8HLwweSd7hK2rokdEJEx+vSj1/haJyGz0 OiKyqJZ9+51e6w30Ujc6bPx3LfV7Xijymav3avvBnVMoIjKw11VWX//3f3ql0vzXXvxQ/Ibp9dgT zn070y/zmv47TL3Ma7pRP4+uP2y9sdHb1prexhORS9oYKp3kv/jdx1t9/a+1N1Tazn/mBb/lQsOe 7K/fadzm2VBkV+NVd4nIryR5+Wzjo0eX96vUx5oVkQ++nbrTm4PoaZyBntY7tffAQGn+o+eK1dc/ dqvi5//An/MBGdaSl82mriNM/Xo2bH159D52NV3/e345/y0Ma43rr7UenKFVavMfOFqsvv7J7e3l 384dkBkBNhbgSY2vUrQZrLT9INjrKiuv/5E5f1d5AAAgAElEQVTkqxRKrj89AmwswNFG+avOf/G7 j7fy+meS8leafzwCLCvA3o8EWvKPR4Bl1z92m2jJPx4BlhXgkK8n/3gEWHb9k4+3n39b/xZA/GdC Fv5xgIbyj+/YSQv/OEB1+afvWxv/ToCG8o/vWxv/ToDq8k/ft1HR2kRD+cf3baporaG6/DPP/759 +Wso/+T5/3H78u+k/NseAOk7+CSLRsCQnvLP3MGPWDQCJjWUf3P+oxaNgDV6yj9zH89YNAJ2aih/ m0eApvK3dgToKH+bR4Cm8rd2BHRa/h0NgPQd3c6ft1ek/DN3dJt/3l768m/O/xILRoDm8s/c169Z MAJ0ln/LCDjQfAloLv/sCLjV+OVrLf+WEbDKfP6ayz87Arabz7+b8u94ANgyAobNlL81I2DKQPnb NAIMlb81I8BE+ds0AnoPDoznb3IEjN0uxvM3OQKGTjOfv8kRMPlE9/l7RTwITjQwAlaaLf/MHf89 AyNgm8Hyt2EEXGa2/I2PgDcMln9z/vt8WH8JRN+WaEP+192k/wOnvi3ReP5DK/XnH31bog35T27T /4FT35bY1fV7RT0I/vTL+kbAyXaUfyaAv/xv+kbAoxaUf3P+F9+kbwSssaP8Mxn86G19I2CnBeXf MgL201cCvXaUf3YE3KDxM38Lyr85/+GT9eU/dLp9+U89qvEz/yeLy98r8kGgYwSstKv8tY+AbRaV v4kR8Hm7yl/7CPixReVvYgREP5rYxvx1jIDUjya2Ln8dIyD60cQ25q9jBKR+NHEh1+8V/SBQOQIs LX9tI8DG8tc5Aiwtf20jwMbyb85/333UlYCl5Z/J5Prr3Cr/lhEwrC5/S8s/OwKmylP+hQ6AdDCf UDACVtld/plgvqVgBGy3uPyb879QwQi43O7yz2TzsoIR8BOLy785/w/vW3wJWF7+mWxuut6t8m/O f6WCEWB5+Wey2aZgBKgo/8IHgKoRUJLyVzYCylD+KkdAScpf2QgoQ/mrHAElKX9lI6AM5a9yBJSk /JWNAFXlr2QApIP6WAEjoGTlnwnqGwWMgDKVf3P+FxQwAkpW/pmsdhQwAspU/s35H9DXfQmUrPwz Wd2yzq3yb85/VQEjoGTln8lqewEjQGX5KxsAmRFwTecjwC9n+WdHwFudj4DHS1j+RY6AK244ofT5 dzMC/uafHy59/h/pYgTsXc7yz2R2Wxcj4NoSln9z/n4XI2DFmeXP//EuRsDWp9Xn7+l4EHQyAkpe /l2PgDKXfxEjoOTl3/UIKHP5FzECSl7+XY+AMpd/ESOg5OXf9QjQUf7KB0A6wOPaGAGHf7kS5Z8J 8ME2RsDd/6385d+c/3ltjIAzbjqhcvm/2MYIeOrthyuX/0fbGAF/2BdULv+vtTEC/nydVC7/09oY AecNVy//J9oYAS9O6cvf0/kgGMwxAo6sVvlngtySYwTcW6Hyb87/nBwj4MxqlX8my+dzjICnK1T+ zfkfkWMEDFar/DNZ3pNjBGypUPk3539Gjp8TcM5wdfN/KsfPCXh+Sm/+nu4Hwe5GQEXLP/cIqGL5 tzMCKlr+uUdAFcu/nRFQ0fLPPQKqWP7tjICKln/uEaC7/LUOgIVGQMXLf8ERUOXyzzMCKl7+C46A Kpd/c/5HzfETAyte/pls77vBrfJvzv+zc4yAipd/JttnHrWj/LUPgHTAy1Ij4JhrnCj/TMCbUiPg /reqX/7N+X8uNQLOcqP8Mxn/MDUCnnWg/JvzX5oaAce4Uf6ZjDemRsD9DpR/c/5npUbAWcPu5f9s agQ8O2Uuf2N3eBAE4VwPDIeEtmRB/uRP/uRP/uQPAAAAAACqiD8CMIcvAZI/+ZM/+ZO/sfw9k+FP +w/ItL9pzgeEC+GPyLEyIsvme0BU/vCP+2My7n/V2fz7pVf65Q+czX/6L3yZ/qbv7vn/Y5GRj4u7 5/8GX8ZvdDf//v1E+j9kNn/PVPiv+hPxyxwbAaGIyGoZiF/g0giIMt7sr41f5tgICEVElsvi+AUu jYD4/H/DT86/WyOgfv4/lrzApREQn/8bkvwdGwH1879f8gKTI8Azcvj9r7f8niMjoFH+f9TyGy6M gKT8W/+tVEdGQKP89235DRdGQHz+v+63nv/v+O6c/9bjLyOfEnfO//Wt+Y/f4k7+y1uPv/QfYCZ/ T3f40/5fzPs6FR8BjS/7//G8r1DlEZB82X/+H4VW8RHQ+LJ/37yvUOUREJ//P/fnP//VHgH18/+H 879ClUdAfP6vmz//io+A+vnfZ/5XMDECPK2HfzflX/ERsGD5V3kE5Cn/io+ABcu/yiMgT/lXfAQs WP5VHgF5yr/iI2DB8jc1Ajxth9//Ru63mfY3VulB0Cj/j+V+gxFZWpkngaT8b8j9NuP+VyqXf7/s l/sN+uX3K5f/9ISf//w/7Ffv/A/kf4ORE6R6539t/vzHb61e/v2L879B/4H68ve0HH7/L9t+2zf8 V6rwIGiU/5+2/YaXyUWlfxJIyv/mtt/2gWp8JahR/vu3/YbHVuArQfH53+S3f/7X+tU5/8vaf8PL Fkt1zv9X28//gdHq5N//B+2/4bHv1ZO/p/zwd1D+FRkBHZd/FUZAN+VfkRHQcflXYQR0U/4VGQEd l38VRkA35V+REdBx+escAZ7Sw+9/t+v3tdPfUcYHQaP8P931O1ojF5TuSSAp/1u7fl9b/PtLm3+/ HNj1OxqUY0qb//T9fvfnf8wv7/k/pvt3tKZXynv+v9p9/lvWlDf/bso/Pv/vU5u/pyr81/zvFfY+ SzYCQhGRS+TEwt5hmUZAUv7rC3ufJRsBjfI/qLB3WKYREJ//wC/u/JdrBNTP/9HFvcMyjYD4/F9T XP4lGwH18/97xb1DlSPAU3L4Cyz/ko2Awsu/TCNARfmXbAQUXv5lGgEqyr9kI6Dw8i/TCFBR/iUb AYWXv+oR4BUd/uv+VmX37k7/BZsfBKGIyKWyQtkHWCPnWvskEGUy4W9Q9jG22P3dIaGIyIAsUfYB Bi3+7pD4/N/tqzv/1/v2n//D1X2ANfuK/ef/anX5b7nM/vwHPqjuAwz+VvH5e4Uefn9S+b1s6Qho lP+Q8g9k4wjQUf6WjwDl5W/zCNBR/paPAOXlb/MI0FH+lo8A5eWvagR4hR1+DeUfmfGfs+lBoK38 I6NytjVPAjrLPxkB91mXv47yT0bAUdblr6P84/N/g2/f+T9c3wcc3U/sO/9X68t/y+fty19H+cfn /7eLy98r5PD7j2m/13faMQIa5X+K9g+8xoIRkJT/Hdo/9hY/sCb/ATlE+wcelKOtyf/1233959+O EVA//wfr/8BrLBgB8fn/kv78LRkB9fP/O/o/cFEjwOs2/Bl/u7F7f8Z/1uSDIKx/Nr7K2PWPylnG ngRMln8yAu41nr+J8k9GwJHG85/Z4Js7/2b/Fbn6+V8i5s6/wX9FLj7/V5rLf8vl5vMf2Mtc/oPv 7z5/r6vDb7D8kxHwtIkHgfHyT0bAmdqfBGwo/8iEf4+x/E2Wf2RAjjCWv8nyj8//zb65879EzJ// /cXc+b/SfP4TV5jL32T5x+d/z+7y9zo+/P4PxBaaR0Cj/E+15vp1joCk/O+y5vo1j4BG+R9mzfXr HAHx+b/Vt+f86x0B9fN/oNhz/jWOgPj8f9Ge/DWPgPr5/4A9+XczAryODn+jcG0SDRLFD4KwqXAt GgGnKn8SSMr/HuuuPxokOvJPFa5FI+AwbflHhWvV+dfzD8iETYVrz/nX8A/IxOf/CvvyjwaJlvO/ p335pwZJW9df67z83xGR2cZHDBv/Hf3XO41fzYrIrsbLfxXftlB2icg7UhOv8fJms7JH44ephI2P Ubcrflkt/r3ZzO3pDZbmvnjf92ttH/64/O28/jHZqDT/pPzTH1tS15m+zWHqdXalrj8UkV1Sk1rm 7dJ3dY98IPW6zY/t2cZNn039fv32DAVnKc0/KX87r39SnlV7/qPy90Skp3GraiKyR+pWLmr8v5f6 CD1Nr79IpBYmL0u/vXgie7ySet2mT1dCr/5uw1rqU5jG7ek9J1B7/vcXq69/7HlRe/6vSOVfS72X 1KeSoTfHp5de6vY3Xr8mTfdP6lb1vDXH9dda/z/+/cbtGbpKbf5x+Vt6/ZNvtpf/ovbKv60nF0Nf Cdieq5D7go938Jn/WU1P+hZ+JiCrcl3/Ovlm28s/+kt3Nkv+XsLuC3k4uLDt/AflyKZCtvAzgfjv Jez++qfk5fY/87/R1/APiHd5/jf4uQq5b2XQ/vn/kPUPfxldkm+QrNvW/mf+Wy7325gMhs7/lX6u Qh7+fPv5D77f/p/FPLBXvkEy9ePWjbLb8KNvu3NQKJL5tjunJOUfOJ1/6tvunMw/+rY7Z8//fuL2 +f+82/mnvu2uUrx8n/m7Xf6jzpf/fY6X/1FO5z/jePmPUv6Uf0V5C3/m/4Ljn/mf63j5b3S8/Jc6 nX/0o3edPf/7Ol7+lzle/r9V7Yv0KH/Kn/Kn/Cl/yp/yd6v85xwASfnvcLz8L3C8/O93vPyPcbv8 xxwv/17Hy3+N4+X/Pjcu1qP8KX/Kn/Kn/Cl/yt+t8s8MAMqf8qf8KX/Kn/Kn/B0bAFH4b/ivOB3+ ZXKR04f/AX+T0/kfK8uczv+NtW4/+V+22O3yf2DU7fyPfa97Fx5/BcDh8heXyz/icPmLy+Ufn393 y19cLv/4/I+6nb+L5Z8ZAAAAgAEAAAAYAAAAgAEAAAAYAAAAgAEAAAAYAAAAgAEAAAAYAAAAgAEA AAAYAAAAgAEAAAAYAAAAgAEAAAAYAAAAgAEAAAAYAAAAMAAAAAADAAAAMAAAAAADAAAAMAAAAAAD AAAAMAAAAAADAAAAMAAAAAADAAAAMAAAAAADAAAAMAAAAAADAAAAMAAAAAADAAAAMAAAAGAAAAAA BgAAAGAAAAAABgAAAGAAAAAABgAAAGAAAAAABgAAAGAAAAAABgAAAGAAAAAABgAAAGAAAAAABgAA AGAAAAAABgAAAGAAAAAABgAAAAwAAADAAAAAAAwAAADAAAAAAAwAAADAAAAAAAwAAADAAAAAAAwA AADAAAAAAAwAAADAAAAAAAwAAADAAAAAAAwAAADAAAAAAAwAAAAYAAAAgAEAAAAYAAAAgAEAAAAY AAAAgAEAAAAYAAAAgAEAAAAYAAAAgAEAAAAYAAAAgAEAAAAYAAAAgAEAAAAYAAAAgAEAAAAYAAAA MAAAAAADAAAAMAAAAAADAAAAMAAAAAADAAAAMAAAAAADAAAAMAAAAAADAAAAMAAAAAADAAAAMAAA AAADAAAAMAAAAAADAAAAMAAAAGAAAAAABgAAAGAAAAAABgAAAGAAAAAABgAAAGAAAAAABgAAAGAA AAAABgAAAGAAAAAABgAAAGAAAAAABgAAAGAAAAAABgAAAGAAAADAAAAAAAwAAADAAAAAAAwAAADA AAAAAAwAAADAAAAAAAwAAADAAAAAAMYHwN7Bh52+I66Vm5y+/pOClU5f/yOyzenr33tN4Pb53+l2 EZw05nb+j/zC4QHg+37N8RFQc3kERPk7PAJqLo+A+Py7OwJqLo+A+PyPuZ2/iyPAa34QLA4OcPpB sFZucfpJYEVwitP5b5XHnM5/8ajbJbB2xu0RsGKt2/lv/bmjA4ARwAhgBDACGAGMAEaAowOAEcAI YAQwAhgBjABGgKMDIDsCPuL4CLjN8RGwyvERsN3tEXCJ4yPgNcdHwLWOj4B/dHQAMAIYAYwARgAj gBHACHB0AKQfBL3BwU4/CMbkdsdHwKmOj4AfOJ1/72q3S2DsVcdHwFcdHwE/c3QAZL8S4PYIWOv8 CPAdHwGPu/2VAMdHwFpGACOgqheXRxAEoYjIjP904yXviMisiIiEEjb+O/qvdxq/mhWRXY2X/0pE wsbLd4nIO1ITr/HyZrOyhxyUeh+RXfHLavHvzWZuT2+wtO0Hd06hiMionGn19Y/JRqX5T/j3xLdR 5rht2dscpl5nV+r6QxHZJTWpZd4ufVf3yAdSr5uJoPE+ayIym/r9+u0ZCs5Smv+AHGH19U/Ks2rP /81+8qlDT+NW1URkj9StXNT4fy/1EXqaXn+RSC1MXpZ+e/FE9ngl9bpNn66EXv3dhrXUpzCN29N7 TqD2/O8vVl//2PNqn/8nrkjlX0u9l9SnkqE3x6eXXur2N16/Jk33T+pW9bw1x/XXWv8//v3G7Rm6 Sm3+A3uK1dc/+WZ7+bdzBzSNAPsKsDc4qpNgpe0nATnTyusfk/vaPtid5F8fAfYV4FBwppb86yPA vuuflKe15D9zs29lAfaeH+g5//vbOQDGXhI95/8K38oCHLpaT/4De9o5ACZ/2n7+bf1bAMnfCTjM ui9laCj/+I4dk7usu37V5Z++b4eC0627fg3lH9+3k/Kkddevuvwz5/9C+74crKH8k/P/sn1fylVd /pnzf419+Wso/+T8v2Vf/p2Uf9sDIDsCjrKo/A/TEX7TCLjPovK/S/nhbx0BZ1pU/qdrzz9VuBaU /5Pa848K14rzf2Gg//y/ZFH5vyz6z//V9uQfDRKt5/+nFpX/W53n73X1JNDGn7dXpPybRsBGp8q/ dQScZf7w6y3/phHwrPnDr7H8W87/OeZLQHP5Z8//82L+/Gss/5bzf5X5/DWXf/b8v2k+/27Kv+MB YMsI6A0OMRG+NSNgTO7QfvhtGgErgtOM529yBGyVJ4znb3IE9F4cmD//BkfA2I/E/Pk3OAJWfMV8 /iZHwNZ/6D5/r4gHwT7BMdovPvq2REPhZ+746+R+7R849W2Jxq7f5AiIvi3RhvxNjIDUtyUaz3+f s/WXQPRtiVac/+f0f+DUtyWaP/9f0p9/9G2JVpz/vzdQ/j8rJn+vsCeBYEDjZ/5WlH/TCJjQ+Jm/ +fJvHQHnaCz/U63Lf1L0fSqY+sFE1uS/zxn6SqDXjvLPnv+nNH7mb0H5t5z/L+rL35Lyz57/vytf +RcyAHSPgOhHE1sSvvYRkPrRxNZcv84REP1oYhvz1zECUj+a2Lr8dYyA6EcTW3n+NYyA1I8mtu/8 axgB0Y8mtvL8axgBqR9NXMj1e4U/CQSDrpV/0wjY4lT56xwBlpa/thFgY/nrHAGWlr+2EWBj+esc AZaWv7YRUHT5FzoA0sHsGxynoPwPsDn8TDDXy4MKyv8Waw9/c/7DwXkKyv+U0uQ/JS8qKP/HSpP/ vn7xJRD988SlOP8Kfmp06p8ntv/8X1F8/tE/T1yK8/83Csr/52ry95Q9CRQ4AkpS/spGQBnKX+UI KEn5KxsBZSh/lSOgJOWvbASUofxVjoCSlL+yEaCq/JUMgHRQfcEfu1b+maDWyV84Vf6tI+B818q/ aQR0/9NiylT+Lef/lO5LoGTlnz3/j7lV/i3n//Pd51+y8s+e/x/bXf7KBkB2BHy84/exd/DhMobf NAK+2fE7uFZuKt3hbx0BF3b8Pk4KVpY+/ynp/OfGPiLbSp9/38rOS2DvNUH5z/+2zt/BtTul/Oe/ ixFw0lj58+9mBDzyC/X5e1qeBDoYASUv/65HQJnLv4gRUPLy73oElLn8ixgBJS//rkdAmcu/iBFQ 8vLvegToKH/lAyA7Aj6V+2367P7b3h2OgO/kfoN1Fv9t785HwOrcbzMcXF65/Kck/z8oPyU/qVz+ fUP5S6Dv+KB6538y/xuse0iqd/7X5M9/+Pzq5T+1M/8bTL2kL39P65NA8Okc5b+ySuE3jYDv5ij/ bZU5/K0jYCRH+X++svlPyXSO8v9xZfPv+7OFS6DvY0F1z/9f5yj/b0h1z/+lC+c/fEF18596PUf5 79Cbv6f9SWA3I6Ci5Z97BFSx/NsZARUt/9wjoIrl384IqGj55x4BVSz/dkZARcs/9wjQXf5aB0A6 2P2Cz7hW/plgb5DvO1X+zfmfHFziWvlnsn1UXnOq/FvO/2cC18o/e/6/71b5t5z/SwLXyj97/l+z o/y1D4DsCBhyrfybRsCkU+XfOgLWuFb+TSNgp1Pl33L+P5WUQN+fBu6d/9RfCVr3l+Le+V+d5D98 sXv5P5r6K0FTBv9VR2N3eBAE4VwPDIeEtmRB/uRP/uRP/uQPAAAAAACqiD8CMIcvAZI/+ZM/+ZO/ sfw9k+H7j0yL/73pOR8QToR/0ojIiSPzPSAqf/j928bFXz/ubv4f6Rc5qN/d/F+ZFv9lh8//RSMi Fzp8/jeNi7/J4fO/rL/+P4P5e8bC/17y1yAdGwH1azwx9ZPxHBoBcf7rNyf5uzUC6td40PLkJQ6N gKT8U+f/ZQfP/0Wp83+hg+d/U+r8b3Lw/C9LnX+DI8AzEv5k649F9b/jxJNA/dqG5vixuJ+q/pNA nP/tm1vzv2XcnfwPXt76Owf0u5P/q6+05v+iQ+d/9UWtv3OeQ+d/86bW/Dc6dP6XL2v9naVmzr+n Pfxt8/8ktIqPgPo1rdzNj8Ot8AiI8//a+Pz5V3sE1K/po/3zv0aFR0Cc//SO+fN/0YHzP3LB/K9x ngPnf/z++fPf6MD57z9m/tcwMAI8reFvW/hnoVd0BCxc/hUeAXnKv+IjYOHyr/AIyFP+FR8BC5d/ hUdAnvKv+AhYuPwNjQBPW/jbp3O/jf+XlXoSqF/DqpH8b/Gn1XkSiPO/czx//jePVy//Q/vzv8X+ /dXLf/qF/Pk/X8HzP3Ju/rc4p4Lnf3xj/vyDCp7//qX53+Jofeff0xL+k9Ntv63/xnNVeBDUb/vp I+2/5WVnl/5JIM7/7vH283/gvurkf3h/+2957FHVyX/6uQ7O/7erk//I2R2c/09WJ//xoIPzf3N1 8u8/uoPzv7+W/D3l4XdQ/hUZAZ2XfwVGQDflX5ER0Hn5V2AEdFP+FRkBnZd/BUZAN+VfkRHQeflr HAGe0vCfme76ffk7Xyzjg6B+Wz870v17WnNe6Z4E4vzvGe8+/y0by5v/Ef3dv6fBpeXNf/rZAs7/ d8qb/8hZBZz/T5U3//F7Czj/t5Q3//4jCzj/ByjN31MW/nOvFfY+SzYC6rfx7EuKe48lGgFx/veN F5d/uUZA/TYe1V/ceyzRCIjzf+2ZAs//d8qX/yWfLfD8f6p8+Y/fU+D5v6V8+fcfUeD5VzcCPCXh F1j+JRsBxZd/iUaAivIv2QgovvxLNAJUlH/JRkDx5V+iEaCi/Es2Aoovf8UjwCs8/BdeV3bv+jtf tvlBUL9N516q7iOsudDaJ4E4/2BCXf5bNtmf/9ED6j7C4DL783/9SYXn/7v253/p6QrP/6ftz3/i boXn/1b78x84XOH5P7Dw/L1Cw9/xuvJ72dIRUL8tF1yq/iNZOALi/O+fUJ+/nSOgfluOGVD/kSwc AUn5/0DD+f+uvflfeqqG8/9pe/OfuEvD+b/V3vwHDtNw/osdAV5h4Wso//hBMLPDpgeBvvKPjF5g zZOAzvJPngTuty9/HeUfPwkcY1/+Gso/Of/fsy9/HeUfn/8T7ctfQ/kn53+9ffnrKP/4/B9UWP5e IeH/6HXt97q/8xUbHgT1j33xpfo/8pqLjD8JJD/be0J//nZ8JaDxs70H9H9kC74SkJT/YwbO//fs yf/SUwyc/xPtyX/iDgPnf709+Q8cYuD8FzMCvK7Dn54xdu/7M0Z/YljjW31GzT38Rs39xLDkL/xM mMt/y7j5/PsHzOU/2G8+/5ltBs//983nP7rS4Pn/jPn8J75m8PyvN5//wEcNnv/uR4DXVfgGyz95 EnjVxIPAfPnHTwKrtT8J2FD+cf4Tm83lb7L8IwPLzeVvsPyT87/VXP4myz8+/yvM5W+w/JPzv8Fc /ibLPz7/S7rK3+v88L8uttA8AhqH/1Jrrl/nCEgO/4Q9+esdAY3DP2BP/hpHQHL+pyw6/1sNnP9h i87/CgPn/3aLzv8GA+f/YIvOf+cjwOvs8L8qtokGieIHQdhUuBY9CVyq/EkgOfyb7cu/MUi05J8U rkVPAgP68m8Url3nf0rj+V9h4fkf1nj+N1h4/m/XeP6XWHj+D+4o/1rn5d8jsqvx5rOhyK7Gi3c1 /ltEZFfq5e+IyKwkL/+ViPTUsm8XmRWR3l82Lqcn9RuNX4ehSM1r/F6YuT1BX2/+B43v19o//Kut vn5ZN6Y2/7j8veRDh6lrm23cvvjXqZdHrxM27pdaLfv76Xv6ff+v8Wtvjr0aNm66l3ysxu0JhofU 5h+Xv53XL1OTis//1tRtadyesJY8NsVLHrNhLXWbvdTj1xOZ9eofPpzn8f/vfjLH47+WvH1tjo8r ngS9yxSf/xVWX7+MbVJ8/jek3rSW+rWX/Dqc5+Xx7Y9ep5a95vQ9/Wv/lLoPm29u6mVh9v0HQ59T fP6XWH39MvnDtvJf1N7h7/5n+ytfgtMzuQo5OKKvg+U/Itb/NM6R0XyD5J517S//LeP25z8+kauQ gzOG289/sD9VuJbqH8g3SJ6aaj//me+nCsfS/Ge25SrkoO/gDs7/Z6x//MvoynyDZN3tHZz/9aLh X5Dv8isBX8tVyMGw38H5P8j+H8Y88NF8g2Tq8cynFAuH3/i2OwfVI0++7c4pyeHf5Hb+g8vczr/x bXfunv8THT//6x0//wdV8uK8fMt/h9vhJz94x9HDf7/jh/8Yt/Ofcbz8Ryl/yr+avIWX/8uOL/8L +cyfz/wd/sz/u46f/087fv5vdfz8H1jpi/Qof8qf8qf8KX/Kn/J3q/znHADJ4X/R8cN/nuOHf6Pj h3+p4+X/HcfP/6ccP/+3OH7+D3DiYj3Kn/Kn/Cl/yp/yp/zdKv/MAKD8KX/Kn/Kn/Cl/yt8dXib8 N55zO/zLznb78D9wn9v5H3uU2/m/8W3Hz/8nHT//Nzt+/vd37sLjrwA4XP7icvnH+btb/uJy+Sfn /9uOn/9POn7+b3b8/O/v5GV7AgAAGAAAAIABAAAAGAAAAIABAAAAGAAAAIABAAAAGAAAAIABAAAA GAAAAIABAAAAGAAAAIABAAAAGAAAAOzTdAAAAAmFSURBVIABAAAAGAAAAIABAAAAGAAAADAAAAAA AwAAADAAAAAAAwAAADAAAAAAAwAAADAAAAAAAwAAADAAAAAAAwAAADAAAAAAAwAAADAAAAAAAwAA ADAAAAAAAwAAADAAAABgAAAAAAYAAABgAAAAAAYAAABgAAAAAAYAAABgAAAAAAYAAABgAAAAAAYA AABgAAAAAAYAAABgAAAAAAYAAABgAAAAAAYAAABgAAAAwAAAAAAMAAAAwAAAAAAMAAAAwAAAAAAM AAAAwAAAAAAMAAAAwAAAAAAMAAAAwAAAAAAMAAAAwAAAAAAMAAAAwAAAAAAMAAAAwAAAAIABAAAA GAAAAIABAAAAGAAAAIABAAAAGAAAAIABAAAAGAAAAIABAAAAGAAAAIABAAAAGAAAAIABAAAAGAAA AIABAAAAGAAAAIABAAAAAwAAADAAAAAAAwAAADAAAAAAAwAAADAAAAAAAwAAADAAAAAAAwAAADAA AAAAAwAAADAAAAAAAwAAADAAAAAAAwAAADAAAAAAAwAAADAAAABgAAAAAAYAAABgAAAAAAYAAABg AAAAAAYAAABgAAAAAAYAAABgAAAAAAYAAABgAAAAAAYAAABgAAAAAAYAAABgAAAAAAYAAABgAAAA wAAAAAAMAAAAwAAAAAAMAAAAwAAAAAAMAAAAwAAAAAAMAAAAYMsACPY+2O174trbnb784KRT3c7/ kR+4nf/en3D8/H/L8fN/oePn/2V3B4Dv+zXHR0DN5REQ5+/uCKi5PAKS8/8Jx8//txw//xc6fv7d GwFey4Ng8UFuPwjWrnf7SWDFKrfz37rd7fwXf8zx8/8Nx8//BY6f/x1uDgBGACOAEcAIYAQwAhgB 7owAb/4nAUYAI4ARwAhgBDACGAHODIDsk8D+jj8J3Oz4k8BKx58Etjk+Av7Y8fP/F46f//MdP/8v uTkAGAGMAEYAI4ARwAhgBFR7BHi5HgS9B7j9IBi7xfEngVMcfxJ4zO38e49z/Pw/6Pj5P8/x8/+i mwMg+5nAhx3/TOAmvhLAVwIc/kqA4yNgLSOAEVDVi8shCIJQRMSfebXxkh6RXY03nw1FdjVevKvx 3yIiu1Ivf0dEZiV5+a9EpKeWfbvIrIj0/rL+67An9RuNX4ehSM1r/F6YuT1BX2/bD+6c6h9odLXV 1y/rxtTmP7E52Y5h6p6ZTd32MEz9OvXy6HXCxv1Sq2V/P31Pv+//NX7tzbFXw8ZN95KP1bg9wfCQ 2vwHllt9/TI1qfj8b03dlsbtCWvJY1O85DEb1lK32Us9fj2RWa/+4cN5Hv//7idzPP5rydvX5vi4 4knQu0zx+V9h9fXL2CbF539D6k1rqV97ya/DeV4e3/7odWrZa07f07/2T6n7sPnmpl4WZt9/MPQ5 xed/idXXL5M/bCv/du6AphFgXwEGvft0Eqy0/ySw2s4BMHZd2we7o/wnNltZgMHQkJ78B5bbOQAm J/XkP7PVygIMevs1nf8Vdg6AsXFN53+DlQUYDJ2t6fwvsXMATD7Xdv5t/VsAyZ8J7mfdlzI0lH9y x47dYN/XchSXfyb/oZPty199+Sf37eSj9uWvuPyz53/QwvPfr/H8b7Hw/I9rPP/nWHj+z9Z4/p+3 8Pw/11H+XudPAvtYdPj30xF+05PAdRYd/huUH/7WJ4Ehiw7/yfrzn5y06PA/qj//RuHacf4HDZz/ cYvO/xYD5/9si87/OQbO/3MWnf/nO87f6+pB0Maft1ek/LN3dHt/3l768m/Jf3jIgsN/srn8pywY ARrLv3UELLPg/A+ay7+9P28vffm3joDPWXD+zzGXf3t/3m5d+Xc8AGwZAUFvn4nw7RkBY+u0H36b RkCwYth8/iZHwNYp8/kbHAFB7x+Zz9/kCBj7uvn8DY6A6DsTjOZvcgQk35nQ8fV7hTwIPqT/jwOi b0s0FH72jr/RwB8HJN+WaOz64/xPHjJw+Ffak/+jBkZA8m2J5vPf5xgD5/84e/K/7n4D5/9Be/If Osu18m8aAc+Wsvy7HgCZB8EB+kZA9IOJDIefDeAWjSMg+cFExq8/zv+UIY2H/xT78n9M4whIfjCR Pfnvc5TG83+cfflfd5/G8/+gffkPnela+TeNgKdLV/6FDADdIyD60cSWhK9/BCQ/mtia69c5Aiz5 zN/cCLDgM3+TIyD60cRW5q9jBCQ/mti+/DWMgOhHE1uZv44RkPxo4kKu3yv8QfCRfRQefivLPxvI bQpHgIXl35K/P6Tw8K+0P//HFY4AC8u/dQQc4Vr5N42Ae5wq/9YRcIZr5d80Ap4qTfkXOgAyD4KD 91Vw+A+yOfxsMLdfr+Dwr7f28Lfkf+qwgsO/qjz5/2BKweHfXp789z1Uwfn/WHnyv/5OBef/G+XJ f/h0Bef/gvLkP/WkgvO/Q0n+nrIHQYEjoCTlr24ElKD8VY6AkpS/uhFQgvJXOQJKUv7qRkAJyl/l CChJ+asbAYrKX8kAyDwIDu1zrfyzQd25zqnyb8n/9OECDv+q8ub/ZAEjoETl35J/3yGulX82q3V3 OFX+rSPgNNfKv2kEPGF1+SsbAJkHwRGdj4Bg74PLGH42sHu6GAHX3l66w9+S/xmdj4DgpFPLn/9T XYyAR35Q/vz7Du7i/H+i/Pmvu72L8/+t8uc/7Hdx/i8sf/5Tj3dx/l9Wnr+n5UHQwQgoefl3PwJK XP5FjICSl3/3I6DE5V/ECCh5+Xc/Akpc/kWMgJKXf/cjQEP5Kx8AmQfB0vwjIPh4XxXCzwa4sY0R 8M11pT/8Lfl/Nv8ICC4crl7+z7QxAl6eql7+fR/Jn/+SCp7/dbflf4sNFTz/w6vy5+9X8PxPbc// Fo/rO/+e1gfBsoVHQPCxSh3+bJCbcoyAb1Tn8Lfk/7mFR0BwwXB18/9hjhGwY6q6+fcdsHD+B1X4 /K+7ZeHXXF/h8z98ysL5r6rw+Z96bOHX3K73/HvaHwS7GQEVLf/8I6CC5d/OCKho+ecfARUs/3ZG QEXLP/8IWO/A+d/NCKho+ecfAdv1n3/PyINgYD/Xyj8b7MQNTpV/S/5nn+xa+Wezfe5Rp8q/Jf/9 Puxa+WezveEmp8q/Jf+TV7pW/tlsH91mRflrHwCZB8FxyQgIjnPi8GcDfjA1Ah6s/uFvyf+8ZAQE 5w27l/+LqRHw4pR7+X84df73d/D835Q6/zc7eP5Xps7/SgfP/7bU+d9m7vwbu8ODIAjnemA4JLQl C/Inf/Inf/InfwAA4ID/D32oi1tEWqq0AAAAAElFTkSuQmCC "
       preserveAspectRatio="none"
       height="767.88763"
       width="511.92511" />
  </g>
  <g
     inkscape:groupmode="layer"
     id="layer2"
     inkscape:label="Starts">
    <g
       id="g4783">
      <g
         id="g4719">
        <g
           id="g4655">
          <g
             id="g4591">
            <g
               id="g4527">
              <path
                 inkscape:connector-curvature="0"
                 id="path4788"
                 d="m 1,31.5 62,-31 0,191 -62,-31 z"
                 style="fill:url(#linearGradient4815);fill-opacity:1;fill-rule:evenodd;stroke:#9f9f9f;stroke-width:1px;stroke-linecap:butt;stroke-linejoin:miter;stroke-opacity:1" />
              <path
                 inkscape:connector-curvature="0"
                 id="path4788-1"
                 d="M 65,31.499999 127,0.4999985 127,191.5 65,160.5 Z"
                 style="fill:url(#linearGradient4815-8);fill-opacity:1;fill-rule:evenodd;stroke:#000000;stroke-width:1px;stroke-linecap:butt;stroke-linejoin:miter;stroke-opacity:1" />
            </g>
            <g
               id="g4531">
              <path
                 inkscape:connector-curvature="0"
                 id="path4788-3"
                 d="M 129,31.5 191,0.49999975 191,191.5 l -62,-31 z"
                 style="fill:url(#linearGradient4887);fill-opacity:1;fill-rule:evenodd;stroke:#9f9f9f;stroke-width:1px;stroke-linecap:butt;stroke-linejoin:miter;stroke-opacity:1" />
              <path
                 inkscape:connector-curvature="0"
                 id="path4788-1-9"
                 d="M 193,31.499999 255,0.49999851 255,191.5 l -62,-31 z"
                 style="fill:url(#linearGradient4889);fill-opacity:1;fill-rule:evenodd;stroke:#000000;stroke-width:1px;stroke-linecap:butt;stroke-linejoin:miter;stroke-opacity:1" />
            </g>
          </g>
          <g
             id="g4599">
            <g
               id="g4535">
              <path
                 inkscape:connector-curvature="0"
                 id="path4788-32"
                 d="m 257,31.5 62,-31 0,191 -62,-31 z"
                 style="fill:url(#linearGradient5092);fill-opacity:1;fill-rule:evenodd;stroke:#9f9f9f;stroke-width:1px;stroke-linecap:butt;stroke-linejoin:miter;stroke-opacity:1" />
              <path
                 inkscape:connector-curvature="0"
                 id="path4788-1-2"
                 d="M 321,31.499999 383,0.4999985 383,191.5 l -62,-31 z"
                 style="fill:url(#linearGradient5094);fill-opacity:1;fill-rule:evenodd;stroke:#000000;stroke-width:1px;stroke-linecap:butt;stroke-linejoin:miter;stroke-opacity:1" />
            </g>
            <g
               id="g4539">
              <path
                 inkscape:connector-curvature="0"
                 id="path4788-3-1"
                 d="M 385,31.499999 447,0.4999985 447,191.5 l -62,-31 z"
                 style="fill:url(#linearGradient5096);fill-opacity:1;fill-rule:evenodd;stroke:#9f9f9f;stroke-width:1px;stroke-linecap:butt;stroke-linejoin:miter;stroke-opacity:1" />
              <path
                 inkscape:connector-curvature="0"
                 id="path4788-1-9-2"
                 d="M 449,31.499999 511,0.49999851 511,191.5 l -62,-31 z"
                 style="fill:url(#linearGradient5098);fill-opacity:1;fill-rule:evenodd;stroke:#000000;stroke-width:1px;stroke-linecap:butt;stroke-linejoin:miter;stroke-opacity:1" />
            </g>
          </g>
        </g>
        <g
           id="g4671">
          <g
             id="g4607">
            <g
               id="g4543">
              <path
                 inkscape:connector-curvature="0"
                 id="path4788-18"
                 d="m 1,223.5 62,-31 0,191 -62,-31 z"
                 style="fill:url(#linearGradient5267);fill-opacity:1;fill-rule:evenodd;stroke:#9f9f9f;stroke-width:1px;stroke-linecap:butt;stroke-linejoin:miter;stroke-opacity:1" />
              <path
                 inkscape:connector-curvature="0"
                 id="path4788-1-4"
                 d="m 65,223.5 62,-31 0,191 -62,-31 z"
                 style="fill:url(#linearGradient5269);fill-opacity:1;fill-rule:evenodd;stroke:#000000;stroke-width:1px;stroke-linecap:butt;stroke-linejoin:miter;stroke-opacity:1" />
            </g>
            <g
               id="g4547">
              <path
                 inkscape:connector-curvature="0"
                 id="path4788-3-3"
                 d="m 129,223.5 62,-31 0,191 -62,-31 z"
                 style="fill:url(#linearGradient5271);fill-opacity:1;fill-rule:evenodd;stroke:#9f9f9f;stroke-width:1px;stroke-linecap:butt;stroke-linejoin:miter;stroke-opacity:1" />
              <path
                 inkscape:connector-curvature="0"
                 id="path4788-1-9-9"
                 d="m 193,223.5 62,-31 0,191 -62,-31 z"
                 style="fill:url(#linearGradient5273);fill-opacity:1;fill-rule:evenodd;stroke:#000000;stroke-width:1px;stroke-linecap:butt;stroke-linejoin:miter;stroke-opacity:1" />
            </g>
          </g>
          <g
             id="g4615">
            <g
               id="g4551">
              <path
                 inkscape:connector-curvature="0"
                 id="path4788-32-3"
                 d="m 257,223.5 62,-31 0,191 -62,-31 z"
                 style="fill:url(#linearGradient5092-3);fill-opacity:1;fill-rule:evenodd;stroke:#9f9f9f;stroke-width:1px;stroke-linecap:butt;stroke-linejoin:miter;stroke-opacity:1" />
              <path
                 inkscape:connector-curvature="0"
                 id="path4788-1-2-7"
                 d="m 321,223.5 62,-31 0,191 -62,-31 z"
                 style="fill:url(#linearGradient5275);fill-opacity:1;fill-rule:evenodd;stroke:#000000;stroke-width:1px;stroke-linecap:butt;stroke-linejoin:miter;stroke-opacity:1" />
            </g>
            <g
               id="g4555">
              <path
                 inkscape:connector-curvature="0"
                 id="path4788-3-1-5"
                 d="m 385,223.5 62,-31 0,191 -62,-31 z"
                 style="fill:url(#linearGradient5277);fill-opacity:1;fill-rule:evenodd;stroke:#9f9f9f;stroke-width:1px;stroke-linecap:butt;stroke-linejoin:miter;stroke-opacity:1" />
              <path
                 inkscape:connector-curvature="0"
                 id="path4788-1-9-2-9"
                 d="m 449,223.5 62,-31 0,191 -62,-31 z"
                 style="fill:url(#linearGradient5279);fill-opacity:1;fill-rule:evenodd;stroke:#000000;stroke-width:1px;stroke-linecap:butt;stroke-linejoin:miter;stroke-opacity:1" />
            </g>
          </g>
        </g>
      </g>
      <g
         id="g4751">
        <g
           id="g4687">
          <g
             id="g4623">
            <g
               id="g4559">
              <path
                 inkscape:connector-curvature="0"
                 id="path4788-4"
                 d="m 1,415.5 62,-31 0,191 -62,-31 z"
                 style="fill:url(#linearGradient5602);fill-opacity:1;fill-rule:evenodd;stroke:#9f9f9f;stroke-width:1px;stroke-linecap:butt;stroke-linejoin:miter;stroke-opacity:1" />
              <path
                 inkscape:connector-curvature="0"
                 id="path4788-1-7"
                 d="m 65,415.5 62,-31 0,191 -62,-31 z"
                 style="fill:url(#linearGradient5604);fill-opacity:1;fill-rule:evenodd;stroke:#000000;stroke-width:1px;stroke-linecap:butt;stroke-linejoin:miter;stroke-opacity:1" />
            </g>
            <g
               id="g4563">
              <path
                 inkscape:connector-curvature="0"
                 id="path4788-3-9"
                 d="m 129,415.5 62,-31 0,191 -62,-31 z"
                 style="fill:url(#linearGradient5606);fill-opacity:1;fill-rule:evenodd;stroke:#9f9f9f;stroke-width:1px;stroke-linecap:butt;stroke-linejoin:miter;stroke-opacity:1" />
              <path
                 inkscape:connector-curvature="0"
                 id="path4788-1-9-0"
                 d="m 193,415.5 62,-31 0,191 -62,-31 z"
                 style="fill:url(#linearGradient5608);fill-opacity:1;fill-rule:evenodd;stroke:#000000;stroke-width:1px;stroke-linecap:butt;stroke-linejoin:miter;stroke-opacity:1" />
            </g>
          </g>
          <g
             id="g4631">
            <g
               id="g4567">
              <path
                 inkscape:connector-curvature="0"
                 id="path4788-32-8"
                 d="m 257,415.5 62,-31 0,191 -62,-31 z"
                 style="fill:url(#linearGradient5092-4);fill-opacity:1;fill-rule:evenodd;stroke:#9f9f9f;stroke-width:1px;stroke-linecap:butt;stroke-linejoin:miter;stroke-opacity:1" />
              <path
                 inkscape:connector-curvature="0"
                 id="path4788-1-2-5"
                 d="m 321,415.5 62,-31 0,191 -62,-31 z"
                 style="fill:url(#linearGradient5610);fill-opacity:1;fill-rule:evenodd;stroke:#000000;stroke-width:1px;stroke-linecap:butt;stroke-linejoin:miter;stroke-opacity:1" />
            </g>
            <g
               id="g4571">
              <path
                 inkscape:connector-curvature="0"
                 id="path4788-3-1-4"
                 d="m 385,415.5 62,-31 0,191 -62,-31 z"
                 style="fill:url(#linearGradient5612);fill-opacity:1;fill-rule:evenodd;stroke:#9f9f9f;stroke-width:1px;stroke-linecap:butt;stroke-linejoin:miter;stroke-opacity:1" />
              <path
                 inkscape:connector-curvature="0"
                 id="path4788-1-9-2-8"
                 d="m 449,415.5 62,-31 0,191 -62,-31 z"
                 style="fill:url(#linearGradient5614);fill-opacity:1;fill-rule:evenodd;stroke:#000000;stroke-width:1px;stroke-linecap:butt;stroke-linejoin:miter;stroke-opacity:1" />
            </g>
          </g>
        </g>
        <g
           id="g4703">
          <g
             id="g4639">
            <g
               id="g4575">
              <path
                 inkscape:connector-curvature="0"
                 id="path4788-18-2"
                 d="m 1,607.5 62,-31 0,191 -62,-31 z"
                 style="fill:url(#linearGradient5267-7);fill-opacity:1;fill-rule:evenodd;stroke:#9f9f9f;stroke-width:1px;stroke-linecap:butt;stroke-linejoin:miter;stroke-opacity:1" />
              <path
                 inkscape:connector-curvature="0"
                 id="path4788-1-4-3"
                 d="m 65,607.5 62,-31 0,191 -62,-31 z"
                 style="fill:url(#linearGradient5616);fill-opacity:1;fill-rule:evenodd;stroke:#000000;stroke-width:1px;stroke-linecap:butt;stroke-linejoin:miter;stroke-opacity:1" />
            </g>
            <g
               id="g4579">
              <path
                 inkscape:connector-curvature="0"
                 id="path4788-3-3-2"
                 d="m 129,607.5 62,-31 0,191 -62,-31 z"
                 style="fill:url(#linearGradient5618);fill-opacity:1;fill-rule:evenodd;stroke:#9f9f9f;stroke-width:1px;stroke-linecap:butt;stroke-linejoin:miter;stroke-opacity:1" />
              <path
                 inkscape:connector-curvature="0"
                 id="path4788-1-9-9-8"
                 d="m 193,607.5 62,-31 0,191 -62,-31 z"
                 style="fill:url(#linearGradient5620);fill-opacity:1;fill-rule:evenodd;stroke:#000000;stroke-width:1px;stroke-linecap:butt;stroke-linejoin:miter;stroke-opacity:1" />
            </g>
          </g>
          <g
             id="g4647">
            <g
               id="g4583">
              <path
                 inkscape:connector-curvature="0"
                 id="path4788-32-3-1"
                 d="m 257,607.5 62,-31 0,191 -62,-31 z"
                 style="fill:url(#linearGradient5092-3-7);fill-opacity:1;fill-rule:evenodd;stroke:#0000ff;stroke-width:1px;stroke-linecap:butt;stroke-linejoin:miter;stroke-opacity:1" />
              <path
                 inkscape:connector-curvature="0"
                 id="path4788-1-2-7-0"
                 d="m 321,607.5 62,-31 0,191 -62,-31 z"
                 style="fill:url(#linearGradient5622);fill-opacity:1;fill-rule:evenodd;stroke:#ff0000;stroke-width:1px;stroke-linecap:butt;stroke-linejoin:miter;stroke-opacity:1" />
            </g>
            <g
               id="g4587">
              <path
                 inkscape:connector-curvature="0"
                 id="path4788-3-1-5-3"
                 d="m 385,607.5 62,-31 0,191 -62,-31 z"
                 style="fill:url(#linearGradient5624);fill-opacity:1;fill-rule:evenodd;stroke:#ff00ff;stroke-width:1px;stroke-linecap:butt;stroke-linejoin:miter;stroke-opacity:1" />
              <path
                 inkscape:connector-curvature="0"
                 id="path4788-1-9-2-9-0"
                 d="m 449,607.5 62,-31 0,191 -62,-31 z"
                 style="fill:url(#linearGradient5626);fill-opacity:1;fill-rule:evenodd;stroke:#00ff00;stroke-width:1px;stroke-linecap:butt;stroke-linejoin:miter;stroke-opacity:1" />
            </g>
          </g>
        </g>
      </g>
    </g>
  </g>
  <g
     inkscape:groupmode="layer"
     id="layer3"
     inkscape:label="Refference 2"
     style="display:none;opacity:0.45031056"
     sodipodi:insensitive="true">
    <image
       y="-63.999981"
       x="0.11235783"
       id="image4766"
       xlink:href="data:image/png;base64,iVBORw0KGgoAAAANSUhEUgAAAEAAAABACAYAAACqaXHeAAAABHNCSVQICAgIfAhkiAAAAAlwSFlz AAAN1wAADdcBQiibeAAAABl0RVh0U29mdHdhcmUAd3d3Lmlua3NjYXBlLm9yZ5vuPBoAAAorSURB VHic5ZprUFtlGsd/JwFCQgi3BhIRCk1LuW+BDOwSx1nbtULtep12d8fqhx2Z0nW7Vp0tu/SDnd0P a1ndWWd1pu3u6k7RFbV1tF2rVm2tWpX1XkppLRhCkVugF8gFkpDshzY00IScQBLq7G8mHzjn5T1P nv//ec573hyUSuUrgJr/P3JUKlWLRKFQKNRq9Um5XF650BFFC5VKVZucnPyVXC6/CKCrrKzsq6ys 7FOr1Q8udHCRRqPRNBgMhsGCgoIeIFUKnJ+cnLypvr6+PCEhoaq/v7/CZrO9CrgXONZwE5+RkbGv trb23qqqquSjR4++ZLVaX/ae1BkMht7m5mZPY2PjhFar/RTIWMBgw02WVqv9cvv27c7m5mZPcXFx N5AKILk8oKurq+ur4eFhCgoK4rZu3arX6XSfyOXy6gULOUwkJSX9JC8v7/3GxsYVOp0uxmQyuc1m 81vAOQCpd6DFYmm1WCx3V1RUqK4/8wprliqTOxypaxwOh8tms7Uu2DeYBxqNpiE/P//xP65UZy46 fxKrZgW7du3qMRqN6wE7+CQAOO90OleWlZXlpY11gkRKyW33J0okku9jX5iq93Xr1qUqBtvwCBJO TSS533vvvZd9a983AVMuKLr1lyq7phRBENDpdPLs7OxlnZ2day0Wy37AGvWvExpZWq323fr6ekNF RYVcEATsGaXYNaXs3r17mvpwpQd46erq6vpqZGQEQRCmDhYUFMQ1NDRc833BW+/btm1bodPpYrzH BUGgp6dnWu17kc6cxOsCvV6v8j2uUCgwGAzJZ8+evSb7grfet2zZkimXy686P7P2vVyVAC73gvLy 8jyFQjHthFQqpaqqKlEQhGupL0zV+/r161MlkpmmBpPJ5D5y5Mi02vfiLwEBXeDlGuoL0+o90KBA 6sPVPcDL1LogEAvdFwLV+0xm3vdnIvg7eBmdwWA4Wl9fnzlbIE6nk507d/YbjcYdZrP5yWCBHylS K0cFIcHfOZXHY72p3WwJNodGo2nQ6XQP19XVpUulfk08xY4dO0wnTpwoJ0ACAmaOKy7IXLRoUcBB sbGxbN68WXvo0KFH33zzTYPZbL4HcAYMfntZY1ZK/O/9nXOeH/8T6w41zhJTfEZGxos1NTU/XrVq ld/y9CWY+hC4BAAYGBh4cO/evd8FuxDA6tWrU+rq6m7XarUfMctzhDXew5jC7fdjjffMdoksrVb7 8aZNm9aI+fIALS0tZwcHB/0m28usCUBEL/BFTF8YTXAzFuAzmuD/hiK23n0Roz4ET0BILgBIS0tj 27ZtOSUlJXv97S/YA6g/pnBjV1ydAI1G01BcXPx8Y2NjTlJSktgwRKkPIhJAiC6AK32hpqbmUbVa /RIQ6z03Kg+cgFH5tATEZ2RkvFZTU9NYX18ftNn5IlZ9EJeAkF3gxV9fsMYHLgFr/FQCQq53X8Sq DyITwBxc4GVmX7C7HILV4XD6+9hdDmEu9e5LKOrD7OuAmYhaFwRCzHohlPt7IJqamlxtbW35QJeY 8aIccACye5A+JHR0fTsXF8DsfYF51LsvJpOJhMFzpn40v/JAupj/CeqAPZBdjfbEKJrEz1Ee/JfB /YO5usBLR0eH49lnnz3e39+/FojTarX7N27cWDwXy/vS1NTk2tqW9Z/FjN2RxshYCheWXEffrIoF veB90PMiy98ZJ/vOc6Tfcu7k2x+NjIxkpqWlzTnQnJzSuJtr/6F//f2h01LBI6xdpVVlZV0AXHOe s7u7m/H+ye4+itdOMEIaIwfv5NWgdhXltUx+1GGmtM7I0piJ8apT7WPPyQM9Kc6GyyXh+df1HOws 4uKd6Wg358SnrV8i64nL5PC+pZzrV5CfO4QQSme6zO7du11Lun/33wmSl9tRTNpR/OwdjoUnAa2c GJRxf1EPhcU95GWY7XuO6/XLc2fuF8yGwyHlL80rYWsM2t9aSSh0EqeeJC59koRSJ6m/mGDAlUTr nmyqSnpCSoLJZHIffvfrLoftwSI7Cpkdxb+f4je7xfyv6G5j495vulniHuPEPTbbXw/Otl/gj7+/ Uk38H0BV7QBA4nAh6zUTe8GCWynHI5GgKHQxrorFdCCZoqUDYqe+9LzfffIWM08/7kAmtZLwxDBP i7oNim46Q9x+HPi1928xT4pe+vpUnMtWsrhyFIC0jlMUtx6gKv9LXJMxtB4up23lXYzmZJN62zin n8vAYpGhVE4Endvnvt8FAgPwiPjUheCAmQTbNfLl9Q+LkDwkJS59ktgLFm744Bke2fBPcrO+Q5d9 FkPpZ3y7X0FvfgWeGClupRT3MQ851wcXcbbdHjGIXQn6Q/Tq8LvhZJSFl6yvbm/jDsNb02pcKnVz c9kRlN29ACTqJ+gcCO6sUFd9/phPAkQ/I3gkTK04ZE4bMtnV1k6ItxFnGbsUlMyDwxm8OkNZ8wdi XglApAuSFHYcQ5eqbTC3kGPHK64a80H7D7mQmwuA7UwsmpTRWecMh/owjx7gRUwviHW7aTNpSaxy 4kxOxHrKzWT/BJnqASYmZLx6ZDWfJNYyUpgPwOATCtbktKNSBW6CO3fu7DEajT8HbPOJf15Lz8sE 3TssKexj/zPFOO+VEJvi5vSttzF4qoDDb3+NWxZLb345ltwsAOymGOLbHWSWXQx4QZPJ5B4eHn4L mNuDiQ/zdgAEd4EgwLLrzLz95zySf+pAEu9hfFEa5vxChpfl40i5tNMz0RdDz31KHrjrQ2SywMvi cKkP8+8BXoL2Aq1mlI0rj2G6I5GhPQlM2q7cBpwXJAz8LYHBDfFsuesoKtV4wHnCqT6Eth8QDFH7 BW63wCdfLKb1dA7O2Bhwe0iQOqjON7KiuDfoEvixxx4ztbe36wlTAsLRA7yI+h1BIvFQre+mWt8d 8gXCrT6EqQd4CWV1OBfCWftewtUDvMx57zAYkVAfwuwAiJwLIqE+hN8BEAEXREp9iIADIPwuiJT6 EBkHQBhdEEn1IUIOgPC5IJLqQ+QcAGFwQaTVhwg6AObvgkirD5F1AMzDBdFQHyLsAJi7C6KhPkTe ATAHF0RLfYiCAyB0F0RLfYiOAyAEF0RTfYiSA0C8C6KpPkTPASDCBdFWH6LoAACLxdJvtVo36PV6 v4nftWvXpNFo3ACMRCumqDng8lsmdzvOdF705wKTyYRy6LypH81GsW93hIOoJGAPZBegPTFM6QP3 DS75et++fZMzx7S0tLg2DZW2n2HZwycp7OzjuuC/jYWBcO4JBsT3LRMr6TcOnXnj4vDwcOoXb1x6 NXb5jTacQ5gGKFnjDOHtjnAQtR7g+5bJuLXss1PWF69PiS2QALzzcbMr19jwqSPEtzvCQdR6wJO8 cPxzFu9rowQjq1ecOTNyvrxWYPmNNvfQ4OS33ZTf8A15fEPeCw00dUQrrqiSzmulUnqeggPZwE0G g6G3qKioG1gGnnQN/U8UcHLZAocZPTQazYH09PSdCxnD/wAn3OXoOvfkngAAAABJRU5ErkJggg== "
       preserveAspectRatio="none"
       height="64"
       width="64"
       transform="matrix(0,1,-1,0,0,0)" />
    <image
       y="-63.999981"
       x="128.85715"
       id="image4766-5"
       xlink:href="data:image/png;base64,iVBORw0KGgoAAAANSUhEUgAAAEAAAABACAYAAACqaXHeAAAABHNCSVQICAgIfAhkiAAAAAlwSFlz AAAN1wAADdcBQiibeAAAABl0RVh0U29mdHdhcmUAd3d3Lmlua3NjYXBlLm9yZ5vuPBoAAAorSURB VHic5ZprUFtlGsd/JwFCQgi3BhIRCk1LuW+BDOwSx1nbtULtep12d8fqhx2Z0nW7Vp0tu/SDnd0P a1ndWWd1pu3u6k7RFbV1tF2rVm2tWpX1XkppLRhCkVugF8gFkpDshzY00IScQBLq7G8mHzjn5T1P nv//ec573hyUSuUrgJr/P3JUKlWLRKFQKNRq9Um5XF650BFFC5VKVZucnPyVXC6/CKCrrKzsq6ys 7FOr1Q8udHCRRqPRNBgMhsGCgoIeIFUKnJ+cnLypvr6+PCEhoaq/v7/CZrO9CrgXONZwE5+RkbGv trb23qqqquSjR4++ZLVaX/ae1BkMht7m5mZPY2PjhFar/RTIWMBgw02WVqv9cvv27c7m5mZPcXFx N5AKILk8oKurq+ur4eFhCgoK4rZu3arX6XSfyOXy6gULOUwkJSX9JC8v7/3GxsYVOp0uxmQyuc1m 81vAOQCpd6DFYmm1WCx3V1RUqK4/8wprliqTOxypaxwOh8tms7Uu2DeYBxqNpiE/P//xP65UZy46 fxKrZgW7du3qMRqN6wE7+CQAOO90OleWlZXlpY11gkRKyW33J0okku9jX5iq93Xr1qUqBtvwCBJO TSS533vvvZd9a983AVMuKLr1lyq7phRBENDpdPLs7OxlnZ2day0Wy37AGvWvExpZWq323fr6ekNF RYVcEATsGaXYNaXs3r17mvpwpQd46erq6vpqZGQEQRCmDhYUFMQ1NDRc833BW+/btm1bodPpYrzH BUGgp6dnWu17kc6cxOsCvV6v8j2uUCgwGAzJZ8+evSb7grfet2zZkimXy686P7P2vVyVAC73gvLy 8jyFQjHthFQqpaqqKlEQhGupL0zV+/r161MlkpmmBpPJ5D5y5Mi02vfiLwEBXeDlGuoL0+o90KBA 6sPVPcDL1LogEAvdFwLV+0xm3vdnIvg7eBmdwWA4Wl9fnzlbIE6nk507d/YbjcYdZrP5yWCBHylS K0cFIcHfOZXHY72p3WwJNodGo2nQ6XQP19XVpUulfk08xY4dO0wnTpwoJ0ACAmaOKy7IXLRoUcBB sbGxbN68WXvo0KFH33zzTYPZbL4HcAYMfntZY1ZK/O/9nXOeH/8T6w41zhJTfEZGxos1NTU/XrVq ld/y9CWY+hC4BAAYGBh4cO/evd8FuxDA6tWrU+rq6m7XarUfMctzhDXew5jC7fdjjffMdoksrVb7 8aZNm9aI+fIALS0tZwcHB/0m28usCUBEL/BFTF8YTXAzFuAzmuD/hiK23n0Roz4ET0BILgBIS0tj 27ZtOSUlJXv97S/YA6g/pnBjV1ydAI1G01BcXPx8Y2NjTlJSktgwRKkPIhJAiC6AK32hpqbmUbVa /RIQ6z03Kg+cgFH5tATEZ2RkvFZTU9NYX18ftNn5IlZ9EJeAkF3gxV9fsMYHLgFr/FQCQq53X8Sq DyITwBxc4GVmX7C7HILV4XD6+9hdDmEu9e5LKOrD7OuAmYhaFwRCzHohlPt7IJqamlxtbW35QJeY 8aIccACye5A+JHR0fTsXF8DsfYF51LsvJpOJhMFzpn40v/JAupj/CeqAPZBdjfbEKJrEz1Ee/JfB /YO5usBLR0eH49lnnz3e39+/FojTarX7N27cWDwXy/vS1NTk2tqW9Z/FjN2RxshYCheWXEffrIoF veB90PMiy98ZJ/vOc6Tfcu7k2x+NjIxkpqWlzTnQnJzSuJtr/6F//f2h01LBI6xdpVVlZV0AXHOe s7u7m/H+ye4+itdOMEIaIwfv5NWgdhXltUx+1GGmtM7I0piJ8apT7WPPyQM9Kc6GyyXh+df1HOws 4uKd6Wg358SnrV8i64nL5PC+pZzrV5CfO4QQSme6zO7du11Lun/33wmSl9tRTNpR/OwdjoUnAa2c GJRxf1EPhcU95GWY7XuO6/XLc2fuF8yGwyHlL80rYWsM2t9aSSh0EqeeJC59koRSJ6m/mGDAlUTr nmyqSnpCSoLJZHIffvfrLoftwSI7Cpkdxb+f4je7xfyv6G5j495vulniHuPEPTbbXw/Otl/gj7+/ Uk38H0BV7QBA4nAh6zUTe8GCWynHI5GgKHQxrorFdCCZoqUDYqe+9LzfffIWM08/7kAmtZLwxDBP i7oNim46Q9x+HPi1928xT4pe+vpUnMtWsrhyFIC0jlMUtx6gKv9LXJMxtB4up23lXYzmZJN62zin n8vAYpGhVE4Endvnvt8FAgPwiPjUheCAmQTbNfLl9Q+LkDwkJS59ktgLFm744Bke2fBPcrO+Q5d9 FkPpZ3y7X0FvfgWeGClupRT3MQ851wcXcbbdHjGIXQn6Q/Tq8LvhZJSFl6yvbm/jDsNb02pcKnVz c9kRlN29ACTqJ+gcCO6sUFd9/phPAkQ/I3gkTK04ZE4bMtnV1k6ItxFnGbsUlMyDwxm8OkNZ8wdi XglApAuSFHYcQ5eqbTC3kGPHK64a80H7D7mQmwuA7UwsmpTRWecMh/owjx7gRUwviHW7aTNpSaxy 4kxOxHrKzWT/BJnqASYmZLx6ZDWfJNYyUpgPwOATCtbktKNSBW6CO3fu7DEajT8HbPOJf15Lz8sE 3TssKexj/zPFOO+VEJvi5vSttzF4qoDDb3+NWxZLb345ltwsAOymGOLbHWSWXQx4QZPJ5B4eHn4L mNuDiQ/zdgAEd4EgwLLrzLz95zySf+pAEu9hfFEa5vxChpfl40i5tNMz0RdDz31KHrjrQ2SywMvi cKkP8+8BXoL2Aq1mlI0rj2G6I5GhPQlM2q7cBpwXJAz8LYHBDfFsuesoKtV4wHnCqT6Eth8QDFH7 BW63wCdfLKb1dA7O2Bhwe0iQOqjON7KiuDfoEvixxx4ztbe36wlTAsLRA7yI+h1BIvFQre+mWt8d 8gXCrT6EqQd4CWV1OBfCWftewtUDvMx57zAYkVAfwuwAiJwLIqE+hN8BEAEXREp9iIADIPwuiJT6 EBkHQBhdEEn1IUIOgPC5IJLqQ+QcAGFwQaTVhwg6AObvgkirD5F1AMzDBdFQHyLsAJi7C6KhPkTe ATAHF0RLfYiCAyB0F0RLfYiOAyAEF0RTfYiSA0C8C6KpPkTPASDCBdFWH6LoAACLxdJvtVo36PV6 v4nftWvXpNFo3ACMRCumqDng8lsmdzvOdF705wKTyYRy6LypH81GsW93hIOoJGAPZBegPTFM6QP3 DS75et++fZMzx7S0tLg2DZW2n2HZwycp7OzjuuC/jYWBcO4JBsT3LRMr6TcOnXnj4vDwcOoXb1x6 NXb5jTacQ5gGKFnjDOHtjnAQtR7g+5bJuLXss1PWF69PiS2QALzzcbMr19jwqSPEtzvCQdR6wJO8 cPxzFu9rowQjq1ecOTNyvrxWYPmNNvfQ4OS33ZTf8A15fEPeCw00dUQrrqiSzmulUnqeggPZwE0G g6G3qKioG1gGnnQN/U8UcHLZAocZPTQazYH09PSdCxnD/wAn3OXoOvfkngAAAABJRU5ErkJggg== "
       preserveAspectRatio="none"
       height="64"
       width="64"
       transform="matrix(0,1,-1,0,0,0)" />
  </g>
</svg>
