<?xml version="1.0" encoding="UTF-8" standalone="no"?>
<!-- Created with Inkscape (http://www.inkscape.org/) -->

<svg
   xmlns:dc="http://purl.org/dc/elements/1.1/"
   xmlns:cc="http://creativecommons.org/ns#"
   xmlns:rdf="http://www.w3.org/1999/02/22-rdf-syntax-ns#"
   xmlns:svg="http://www.w3.org/2000/svg"
   xmlns="http://www.w3.org/2000/svg"
   xmlns:xlink="http://www.w3.org/1999/xlink"
   xmlns:sodipodi="http://sodipodi.sourceforge.net/DTD/sodipodi-0.dtd"
   xmlns:inkscape="http://www.inkscape.org/namespaces/inkscape"
   width="128"
   height="512"
   viewBox="0 0 128 512"
   id="svg2"
   version="1.1"
   inkscape:version="0.91 r13725"
   sodipodi:docname="vacuum mask.svg"
   inkscape:export-filename="/home/joelwindows7/.stepmania-5.0/NewSkins/vacuum-ship_preview/tap_mask 2x8.png"
   inkscape:export-xdpi="90"
   inkscape:export-ydpi="90">
  <defs
     id="defs4">
    <linearGradient
       id="linearGradient4439"
       inkscape:collect="always">
      <stop
         id="stop4441"
         offset="0"
         style="stop-color:#accdcd;stop-opacity:0.39545456" />
      <stop
         id="stop4443"
         offset="1"
         style="stop-color:#accdcd;stop-opacity:0;" />
    </linearGradient>
    <linearGradient
       inkscape:collect="always"
       xlink:href="#linearGradient4439"
       id="linearGradient4405"
       x1="15"
       y1="1002.4012"
       x2="15"
       y2="992.36224"
       gradientUnits="userSpaceOnUse" />
    <linearGradient
       inkscape:collect="always"
       xlink:href="#linearGradient4439"
       id="linearGradient4902"
       x1="15"
       y1="1002.4012"
       x2="15"
       y2="992.36224"
       gradientUnits="userSpaceOnUse" />
    <linearGradient
       inkscape:collect="always"
       xlink:href="#linearGradient4439"
       id="linearGradient4910"
       x1="15"
       y1="1002.4012"
       x2="15"
       y2="992.36224"
       gradientUnits="userSpaceOnUse" />
    <linearGradient
       y2="992.36224"
       x2="15"
       y1="1002.4012"
       x1="15"
       gradientUnits="userSpaceOnUse"
       id="linearGradient4921"
       xlink:href="#linearGradient4439"
       inkscape:collect="always" />
    <linearGradient
       y2="992.36224"
       x2="15"
       y1="1002.4012"
       x1="15"
       gradientUnits="userSpaceOnUse"
       id="linearGradient4923"
       xlink:href="#linearGradient4439"
       inkscape:collect="always" />
    <linearGradient
       inkscape:collect="always"
       xlink:href="#linearGradient4439"
       id="linearGradient4953"
       gradientUnits="userSpaceOnUse"
       x1="15"
       y1="1002.4012"
       x2="15"
       y2="992.36224" />
    <linearGradient
       inkscape:collect="always"
       xlink:href="#linearGradient4439"
       id="linearGradient4976"
       x1="15"
       y1="1002.4012"
       x2="15"
       y2="992.36224"
       gradientUnits="userSpaceOnUse" />
    <linearGradient
       inkscape:collect="always"
       xlink:href="#linearGradient4439"
       id="linearGradient4978"
       x1="15"
       y1="1002.4012"
       x2="15"
       y2="992.36224"
       gradientUnits="userSpaceOnUse" />
    <linearGradient
       y2="992.36224"
       x2="15"
       y1="1002.4012"
       x1="15"
       gradientUnits="userSpaceOnUse"
       id="linearGradient4921-4"
       xlink:href="#linearGradient4439"
       inkscape:collect="always" />
    <linearGradient
       y2="992.36224"
       x2="15"
       y1="1002.4012"
       x1="15"
       gradientUnits="userSpaceOnUse"
       id="linearGradient4923-9"
       xlink:href="#linearGradient4439"
       inkscape:collect="always" />
    <linearGradient
       inkscape:collect="always"
       xlink:href="#linearGradient4439"
       id="linearGradient4985"
       gradientUnits="userSpaceOnUse"
       x1="15"
       y1="1002.4012"
       x2="15"
       y2="992.36224" />
    <linearGradient
       inkscape:collect="always"
       xlink:href="#linearGradient4439"
       id="linearGradient5008"
       x1="15"
       y1="1002.4012"
       x2="15"
       y2="992.36224"
       gradientUnits="userSpaceOnUse" />
    <linearGradient
       inkscape:collect="always"
       xlink:href="#linearGradient4439"
       id="linearGradient5010"
       x1="15"
       y1="1002.4012"
       x2="15"
       y2="992.36224"
       gradientUnits="userSpaceOnUse" />
    <linearGradient
       y2="992.36224"
       x2="15"
       y1="1002.4012"
       x1="15"
       gradientUnits="userSpaceOnUse"
       id="linearGradient4921-2"
       xlink:href="#linearGradient4439"
       inkscape:collect="always" />
    <linearGradient
       y2="992.36224"
       x2="15"
       y1="1002.4012"
       x1="15"
       gradientUnits="userSpaceOnUse"
       id="linearGradient4923-7"
       xlink:href="#linearGradient4439"
       inkscape:collect="always" />
    <linearGradient
       inkscape:collect="always"
       xlink:href="#linearGradient4439"
       id="linearGradient5017"
       gradientUnits="userSpaceOnUse"
       x1="15"
       y1="1002.4012"
       x2="15"
       y2="992.36224" />
    <linearGradient
       inkscape:collect="always"
       xlink:href="#linearGradient4439"
       id="linearGradient5040"
       x1="15"
       y1="1002.4012"
       x2="15"
       y2="992.36224"
       gradientUnits="userSpaceOnUse" />
    <linearGradient
       inkscape:collect="always"
       xlink:href="#linearGradient4439"
       id="linearGradient5042"
       x1="15"
       y1="1002.4012"
       x2="15"
       y2="992.36224"
       gradientUnits="userSpaceOnUse" />
    <linearGradient
       y2="992.36224"
       x2="15"
       y1="1002.4012"
       x1="15"
       gradientUnits="userSpaceOnUse"
       id="linearGradient4921-1"
       xlink:href="#linearGradient4439"
       inkscape:collect="always" />
    <linearGradient
       y2="992.36224"
       x2="15"
       y1="1002.4012"
       x1="15"
       gradientUnits="userSpaceOnUse"
       id="linearGradient4923-2"
       xlink:href="#linearGradient4439"
       inkscape:collect="always" />
    <linearGradient
       inkscape:collect="always"
       xlink:href="#linearGradient4439"
       id="linearGradient5049"
       gradientUnits="userSpaceOnUse"
       x1="15"
       y1="1002.4012"
       x2="15"
       y2="992.36224" />
    <linearGradient
       inkscape:collect="always"
       xlink:href="#linearGradient4439"
       id="linearGradient5072"
       x1="15"
       y1="1002.4012"
       x2="15"
       y2="992.36224"
       gradientUnits="userSpaceOnUse" />
    <linearGradient
       inkscape:collect="always"
       xlink:href="#linearGradient4439"
       id="linearGradient5074"
       x1="15"
       y1="1002.4012"
       x2="15"
       y2="992.36224"
       gradientUnits="userSpaceOnUse" />
    <linearGradient
       y2="992.36224"
       x2="15"
       y1="1002.4012"
       x1="15"
       gradientUnits="userSpaceOnUse"
       id="linearGradient4921-5"
       xlink:href="#linearGradient4439"
       inkscape:collect="always" />
    <linearGradient
       y2="992.36224"
       x2="15"
       y1="1002.4012"
       x1="15"
       gradientUnits="userSpaceOnUse"
       id="linearGradient4923-27"
       xlink:href="#linearGradient4439"
       inkscape:collect="always" />
    <linearGradient
       inkscape:collect="always"
       xlink:href="#linearGradient4439"
       id="linearGradient5081"
       gradientUnits="userSpaceOnUse"
       x1="15"
       y1="1002.4012"
       x2="15"
       y2="992.36224" />
    <linearGradient
       inkscape:collect="always"
       xlink:href="#linearGradient4439"
       id="linearGradient5104"
       x1="15"
       y1="1002.4012"
       x2="15"
       y2="992.36224"
       gradientUnits="userSpaceOnUse" />
    <linearGradient
       inkscape:collect="always"
       xlink:href="#linearGradient4439"
       id="linearGradient5106"
       x1="15"
       y1="1002.4012"
       x2="15"
       y2="992.36224"
       gradientUnits="userSpaceOnUse" />
    <linearGradient
       y2="992.36224"
       x2="15"
       y1="1002.4012"
       x1="15"
       gradientUnits="userSpaceOnUse"
       id="linearGradient4921-27"
       xlink:href="#linearGradient4439"
       inkscape:collect="always" />
    <linearGradient
       y2="992.36224"
       x2="15"
       y1="1002.4012"
       x1="15"
       gradientUnits="userSpaceOnUse"
       id="linearGradient4923-4"
       xlink:href="#linearGradient4439"
       inkscape:collect="always" />
    <linearGradient
       inkscape:collect="always"
       xlink:href="#linearGradient4439"
       id="linearGradient5113"
       gradientUnits="userSpaceOnUse"
       x1="15"
       y1="1002.4012"
       x2="15"
       y2="992.36224" />
    <linearGradient
       inkscape:collect="always"
       xlink:href="#linearGradient4439"
       id="linearGradient5136"
       x1="15"
       y1="1002.4012"
       x2="15"
       y2="992.36224"
       gradientUnits="userSpaceOnUse" />
    <linearGradient
       inkscape:collect="always"
       xlink:href="#linearGradient4439"
       id="linearGradient5138"
       x1="15"
       y1="1002.4012"
       x2="15"
       y2="992.36224"
       gradientUnits="userSpaceOnUse" />
    <linearGradient
       y2="992.36224"
       x2="15"
       y1="1002.4012"
       x1="15"
       gradientUnits="userSpaceOnUse"
       id="linearGradient4921-7"
       xlink:href="#linearGradient4439"
       inkscape:collect="always" />
    <linearGradient
       y2="992.36224"
       x2="15"
       y1="1002.4012"
       x1="15"
       gradientUnits="userSpaceOnUse"
       id="linearGradient4923-23"
       xlink:href="#linearGradient4439"
       inkscape:collect="always" />
    <linearGradient
       inkscape:collect="always"
       xlink:href="#linearGradient4439"
       id="linearGradient5145"
       gradientUnits="userSpaceOnUse"
       x1="15"
       y1="1002.4012"
       x2="15"
       y2="992.36224" />
    <linearGradient
       inkscape:collect="always"
       xlink:href="#linearGradient4439"
       id="linearGradient5168"
       x1="15"
       y1="1002.4012"
       x2="15"
       y2="992.36224"
       gradientUnits="userSpaceOnUse" />
    <linearGradient
       inkscape:collect="always"
       xlink:href="#linearGradient4439"
       id="linearGradient5170"
       x1="15"
       y1="1002.4012"
       x2="15"
       y2="992.36224"
       gradientUnits="userSpaceOnUse" />
    <linearGradient
       y2="992.36224"
       x2="15"
       y1="1002.4012"
       x1="15"
       gradientUnits="userSpaceOnUse"
       id="linearGradient4921-0"
       xlink:href="#linearGradient4439"
       inkscape:collect="always" />
    <linearGradient
       y2="992.36224"
       x2="15"
       y1="1002.4012"
       x1="15"
       gradientUnits="userSpaceOnUse"
       id="linearGradient4923-6"
       xlink:href="#linearGradient4439"
       inkscape:collect="always" />
    <linearGradient
       inkscape:collect="always"
       xlink:href="#linearGradient4439"
       id="linearGradient5177"
       gradientUnits="userSpaceOnUse"
       x1="15"
       y1="1002.4012"
       x2="15"
       y2="992.36224" />
    <linearGradient
       inkscape:collect="always"
       xlink:href="#linearGradient4439"
       id="linearGradient5200"
       x1="15"
       y1="1002.4012"
       x2="15"
       y2="992.36224"
       gradientUnits="userSpaceOnUse" />
    <linearGradient
       inkscape:collect="always"
       xlink:href="#linearGradient4439"
       id="linearGradient5202"
       x1="15"
       y1="1002.4012"
       x2="15"
       y2="992.36224"
       gradientUnits="userSpaceOnUse" />
    <linearGradient
       y2="992.36224"
       x2="15"
       y1="1002.4012"
       x1="15"
       gradientUnits="userSpaceOnUse"
       id="linearGradient4921-17"
       xlink:href="#linearGradient4439"
       inkscape:collect="always" />
    <linearGradient
       y2="992.36224"
       x2="15"
       y1="1002.4012"
       x1="15"
       gradientUnits="userSpaceOnUse"
       id="linearGradient4923-95"
       xlink:href="#linearGradient4439"
       inkscape:collect="always" />
    <linearGradient
       inkscape:collect="always"
       xlink:href="#linearGradient4439"
       id="linearGradient5209"
       gradientUnits="userSpaceOnUse"
       x1="15"
       y1="1002.4012"
       x2="15"
       y2="992.36224" />
    <linearGradient
       inkscape:collect="always"
       xlink:href="#linearGradient4439"
       id="linearGradient5232"
       x1="15"
       y1="1002.4012"
       x2="15"
       y2="992.36224"
       gradientUnits="userSpaceOnUse" />
    <linearGradient
       inkscape:collect="always"
       xlink:href="#linearGradient4439"
       id="linearGradient5234"
       x1="15"
       y1="1002.4012"
       x2="15"
       y2="992.36224"
       gradientUnits="userSpaceOnUse" />
    <linearGradient
       y2="992.36224"
       x2="15"
       y1="1002.4012"
       x1="15"
       gradientUnits="userSpaceOnUse"
       id="linearGradient4921-6"
       xlink:href="#linearGradient4439"
       inkscape:collect="always" />
    <linearGradient
       y2="992.36224"
       x2="15"
       y1="1002.4012"
       x1="15"
       gradientUnits="userSpaceOnUse"
       id="linearGradient4923-5"
       xlink:href="#linearGradient4439"
       inkscape:collect="always" />
    <linearGradient
       inkscape:collect="always"
       xlink:href="#linearGradient4439"
       id="linearGradient5241"
       gradientUnits="userSpaceOnUse"
       x1="15"
       y1="1002.4012"
       x2="15"
       y2="992.36224" />
    <linearGradient
       inkscape:collect="always"
       xlink:href="#linearGradient4439"
       id="linearGradient5264"
       x1="15"
       y1="1002.4012"
       x2="15"
       y2="992.36224"
       gradientUnits="userSpaceOnUse" />
    <linearGradient
       inkscape:collect="always"
       xlink:href="#linearGradient4439"
       id="linearGradient5266"
       x1="15"
       y1="1002.4012"
       x2="15"
       y2="992.36224"
       gradientUnits="userSpaceOnUse" />
    <linearGradient
       y2="992.36224"
       x2="15"
       y1="1002.4012"
       x1="15"
       gradientUnits="userSpaceOnUse"
       id="linearGradient4921-51"
       xlink:href="#linearGradient4439"
       inkscape:collect="always" />
    <linearGradient
       y2="992.36224"
       x2="15"
       y1="1002.4012"
       x1="15"
       gradientUnits="userSpaceOnUse"
       id="linearGradient4923-8"
       xlink:href="#linearGradient4439"
       inkscape:collect="always" />
    <linearGradient
       inkscape:collect="always"
       xlink:href="#linearGradient4439"
       id="linearGradient5273"
       gradientUnits="userSpaceOnUse"
       x1="15"
       y1="1002.4012"
       x2="15"
       y2="992.36224" />
    <linearGradient
       inkscape:collect="always"
       xlink:href="#linearGradient4439"
       id="linearGradient5296"
       x1="15"
       y1="1002.4012"
       x2="15"
       y2="992.36224"
       gradientUnits="userSpaceOnUse" />
    <linearGradient
       inkscape:collect="always"
       xlink:href="#linearGradient4439"
       id="linearGradient5298"
       x1="15"
       y1="1002.4012"
       x2="15"
       y2="992.36224"
       gradientUnits="userSpaceOnUse" />
    <linearGradient
       y2="992.36224"
       x2="15"
       y1="1002.4012"
       x1="15"
       gradientUnits="userSpaceOnUse"
       id="linearGradient4921-72"
       xlink:href="#linearGradient4439"
       inkscape:collect="always" />
    <linearGradient
       y2="992.36224"
       x2="15"
       y1="1002.4012"
       x1="15"
       gradientUnits="userSpaceOnUse"
       id="linearGradient4923-0"
       xlink:href="#linearGradient4439"
       inkscape:collect="always" />
    <linearGradient
       inkscape:collect="always"
       xlink:href="#linearGradient4439"
       id="linearGradient5305"
       gradientUnits="userSpaceOnUse"
       x1="15"
       y1="1002.4012"
       x2="15"
       y2="992.36224" />
    <linearGradient
       inkscape:collect="always"
       xlink:href="#linearGradient4439"
       id="linearGradient5328"
       x1="15"
       y1="1002.4012"
       x2="15"
       y2="992.36224"
       gradientUnits="userSpaceOnUse" />
    <linearGradient
       inkscape:collect="always"
       xlink:href="#linearGradient4439"
       id="linearGradient5330"
       x1="15"
       y1="1002.4012"
       x2="15"
       y2="992.36224"
       gradientUnits="userSpaceOnUse" />
    <linearGradient
       y2="992.36224"
       x2="15"
       y1="1002.4012"
       x1="15"
       gradientUnits="userSpaceOnUse"
       id="linearGradient4921-3"
       xlink:href="#linearGradient4439"
       inkscape:collect="always" />
    <linearGradient
       y2="992.36224"
       x2="15"
       y1="1002.4012"
       x1="15"
       gradientUnits="userSpaceOnUse"
       id="linearGradient4923-43"
       xlink:href="#linearGradient4439"
       inkscape:collect="always" />
    <linearGradient
       inkscape:collect="always"
       xlink:href="#linearGradient4439"
       id="linearGradient5337"
       gradientUnits="userSpaceOnUse"
       x1="15"
       y1="1002.4012"
       x2="15"
       y2="992.36224" />
    <linearGradient
       inkscape:collect="always"
       xlink:href="#linearGradient4439"
       id="linearGradient5360"
       x1="15"
       y1="1002.4012"
       x2="15"
       y2="992.36224"
       gradientUnits="userSpaceOnUse" />
    <linearGradient
       inkscape:collect="always"
       xlink:href="#linearGradient4439"
       id="linearGradient5362"
       x1="15"
       y1="1002.4012"
       x2="15"
       y2="992.36224"
       gradientUnits="userSpaceOnUse" />
    <linearGradient
       y2="992.36224"
       x2="15"
       y1="1002.4012"
       x1="15"
       gradientUnits="userSpaceOnUse"
       id="linearGradient4921-77"
       xlink:href="#linearGradient4439"
       inkscape:collect="always" />
    <linearGradient
       y2="992.36224"
       x2="15"
       y1="1002.4012"
       x1="15"
       gradientUnits="userSpaceOnUse"
       id="linearGradient4923-02"
       xlink:href="#linearGradient4439"
       inkscape:collect="always" />
    <linearGradient
       inkscape:collect="always"
       xlink:href="#linearGradient4439"
       id="linearGradient5369"
       gradientUnits="userSpaceOnUse"
       x1="15"
       y1="1002.4012"
       x2="15"
       y2="992.36224" />
    <linearGradient
       inkscape:collect="always"
       xlink:href="#linearGradient4439"
       id="linearGradient5392"
       x1="15"
       y1="1002.4012"
       x2="15"
       y2="992.36224"
       gradientUnits="userSpaceOnUse" />
    <linearGradient
       inkscape:collect="always"
       xlink:href="#linearGradient4439"
       id="linearGradient5394"
       x1="15"
       y1="1002.4012"
       x2="15"
       y2="992.36224"
       gradientUnits="userSpaceOnUse" />
    <linearGradient
       y2="992.36224"
       x2="15"
       y1="1002.4012"
       x1="15"
       gradientUnits="userSpaceOnUse"
       id="linearGradient4921-01"
       xlink:href="#linearGradient4439"
       inkscape:collect="always" />
    <linearGradient
       y2="992.36224"
       x2="15"
       y1="1002.4012"
       x1="15"
       gradientUnits="userSpaceOnUse"
       id="linearGradient4923-79"
       xlink:href="#linearGradient4439"
       inkscape:collect="always" />
    <linearGradient
       inkscape:collect="always"
       xlink:href="#linearGradient4439"
       id="linearGradient5401"
       gradientUnits="userSpaceOnUse"
       x1="15"
       y1="1002.4012"
       x2="15"
       y2="992.36224" />
  </defs>
  <sodipodi:namedview
     id="base"
     pagecolor="#ffffff"
     bordercolor="#666666"
     borderopacity="1.0"
     inkscape:pageopacity="0.0"
     inkscape:pageshadow="2"
     inkscape:zoom="1"
     inkscape:cx="-3.6680943"
     inkscape:cy="301.21847"
     inkscape:document-units="px"
     inkscape:current-layer="layer1"
     showgrid="true"
     inkscape:snap-bbox="true"
     inkscape:bbox-paths="true"
     inkscape:bbox-nodes="true"
     inkscape:snap-bbox-edge-midpoints="true"
     inkscape:snap-bbox-midpoints="true"
     inkscape:snap-center="true"
     inkscape:snap-object-midpoints="false"
     inkscape:object-paths="true"
     inkscape:snap-intersection-paths="true"
     inkscape:object-nodes="true"
     inkscape:snap-midpoints="true"
     inkscape:snap-smooth-nodes="true"
     units="px"
     inkscape:snap-nodes="true"
     inkscape:window-width="1366"
     inkscape:window-height="744"
     inkscape:window-x="0"
     inkscape:window-y="24"
     inkscape:window-maximized="1"
     inkscape:snap-page="true"
     inkscape:snap-others="true"
     inkscape:snap-grids="false">
    <inkscape:grid
       type="xygrid"
       id="grid4315"
       originy="-3" />
  </sodipodi:namedview>
  <metadata
     id="metadata7">
    <rdf:RDF>
      <cc:Work
         rdf:about="">
        <dc:format>image/svg+xml</dc:format>
        <dc:type
           rdf:resource="http://purl.org/dc/dcmitype/StillImage" />
        <dc:title></dc:title>
      </cc:Work>
    </rdf:RDF>
  </metadata>
  <g
     inkscape:label="Layer 1"
     inkscape:groupmode="layer"
     id="layer1"
     transform="translate(0,-540.36223)"
     style="opacity:0.95">
    <g
       id="g4234"
       transform="matrix(6.3191841,0,0,-6.3191841,-62.814154,6874.7202)"
       style="fill:url(#linearGradient4405);fill-opacity:1;stroke:#00f1c3;stroke-opacity:0.2590909">
      <path
         inkscape:connector-curvature="0"
         id="path4222"
         d="m 15,992.36223 -5,9.99997 5,-3.99997 c 0,0 1,0 1,-1 0,-1 -1,-1 -1,-1 0,0 -1,0 -1,1 0,1 1,1 1,1 l 5,3.99997 z"
         style="fill:url(#linearGradient4405);fill-opacity:1;fill-rule:evenodd;stroke:#00f1c3;stroke-width:0.1;stroke-linecap:round;stroke-linejoin:bevel;stroke-miterlimit:4;stroke-dasharray:none;stroke-opacity:0.2590909" />
      <circle
         r="1"
         cy="997.36224"
         cx="15"
         id="path4224"
         style="opacity:1;fill:url(#linearGradient4405);fill-opacity:1;stroke:#00f1c3;stroke-width:0.1;stroke-linejoin:round;stroke-miterlimit:4;stroke-dasharray:none;stroke-opacity:0.2590909" />
    </g>
    <g
       id="g4234-3"
       transform="matrix(6.3191841,0,0,-6.3191841,1.3337157,6874.7202)"
       style="opacity:0.95;fill:url(#linearGradient4953);fill-opacity:1;stroke:#00f1c3;stroke-opacity:0.25909089">
      <path
         inkscape:connector-curvature="0"
         id="path4222-0"
         d="m 15,992.36223 -5,9.99997 5,-3.99997 c 0,0 1,0 1,-1 0,-1 -1,-1 -1,-1 0,0 -1,0 -1,1 0,1 1,1 1,1 l 5,3.99997 z"
         style="fill:url(#linearGradient4921);fill-opacity:1;fill-rule:evenodd;stroke:#00f1c3;stroke-width:0.1;stroke-linecap:round;stroke-linejoin:bevel;stroke-miterlimit:4;stroke-dasharray:none;stroke-opacity:0.25909089" />
      <circle
         r="1"
         cy="997.36224"
         cx="15"
         id="path4224-5"
         style="opacity:1;fill:url(#linearGradient4923);fill-opacity:1;stroke:#00f1c3;stroke-width:0.1;stroke-linejoin:round;stroke-miterlimit:4;stroke-dasharray:none;stroke-opacity:0.25909089" />
    </g>
    <g
       id="g4234-2"
       transform="matrix(6.3191841,0,0,-6.3191841,-62.814154,6938.2999)"
       style="opacity:0.95;fill:url(#linearGradient4985);fill-opacity:1;stroke:#00f1c3;stroke-opacity:0.25909089">
      <path
         inkscape:connector-curvature="0"
         id="path4222-7"
         d="m 15,992.36223 -5,9.99997 5,-3.99997 c 0,0 1,0 1,-1 0,-1 -1,-1 -1,-1 0,0 -1,0 -1,1 0,1 1,1 1,1 l 5,3.99997 z"
         style="fill:url(#linearGradient4921-4);fill-opacity:1;fill-rule:evenodd;stroke:#00f1c3;stroke-width:0.1;stroke-linecap:round;stroke-linejoin:bevel;stroke-miterlimit:4;stroke-dasharray:none;stroke-opacity:0.25909089" />
      <circle
         r="1"
         cy="997.36224"
         cx="15"
         id="path4224-55"
         style="opacity:1;fill:url(#linearGradient4923-9);fill-opacity:1;stroke:#00f1c3;stroke-width:0.1;stroke-linejoin:round;stroke-miterlimit:4;stroke-dasharray:none;stroke-opacity:0.25909089" />
    </g>
    <g
       id="g4234-8"
       transform="matrix(6.3191841,0,0,-6.3191841,1.3337157,6938.2999)"
       style="opacity:0.95;fill:url(#linearGradient5017);fill-opacity:1;stroke:#00f1c3;stroke-opacity:0.25909089">
      <path
         inkscape:connector-curvature="0"
         id="path4222-4"
         d="m 15,992.36223 -5,9.99997 5,-3.99997 c 0,0 1,0 1,-1 0,-1 -1,-1 -1,-1 0,0 -1,0 -1,1 0,1 1,1 1,1 l 5,3.99997 z"
         style="fill:url(#linearGradient4921-2);fill-opacity:1;fill-rule:evenodd;stroke:#00f1c3;stroke-width:0.1;stroke-linecap:round;stroke-linejoin:bevel;stroke-miterlimit:4;stroke-dasharray:none;stroke-opacity:0.25909089" />
      <circle
         r="1"
         cy="997.36224"
         cx="15"
         id="path4224-1"
         style="opacity:1;fill:url(#linearGradient4923-7);fill-opacity:1;stroke:#00f1c3;stroke-width:0.1;stroke-linejoin:round;stroke-miterlimit:4;stroke-dasharray:none;stroke-opacity:0.25909089" />
    </g>
    <g
       id="g4234-1"
       transform="matrix(6.3191841,0,0,-6.3191841,-62.814154,7001.8796)"
       style="opacity:0.95;fill:url(#linearGradient5049);fill-opacity:1;stroke:#00f1c3;stroke-opacity:0.25909089">
      <path
         inkscape:connector-curvature="0"
         id="path4222-3"
         d="m 15,992.36223 -5,9.99997 5,-3.99997 c 0,0 1,0 1,-1 0,-1 -1,-1 -1,-1 0,0 -1,0 -1,1 0,1 1,1 1,1 l 5,3.99997 z"
         style="fill:url(#linearGradient4921-1);fill-opacity:1;fill-rule:evenodd;stroke:#00f1c3;stroke-width:0.1;stroke-linecap:round;stroke-linejoin:bevel;stroke-miterlimit:4;stroke-dasharray:none;stroke-opacity:0.25909089" />
      <circle
         r="1"
         cy="997.36224"
         cx="15"
         id="path4224-0"
         style="opacity:1;fill:url(#linearGradient4923-2);fill-opacity:1;stroke:#00f1c3;stroke-width:0.1;stroke-linejoin:round;stroke-miterlimit:4;stroke-dasharray:none;stroke-opacity:0.25909089" />
    </g>
    <g
       id="g4234-4"
       transform="matrix(6.3191841,0,0,-6.3191841,1.3337157,7001.8796)"
       style="opacity:0.95;fill:url(#linearGradient5081);fill-opacity:1;stroke:#00f1c3;stroke-opacity:0.25909089">
      <path
         inkscape:connector-curvature="0"
         id="path4222-79"
         d="m 15,992.36223 -5,9.99997 5,-3.99997 c 0,0 1,0 1,-1 0,-1 -1,-1 -1,-1 0,0 -1,0 -1,1 0,1 1,1 1,1 l 5,3.99997 z"
         style="fill:url(#linearGradient4921-5);fill-opacity:1;fill-rule:evenodd;stroke:#00f1c3;stroke-width:0.1;stroke-linecap:round;stroke-linejoin:bevel;stroke-miterlimit:4;stroke-dasharray:none;stroke-opacity:0.25909089" />
      <circle
         r="1"
         cy="997.36224"
         cx="15"
         id="path4224-13"
         style="opacity:1;fill:url(#linearGradient4923-27);fill-opacity:1;stroke:#00f1c3;stroke-width:0.1;stroke-linejoin:round;stroke-miterlimit:4;stroke-dasharray:none;stroke-opacity:0.25909089" />
    </g>
    <g
       id="g4234-9"
       transform="matrix(6.3191841,0,0,-6.3191841,-62.814154,7065.4593)"
       style="opacity:0.95;fill:url(#linearGradient5113);fill-opacity:1;stroke:#00f1c3;stroke-opacity:0.25909089">
      <path
         inkscape:connector-curvature="0"
         id="path4222-2"
         d="m 15,992.36223 -5,9.99997 5,-3.99997 c 0,0 1,0 1,-1 0,-1 -1,-1 -1,-1 0,0 -1,0 -1,1 0,1 1,1 1,1 l 5,3.99997 z"
         style="fill:url(#linearGradient4921-27);fill-opacity:1;fill-rule:evenodd;stroke:#00f1c3;stroke-width:0.1;stroke-linecap:round;stroke-linejoin:bevel;stroke-miterlimit:4;stroke-dasharray:none;stroke-opacity:0.25909089" />
      <circle
         r="1"
         cy="997.36224"
         cx="15"
         id="path4224-7"
         style="opacity:1;fill:url(#linearGradient4923-4);fill-opacity:1;stroke:#00f1c3;stroke-width:0.1;stroke-linejoin:round;stroke-miterlimit:4;stroke-dasharray:none;stroke-opacity:0.25909089" />
    </g>
    <g
       id="g4234-0"
       transform="matrix(6.3191841,0,0,-6.3191841,0.94289168,7065.4593)"
       style="opacity:0.95;fill:url(#linearGradient5145);fill-opacity:1;stroke:#00f1c3;stroke-opacity:0.25909089">
      <path
         inkscape:connector-curvature="0"
         id="path4222-8"
         d="m 15,992.36223 -5,9.99997 5,-3.99997 c 0,0 1,0 1,-1 0,-1 -1,-1 -1,-1 0,0 -1,0 -1,1 0,1 1,1 1,1 l 5,3.99997 z"
         style="fill:url(#linearGradient4921-7);fill-opacity:1;fill-rule:evenodd;stroke:#00f1c3;stroke-width:0.1;stroke-linecap:round;stroke-linejoin:bevel;stroke-miterlimit:4;stroke-dasharray:none;stroke-opacity:0.25909089" />
      <circle
         r="1"
         cy="997.36224"
         cx="15"
         id="path4224-9"
         style="opacity:1;fill:url(#linearGradient4923-23);fill-opacity:1;stroke:#00f1c3;stroke-width:0.1;stroke-linejoin:round;stroke-miterlimit:4;stroke-dasharray:none;stroke-opacity:0.25909089" />
    </g>
    <g
       id="g4234-22"
       transform="matrix(6.3191841,0,0,-6.3191841,-62.814154,7129.039)"
       style="opacity:0.95;fill:url(#linearGradient5177);fill-opacity:1;stroke:#00f1c3;stroke-opacity:0.25909089">
      <path
         inkscape:connector-curvature="0"
         id="path4222-29"
         d="m 15,992.36223 -5,9.99997 5,-3.99997 c 0,0 1,0 1,-1 0,-1 -1,-1 -1,-1 0,0 -1,0 -1,1 0,1 1,1 1,1 l 5,3.99997 z"
         style="fill:url(#linearGradient4921-0);fill-opacity:1;fill-rule:evenodd;stroke:#00f1c3;stroke-width:0.1;stroke-linecap:round;stroke-linejoin:bevel;stroke-miterlimit:4;stroke-dasharray:none;stroke-opacity:0.25909089" />
      <circle
         r="1"
         cy="997.36224"
         cx="15"
         id="path4224-71"
         style="opacity:1;fill:url(#linearGradient4923-6);fill-opacity:1;stroke:#00f1c3;stroke-width:0.1;stroke-linejoin:round;stroke-miterlimit:4;stroke-dasharray:none;stroke-opacity:0.25909089" />
    </g>
    <g
       id="g4234-44"
       transform="matrix(6.3191841,0,0,-6.3191841,0.94289168,7129.039)"
       style="opacity:0.95;fill:url(#linearGradient5209);fill-opacity:1;stroke:#00f1c3;stroke-opacity:0.25909089">
      <path
         inkscape:connector-curvature="0"
         id="path4222-49"
         d="m 15,992.36223 -5,9.99997 5,-3.99997 c 0,0 1,0 1,-1 0,-1 -1,-1 -1,-1 0,0 -1,0 -1,1 0,1 1,1 1,1 l 5,3.99997 z"
         style="fill:url(#linearGradient4921-17);fill-opacity:1;fill-rule:evenodd;stroke:#00f1c3;stroke-width:0.1;stroke-linecap:round;stroke-linejoin:bevel;stroke-miterlimit:4;stroke-dasharray:none;stroke-opacity:0.25909089" />
      <circle
         r="1"
         cy="997.36224"
         cx="15"
         id="path4224-57"
         style="opacity:1;fill:url(#linearGradient4923-95);fill-opacity:1;stroke:#00f1c3;stroke-width:0.1;stroke-linejoin:round;stroke-miterlimit:4;stroke-dasharray:none;stroke-opacity:0.25909089" />
    </g>
    <g
       id="g4234-39"
       transform="matrix(6.3191841,0,0,-6.3191841,-62.814154,7192.6187)"
       style="opacity:0.95;fill:url(#linearGradient5241);fill-opacity:1;stroke:#00f1c3;stroke-opacity:0.25909089">
      <path
         inkscape:connector-curvature="0"
         id="path4222-6"
         d="m 15,992.36223 -5,9.99997 5,-3.99997 c 0,0 1,0 1,-1 0,-1 -1,-1 -1,-1 0,0 -1,0 -1,1 0,1 1,1 1,1 l 5,3.99997 z"
         style="fill:url(#linearGradient4921-6);fill-opacity:1;fill-rule:evenodd;stroke:#00f1c3;stroke-width:0.1;stroke-linecap:round;stroke-linejoin:bevel;stroke-miterlimit:4;stroke-dasharray:none;stroke-opacity:0.25909089" />
      <circle
         r="1"
         cy="997.36224"
         cx="15"
         id="path4224-3"
         style="opacity:1;fill:url(#linearGradient4923-5);fill-opacity:1;stroke:#00f1c3;stroke-width:0.1;stroke-linejoin:round;stroke-miterlimit:4;stroke-dasharray:none;stroke-opacity:0.25909089" />
    </g>
    <g
       id="g4234-05"
       transform="matrix(6.3191841,0,0,-6.3191841,0.94289168,7192.6187)"
       style="opacity:0.95;fill:url(#linearGradient5273);fill-opacity:1;stroke:#00f1c3;stroke-opacity:0.25909089">
      <path
         inkscape:connector-curvature="0"
         id="path4222-292"
         d="m 15,992.36223 -5,9.99997 5,-3.99997 c 0,0 1,0 1,-1 0,-1 -1,-1 -1,-1 0,0 -1,0 -1,1 0,1 1,1 1,1 l 5,3.99997 z"
         style="fill:url(#linearGradient4921-51);fill-opacity:1;fill-rule:evenodd;stroke:#00f1c3;stroke-width:0.1;stroke-linecap:round;stroke-linejoin:bevel;stroke-miterlimit:4;stroke-dasharray:none;stroke-opacity:0.25909089" />
      <circle
         r="1"
         cy="997.36224"
         cx="15"
         id="path4224-4"
         style="opacity:1;fill:url(#linearGradient4923-8);fill-opacity:1;stroke:#00f1c3;stroke-width:0.1;stroke-linejoin:round;stroke-miterlimit:4;stroke-dasharray:none;stroke-opacity:0.25909089" />
    </g>
    <g
       id="g4234-46"
       transform="matrix(6.3191841,0,0,-6.3191841,-62.814154,7256.1984)"
       style="opacity:0.95;fill:url(#linearGradient5305);fill-opacity:1;stroke:#00f1c3;stroke-opacity:0.25909089">
      <path
         inkscape:connector-curvature="0"
         id="path4222-69"
         d="m 15,992.36223 -5,9.99997 5,-3.99997 c 0,0 1,0 1,-1 0,-1 -1,-1 -1,-1 0,0 -1,0 -1,1 0,1 1,1 1,1 l 5,3.99997 z"
         style="fill:url(#linearGradient4921-72);fill-opacity:1;fill-rule:evenodd;stroke:#00f1c3;stroke-width:0.1;stroke-linecap:round;stroke-linejoin:bevel;stroke-miterlimit:4;stroke-dasharray:none;stroke-opacity:0.25909089" />
      <circle
         r="1"
         cy="997.36224"
         cx="15"
         id="path4224-74"
         style="opacity:1;fill:url(#linearGradient4923-0);fill-opacity:1;stroke:#00f1c3;stroke-width:0.1;stroke-linejoin:round;stroke-miterlimit:4;stroke-dasharray:none;stroke-opacity:0.25909089" />
    </g>
    <g
       id="g4234-85"
       transform="matrix(6.3191841,0,0,-6.3191841,0.94289168,7256.1984)"
       style="opacity:0.95;fill:url(#linearGradient5337);fill-opacity:1;stroke:#00f1c3;stroke-opacity:0.25909089">
      <path
         inkscape:connector-curvature="0"
         id="path4222-9"
         d="m 15,992.36223 -5,9.99997 5,-3.99997 c 0,0 1,0 1,-1 0,-1 -1,-1 -1,-1 0,0 -1,0 -1,1 0,1 1,1 1,1 l 5,3.99997 z"
         style="fill:url(#linearGradient4921-3);fill-opacity:1;fill-rule:evenodd;stroke:#00f1c3;stroke-width:0.1;stroke-linecap:round;stroke-linejoin:bevel;stroke-miterlimit:4;stroke-dasharray:none;stroke-opacity:0.25909089" />
      <circle
         r="1"
         cy="997.36224"
         cx="15"
         id="path4224-14"
         style="opacity:1;fill:url(#linearGradient4923-43);fill-opacity:1;stroke:#00f1c3;stroke-width:0.1;stroke-linejoin:round;stroke-miterlimit:4;stroke-dasharray:none;stroke-opacity:0.25909089" />
    </g>
    <g
       id="g4234-10"
       transform="matrix(6.3191841,0,0,-6.3191841,-62.814154,7319.7781)"
       style="opacity:0.95;fill:url(#linearGradient5369);fill-opacity:1;stroke:#00f1c3;stroke-opacity:0.25909089">
      <path
         inkscape:connector-curvature="0"
         id="path4222-75"
         d="m 15,992.36223 -5,9.99997 5,-3.99997 c 0,0 1,0 1,-1 0,-1 -1,-1 -1,-1 0,0 -1,0 -1,1 0,1 1,1 1,1 l 5,3.99997 z"
         style="fill:url(#linearGradient4921-77);fill-opacity:1;fill-rule:evenodd;stroke:#00f1c3;stroke-width:0.1;stroke-linecap:round;stroke-linejoin:bevel;stroke-miterlimit:4;stroke-dasharray:none;stroke-opacity:0.25909089" />
      <circle
         r="1"
         cy="997.36224"
         cx="15"
         id="path4224-78"
         style="opacity:1;fill:url(#linearGradient4923-02);fill-opacity:1;stroke:#00f1c3;stroke-width:0.1;stroke-linejoin:round;stroke-miterlimit:4;stroke-dasharray:none;stroke-opacity:0.25909089" />
    </g>
    <g
       id="g4234-27"
       transform="matrix(6.3191841,0,0,-6.3191841,0.94289168,7319.7781)"
       style="opacity:0.95;fill:url(#linearGradient5401);fill-opacity:1;stroke:#00f1c3;stroke-opacity:0.25909089">
      <path
         inkscape:connector-curvature="0"
         id="path4222-30"
         d="m 15,992.36223 -5,9.99997 5,-3.99997 c 0,0 1,0 1,-1 0,-1 -1,-1 -1,-1 0,0 -1,0 -1,1 0,1 1,1 1,1 l 5,3.99997 z"
         style="fill:url(#linearGradient4921-01);fill-opacity:1;fill-rule:evenodd;stroke:#00f1c3;stroke-width:0.1;stroke-linecap:round;stroke-linejoin:bevel;stroke-miterlimit:4;stroke-dasharray:none;stroke-opacity:0.25909089" />
      <circle
         r="1"
         cy="997.36224"
         cx="15"
         id="path4224-58"
         style="opacity:1;fill:url(#linearGradient4923-79);fill-opacity:1;stroke:#00f1c3;stroke-width:0.1;stroke-linejoin:round;stroke-miterlimit:4;stroke-dasharray:none;stroke-opacity:0.25909089" />
    </g>
  </g>
  <g
     inkscape:groupmode="layer"
     id="layer2"
     inkscape:label="Layer 2"
     style="display:none" />
</svg>
